<?xml version="1.0" encoding="utf-8"?>
<!-- Generator: Adobe Illustrator 21.0.2, SVG Export Plug-In . SVG Version: 6.00 Build 0)  -->
<svg version="1.1" id="Layer_1" xmlns="http://www.w3.org/2000/svg" xmlns:xlink="http://www.w3.org/1999/xlink" x="0px" y="0px"
	 viewBox="0 0 500 500" style="enable-background:new 0 0 500 500;" xml:space="preserve">
<style type="text/css">
	.st0{opacity:0.5;}
	.st1{fill:#75C79B;stroke:#75C79B;stroke-width:2;stroke-linecap:round;stroke-linejoin:round;stroke-miterlimit:10;}
	.st2{opacity:0.2;}
	.st3{opacity:0.8;}
	.st4{fill:#FFFFFF;}
	.st5{fill:#FB959A;}
</style>
<g id="Layer_2">
	<g class="st0">
		<g>
			<g>
				<g>
					<polygon class="st1" points="110.2,67 113,69.8 132.8,50 113,30.2 110.2,33 127.2,50 					"/>
				</g>
			</g>
		</g>
	</g>
</g>
<g id="Layer_5">
	<g>
		<g>
			<g>
				<g>
					<polygon class="st1" points="110.2,167 113,169.8 132.8,150 113,130.2 110.2,133 127.2,150 					"/>
				</g>
			</g>
		</g>
	</g>
</g>
<g id="Layer_3">
	<g class="st0">
		<g>
			<g>
				<g>
					<polygon class="st1" points="49.8,67 47,69.8 27.2,50 47,30.2 49.8,33 32.8,50 					"/>
				</g>
			</g>
		</g>
	</g>
</g>
<g id="Layer_4">
	<g>
		<g>
			<g>
				<g>
					<polygon class="st1" points="49.8,167 47,169.8 27.2,150 47,130.2 49.8,133 32.8,150 					"/>
				</g>
			</g>
		</g>
	</g>
</g>
<g id="Layer_6">
	<g class="st2">
		<g>
			<g>
				<g>
					<polygon class="st1" points="49.8,267 47,269.8 27.2,250 47,230.2 49.8,233 32.8,250 					"/>
				</g>
			</g>
		</g>
	</g>
</g>
<g id="Layer_7">
	<g class="st2">
		<g>
			<g>
				<g>
					<polygon class="st1" points="110.2,267 113,269.8 132.8,250 113,230.2 110.2,233 127.2,250 					"/>
				</g>
			</g>
		</g>
	</g>
</g>
<g id="Layer_8">
	<g class="st3">
		<g>
			<g>
				<g>
					<g>
						<polygon class="st1" points="187.7,15.7 186.3,14.3 181,19.6 175.7,14.3 174.3,15.7 179.6,21 174.3,26.3 175.7,27.7 181,22.4 
							186.3,27.7 187.7,26.3 182.4,21 						"/>
					</g>
				</g>
			</g>
		</g>
	</g>
	<g>
		<g>
			<g>
				<g>
					<g>
						<polygon class="st1" points="229.7,15.7 228.3,14.3 223,19.6 217.7,14.3 216.3,15.7 221.6,21 216.3,26.3 217.7,27.7 223,22.4 
							228.3,27.7 229.7,26.3 224.4,21 						"/>
					</g>
				</g>
			</g>
		</g>
	</g>
</g>
<g id="Layer_10">
	<g class="st0">
		<g>
			<g>
				<g>
					<polygon class="st1" points="19.3,330 33.6,344.3 31.2,346.8 14.4,330 31.2,313.2 33.6,315.7 19.3,330 					"/>
				</g>
			</g>
		</g>
	</g>
</g>
<g id="Layer_9">
	<g class="st0">
		<g>
			<g>
				<g>
					<polygon class="st1" points="76.7,330 62.4,344.3 64.8,346.8 81.6,330 64.8,313.2 62.4,315.7 76.7,330 					"/>
				</g>
			</g>
		</g>
	</g>
</g>
<g id="Layer_12">
	<g>
		<g>
			<g>
				<g>
					<polygon class="st1" points="19.3,390 33.6,404.3 31.2,406.8 14.4,390 31.2,373.2 33.6,375.7 19.3,390 					"/>
				</g>
			</g>
		</g>
	</g>
</g>
<g id="Layer_11">
	<g>
		<g>
			<g>
				<g>
					<polygon class="st1" points="76.7,390 62.4,404.3 64.8,406.8 81.6,390 64.8,373.2 62.4,375.7 76.7,390 					"/>
				</g>
			</g>
		</g>
	</g>
</g>
<g id="Layer_14">
	<g class="st2">
		<g>
			<g>
				<g>
					<polygon class="st1" points="19.3,450 33.6,464.3 31.2,466.8 14.4,450 31.2,433.2 33.6,435.7 19.3,450 					"/>
				</g>
			</g>
		</g>
	</g>
</g>
<g id="Layer_13">
	<g class="st2">
		<g>
			<g>
				<g>
					<polygon class="st1" points="76.7,450 62.4,464.3 64.8,466.8 81.6,450 64.8,433.2 62.4,435.7 76.7,450 					"/>
				</g>
			</g>
		</g>
	</g>
</g>
<g id="Layer_15">
	<g class="st3">
		<g>
			<g>
				<g>
					<polygon class="st1" points="185.1,57.7 179.8,63 185.1,68.3 183.7,69.7 178.3,64.4 176.9,63 178.3,61.6 183.7,56.3 					"/>
				</g>
			</g>
		</g>
	</g>
</g>
<g id="Layer_19">
	<g>
		<g>
			<g>
				<g>
					<polygon class="st1" points="227.1,57.7 221.8,63 227.1,68.3 225.7,69.7 220.3,64.4 218.9,63 220.3,61.6 225.7,56.3 					"/>
				</g>
			</g>
		</g>
	</g>
</g>
<g id="Layer_17">
	<g class="st2">
		<g>
			<g>
				<g>
					<polygon class="st1" points="269.1,57.7 263.8,63 269.1,68.3 267.7,69.7 262.3,64.4 260.9,63 262.3,61.6 267.7,56.3 					"/>
				</g>
			</g>
		</g>
	</g>
</g>
<g id="Layer_18">
	<g class="st2">
		<g>
			<g>
				<g>
					<polygon class="st1" points="260.9,99.7 266.2,105 260.9,110.3 262.3,111.7 267.7,106.4 269.1,105 267.7,103.6 262.3,98.3 
											"/>
				</g>
			</g>
		</g>
	</g>
	<g class="st3">
		<g>
			<g>
				<g>
					<polygon class="st1" points="176.9,99.7 182.2,105 176.9,110.3 178.3,111.7 183.7,106.4 185.1,105 183.7,103.6 178.3,98.3 
											"/>
				</g>
			</g>
		</g>
	</g>
	<g>
		<g>
			<g>
				<g>
					<polygon class="st1" points="218.9,99.7 224.2,105 218.9,110.3 220.3,111.7 225.7,106.4 227.1,105 225.7,103.6 220.3,98.3 
											"/>
				</g>
			</g>
		</g>
	</g>
</g>
<g id="Layer_20">
	<g class="st2">
		<g>
			<g>
				<g>
					<polygon class="st1" points="385.7,67.1 391,61.8 396.3,67.1 397.7,65.7 392.4,60.3 391,58.9 389.6,60.3 384.3,65.7 					"/>
				</g>
			</g>
		</g>
	</g>
	<g class="st3">
		<g>
			<g>
				<g>
					<polygon class="st1" points="301.7,67.1 307,61.8 312.3,67.1 313.7,65.7 308.4,60.3 307,58.9 305.6,60.3 300.3,65.7 					"/>
				</g>
			</g>
		</g>
	</g>
	<g>
		<g>
			<g>
				<g>
					<polygon class="st1" points="343.7,67.1 349,61.8 354.3,67.1 355.7,65.7 350.4,60.3 349,58.9 347.6,60.3 342.3,65.7 					"/>
				</g>
			</g>
		</g>
	</g>
</g>
<g id="Layer_21">
	<g class="st3">
		<g>
			<g>
				<g>
					<polygon class="st1" points="301.7,100.9 307,106.2 312.3,100.9 313.7,102.3 308.4,107.7 307,109.1 305.6,107.7 300.3,102.3 
											"/>
				</g>
			</g>
		</g>
	</g>
	<g>
		<g>
			<g>
				<g>
					<polygon class="st1" points="343.7,100.9 349,106.2 354.3,100.9 355.7,102.3 350.4,107.7 349,109.1 347.6,107.7 342.3,102.3 
											"/>
				</g>
			</g>
		</g>
	</g>
	<g class="st2">
		<g>
			<g>
				<g>
					<polygon class="st1" points="385.7,100.9 391,106.2 396.3,100.9 397.7,102.3 392.4,107.7 391,109.1 389.6,107.7 384.3,102.3 
											"/>
				</g>
			</g>
		</g>
	</g>
</g>
<g id="Layer_22">
	<g>
		<rect x="252" y="473" class="st4" width="248" height="27"/>
		<g>
			<path d="M267.8,489.5c-0.8,0.8-1.9,1.3-3,1.3s-2.2-0.4-3-1.3s-1.3-1.9-1.3-3.1c0-1.2,0.4-2.2,1.3-3s1.9-1.3,3-1.3s2.2,0.4,3,1.3
				s1.3,1.8,1.3,3C269.1,487.7,268.7,488.7,267.8,489.5z M262.2,483.9c-0.7,0.7-1.1,1.6-1.1,2.6c0,1,0.4,1.9,1.1,2.6
				c0.7,0.7,1.6,1.1,2.6,1.1s1.9-0.4,2.6-1.1c0.7-0.7,1.1-1.6,1.1-2.6c0-1-0.4-1.9-1.1-2.6c-0.7-0.7-1.6-1.1-2.6-1.1
				C263.8,482.8,262.9,483.1,262.2,483.9z M266.2,488.5c-0.4,0.3-0.8,0.4-1.3,0.4c-0.6,0-1.2-0.2-1.6-0.7s-0.7-1.1-0.7-1.8
				c0-0.7,0.2-1.3,0.6-1.8s0.9-0.7,1.6-0.7c0.4,0,0.8,0.1,1.1,0.3c0.6,0.3,0.9,0.8,0.9,1.5h-0.7c0-0.3-0.2-0.5-0.4-0.8
				c-0.2-0.2-0.5-0.3-0.9-0.3c-0.6,0-1,0.3-1.2,0.8c-0.2,0.3-0.2,0.7-0.2,1c0,0.5,0.1,1,0.4,1.4s0.6,0.5,1.1,0.5
				c0.3,0,0.6-0.1,0.8-0.3s0.4-0.4,0.5-0.7h0.7C266.8,487.8,266.6,488.3,266.2,488.5z"/>
			<path d="M273.5,482.2h1.4l4.3,7v-7h1.1v8.6h-1.3l-4.4-6.9v6.9h-1.1L273.5,482.2L273.5,482.2z"/>
			<path d="M282.4,482.2h1.2v8.6h-1.2V482.2z"/>
			<path d="M291.6,482.8c0.6,0.6,0.9,1.2,1,2h-1.1c-0.1-0.6-0.4-1-0.8-1.3s-0.9-0.5-1.6-0.5c-0.8,0-1.5,0.3-2,0.9
				c-0.5,0.6-0.8,1.5-0.8,2.7c0,1,0.2,1.8,0.7,2.5c0.5,0.6,1.2,0.9,2.1,0.9c0.8,0,1.5-0.3,1.9-1c0.2-0.3,0.4-0.8,0.5-1.4h1.1
				c-0.1,0.9-0.4,1.7-1,2.3c-0.7,0.7-1.6,1.1-2.7,1.1c-1,0-1.8-0.3-2.5-0.9c-0.9-0.8-1.3-2-1.3-3.7c0-1.3,0.3-2.3,1-3.1
				c0.7-0.9,1.7-1.3,3-1.3C290.1,482,291,482.2,291.6,482.8z"/>
			<path d="M294.1,482.2h1.1v4.2l4.3-4.2h1.6l-3.7,3.5l3.8,5.1h-1.5l-3.1-4.3l-1.4,1.3v3h-1.1L294.1,482.2L294.1,482.2z"/>
			<path d="M306.2,488c0,0.5,0.1,0.9,0.3,1.2c0.4,0.6,1,0.9,2,0.9c0.4,0,0.8-0.1,1.2-0.2c0.7-0.2,1-0.7,1-1.3c0-0.5-0.1-0.8-0.4-1
				c-0.3-0.2-0.7-0.4-1.4-0.5l-1.1-0.3c-0.7-0.2-1.3-0.4-1.6-0.6c-0.5-0.4-0.8-0.9-0.8-1.6c0-0.8,0.3-1.4,0.8-1.9s1.3-0.7,2.2-0.7
				c0.9,0,1.6,0.2,2.2,0.7s0.9,1.1,0.9,2.1h-1.1c-0.1-0.5-0.2-0.8-0.4-1.1c-0.3-0.4-0.9-0.7-1.7-0.7c-0.7,0-1.1,0.1-1.4,0.4
				s-0.4,0.6-0.4,1c0,0.4,0.2,0.7,0.5,0.9c0.2,0.1,0.7,0.3,1.5,0.5l1.2,0.3c0.6,0.1,1,0.3,1.3,0.5c0.5,0.4,0.8,1,0.8,1.8
				c0,1-0.3,1.6-1,2c-0.7,0.4-1.5,0.6-2.4,0.6c-1,0-1.9-0.3-2.5-0.8c-0.6-0.5-0.9-1.3-0.9-2.2L306.2,488L306.2,488z"/>
			<path d="M319.7,482.2v1h-2.9v7.6h-1.2v-7.6h-2.9v-1H319.7z"/>
			<path d="M322.4,482.2h1.3l3.1,8.6h-1.3l-0.9-2.6h-3.4l-0.9,2.6h-1.2L322.4,482.2z M324.4,487.3l-1.3-3.8l-1.4,3.8H324.4z"/>
			<path d="M327.9,482.2h1.1v4.2l4.3-4.2h1.6l-3.7,3.5l3.8,5.1h-1.5l-3.1-4.3l-1.4,1.3v3h-1.1L327.9,482.2L327.9,482.2z"/>
			<path d="M336,482.2h6.2v1.1h-5.1v2.6h4.7v1h-4.7v2.9h5.2v1H336L336,482.2L336,482.2z"/>
			<path d="M343.9,482.2h1.4l4.3,7v-7h1.1v8.6h-1.3l-4.4-6.9v6.9h-1.1V482.2z"/>
			<path d="M352.6,482.2h3.7c1,0,1.7,0.3,2.2,0.9c0.3,0.4,0.4,0.8,0.4,1.2c0,0.5-0.2,1-0.5,1.3c-0.2,0.2-0.4,0.4-0.7,0.5
				c0.4,0.2,0.8,0.4,1,0.6c0.4,0.4,0.6,0.9,0.6,1.6c0,0.6-0.2,1.1-0.5,1.5c-0.5,0.7-1.4,1-2.5,1h-3.7L352.6,482.2L352.6,482.2z
				 M355.9,485.8c0.5,0,0.9-0.1,1.2-0.2c0.4-0.2,0.7-0.6,0.7-1.2c0-0.6-0.2-0.9-0.7-1.1c-0.3-0.1-0.6-0.2-1.2-0.2h-2.1v2.7H355.9z
				 M356.3,489.8c0.7,0,1.2-0.2,1.5-0.6c0.2-0.3,0.3-0.6,0.3-0.9c0-0.6-0.3-1.1-0.8-1.3c-0.3-0.1-0.7-0.2-1.2-0.2h-2.3v3
				L356.3,489.8L356.3,489.8z"/>
			<path d="M361.9,482.2v5.3c0,0.6,0.1,1.1,0.4,1.6c0.4,0.6,0.9,0.9,1.8,0.9c1,0,1.7-0.3,2-1c0.2-0.4,0.3-0.9,0.3-1.5v-5.3h1.2v4.8
				c0,1.1-0.1,1.9-0.4,2.4c-0.5,1-1.5,1.6-3,1.6s-2.4-0.5-3-1.6c-0.3-0.6-0.4-1.4-0.4-2.4v-4.8L361.9,482.2L361.9,482.2z"/>
			<path d="M369.4,482.2h3.9c0.6,0,1.2,0.1,1.6,0.3c0.8,0.4,1.2,1,1.2,2c0,0.5-0.1,0.9-0.3,1.3s-0.5,0.6-0.9,0.8
				c0.3,0.1,0.6,0.3,0.8,0.5s0.3,0.6,0.3,1.1l0,1.2c0,0.3,0,0.6,0.1,0.7c0.1,0.3,0.2,0.4,0.4,0.5v0.2H375c0-0.1-0.1-0.2-0.1-0.3
				s0-0.3-0.1-0.7l-0.1-1.4c0-0.6-0.2-0.9-0.6-1.1c-0.2-0.1-0.6-0.2-1-0.2h-2.6v3.7h-1.2L369.4,482.2L369.4,482.2z M373.2,486.1
				c0.5,0,1-0.1,1.3-0.3s0.5-0.6,0.5-1.2c0-0.6-0.2-1-0.6-1.3c-0.2-0.1-0.5-0.2-0.9-0.2h-2.8v2.9L373.2,486.1L373.2,486.1z"/>
			<path d="M383.7,482.4c0.8,0.4,1.4,1.2,1.5,2.4h-1.2c-0.1-0.6-0.4-1.1-0.9-1.4s-1-0.4-1.6-0.4c-0.8,0-1.4,0.3-2,0.9
				c-0.5,0.6-0.8,1.5-0.8,2.7c0,1,0.2,1.9,0.7,2.5s1.2,1,2.2,1c0.8,0,1.4-0.2,1.9-0.7c0.5-0.5,0.8-1.2,0.8-2.2h-2.7v-1h3.8v4.6h-0.8
				l-0.3-1.1c-0.4,0.4-0.7,0.7-1,0.9c-0.5,0.3-1.1,0.4-1.9,0.4c-1,0-1.9-0.3-2.6-1c-0.8-0.8-1.2-2-1.2-3.4c0-1.4,0.4-2.6,1.2-3.4
				c0.7-0.8,1.7-1.2,2.8-1.2C382.4,482,383.1,482.1,383.7,482.4z"/>
			<path d="M390.2,486.9h2.9v1.1h-2.9V486.9z"/>
			<path d="M398,482.2h6v1.1h-4.8v2.6h4.2v1h-4.2v3.9H398L398,482.2L398,482.2z"/>
			<path d="M405.4,482.2h3.9c0.6,0,1.2,0.1,1.6,0.3c0.8,0.4,1.2,1,1.2,2c0,0.5-0.1,0.9-0.3,1.3s-0.5,0.6-0.9,0.8
				c0.3,0.1,0.6,0.3,0.8,0.5s0.3,0.6,0.3,1.1l0,1.2c0,0.3,0,0.6,0.1,0.7c0.1,0.3,0.2,0.4,0.4,0.5v0.2H411c0-0.1-0.1-0.2-0.1-0.3
				s0-0.3-0.1-0.7l-0.1-1.4c0-0.6-0.2-0.9-0.6-1.1c-0.2-0.1-0.6-0.2-1-0.2h-2.6v3.7h-1.2L405.4,482.2L405.4,482.2z M409.2,486.1
				c0.5,0,1-0.1,1.3-0.3s0.5-0.6,0.5-1.2c0-0.6-0.2-1-0.6-1.3c-0.2-0.1-0.5-0.2-0.9-0.2h-2.8v2.9L409.2,486.1L409.2,486.1z"/>
			<path d="M414,482.2h6.2v1.1h-5.1v2.6h4.7v1h-4.7v2.9h5.2v1H414L414,482.2L414,482.2z"/>
			<path d="M422.7,488c0,0.5,0.1,0.9,0.3,1.2c0.4,0.6,1,0.9,2,0.9c0.4,0,0.8-0.1,1.2-0.2c0.7-0.2,1-0.7,1-1.3c0-0.5-0.1-0.8-0.4-1
				c-0.3-0.2-0.7-0.4-1.4-0.5l-1.1-0.3c-0.7-0.2-1.3-0.4-1.6-0.6c-0.5-0.4-0.8-0.9-0.8-1.6c0-0.8,0.3-1.4,0.8-1.9s1.3-0.7,2.2-0.7
				c0.9,0,1.6,0.2,2.2,0.7s0.9,1.1,0.9,2.1h-1.1c-0.1-0.5-0.2-0.8-0.4-1.1c-0.3-0.4-0.9-0.7-1.7-0.7c-0.7,0-1.1,0.1-1.4,0.4
				s-0.4,0.6-0.4,1c0,0.4,0.2,0.7,0.5,0.9c0.2,0.1,0.7,0.3,1.5,0.5l1.2,0.3c0.6,0.1,1,0.3,1.3,0.5c0.5,0.4,0.8,1,0.8,1.8
				c0,1-0.3,1.6-1,2c-0.7,0.4-1.5,0.6-2.4,0.6c-1,0-1.9-0.3-2.5-0.8c-0.6-0.5-0.9-1.3-0.9-2.2L422.7,488L422.7,488z"/>
			<path d="M436,482.8c0.6,0.6,0.9,1.2,1,2h-1.1c-0.1-0.6-0.4-1-0.8-1.3s-0.9-0.5-1.6-0.5c-0.8,0-1.5,0.3-2,0.9
				c-0.5,0.6-0.8,1.5-0.8,2.7c0,1,0.2,1.8,0.7,2.5c0.5,0.6,1.2,0.9,2.1,0.9c0.8,0,1.5-0.3,1.9-1c0.2-0.3,0.4-0.8,0.5-1.4h1.1
				c-0.1,0.9-0.4,1.7-1,2.3c-0.7,0.7-1.6,1.1-2.7,1.1c-1,0-1.8-0.3-2.5-0.9c-0.9-0.8-1.3-2-1.3-3.7c0-1.3,0.3-2.3,1-3.1
				c0.7-0.9,1.7-1.3,3-1.3C434.6,482,435.4,482.2,436,482.8z"/>
			<path d="M445.7,483.4c0.6,0.8,0.9,1.7,0.9,2.9c0,1.3-0.3,2.4-1,3.2c-0.8,1-1.9,1.5-3.3,1.5c-1.3,0-2.4-0.4-3.1-1.3
				c-0.7-0.8-1-1.9-1-3.2c0-1.2,0.3-2.2,0.9-3c0.7-1.1,1.8-1.6,3.3-1.6C443.8,482,445,482.4,445.7,483.4z M444.7,488.9
				c0.5-0.7,0.7-1.6,0.7-2.5c0-1-0.3-1.8-0.8-2.4c-0.5-0.6-1.3-0.9-2.2-0.9c-0.9,0-1.6,0.3-2.2,0.9c-0.6,0.6-0.8,1.5-0.8,2.7
				c0,1,0.2,1.8,0.7,2.4c0.5,0.7,1.3,1,2.3,1C443.5,490,444.2,489.6,444.7,488.9z"/>
			<path d="M452.2,488.2c0,0.7-0.1,1.3-0.3,1.7c-0.4,0.7-1.2,1.1-2.3,1.1c-0.6,0-1.2-0.2-1.7-0.5c-0.5-0.4-0.7-1-0.7-1.9V488h1.1
				v0.6c0,0.5,0.1,0.8,0.3,1.1c0.2,0.2,0.5,0.4,1,0.4c0.6,0,1-0.2,1.2-0.6c0.1-0.3,0.2-0.8,0.2-1.5v-5.7h1.2L452.2,488.2
				L452.2,488.2z"/>
			<path d="M454.7,488c0,0.5,0.1,0.9,0.3,1.2c0.4,0.6,1,0.9,2,0.9c0.4,0,0.8-0.1,1.2-0.2c0.7-0.2,1-0.7,1-1.3c0-0.5-0.1-0.8-0.4-1
				c-0.3-0.2-0.7-0.4-1.4-0.5l-1.1-0.3c-0.7-0.2-1.3-0.4-1.6-0.6c-0.5-0.4-0.8-0.9-0.8-1.6c0-0.8,0.3-1.4,0.8-1.9s1.3-0.7,2.2-0.7
				c0.9,0,1.6,0.2,2.2,0.7s0.9,1.1,0.9,2.1h-1.1c-0.1-0.5-0.2-0.8-0.4-1.1c-0.3-0.4-0.9-0.7-1.7-0.7c-0.7,0-1.1,0.1-1.4,0.4
				s-0.4,0.6-0.4,1c0,0.4,0.2,0.7,0.5,0.9c0.2,0.1,0.7,0.3,1.5,0.5l1.2,0.3c0.6,0.1,1,0.3,1.3,0.5c0.5,0.4,0.8,1,0.8,1.8
				c0,1-0.3,1.6-1,2c-0.7,0.4-1.5,0.6-2.4,0.6c-1,0-1.9-0.3-2.5-0.8c-0.6-0.5-0.9-1.3-0.9-2.2L454.7,488L454.7,488z"/>
			<path d="M462.1,489.5h1.2v1.3h-1.2V489.5z"/>
			<path d="M471.4,482.8c0.6,0.6,0.9,1.2,1,2h-1.1c-0.1-0.6-0.4-1-0.8-1.3s-0.9-0.5-1.6-0.5c-0.8,0-1.5,0.3-2,0.9
				c-0.5,0.6-0.8,1.5-0.8,2.7c0,1,0.2,1.8,0.7,2.5c0.5,0.6,1.2,0.9,2.1,0.9c0.8,0,1.5-0.3,1.9-1c0.2-0.3,0.4-0.8,0.5-1.4h1.1
				c-0.1,0.9-0.4,1.7-1,2.3c-0.7,0.7-1.6,1.1-2.7,1.1c-1,0-1.8-0.3-2.5-0.9c-0.9-0.8-1.3-2-1.3-3.7c0-1.3,0.3-2.3,1-3.1
				c0.7-0.9,1.7-1.3,3-1.3C469.9,482,470.8,482.2,471.4,482.8z"/>
			<path d="M481,483.4c0.6,0.8,0.9,1.7,0.9,2.9c0,1.3-0.3,2.4-1,3.2c-0.8,1-1.9,1.5-3.3,1.5c-1.3,0-2.4-0.4-3.1-1.3
				c-0.7-0.8-1-1.9-1-3.2c0-1.2,0.3-2.2,0.9-3c0.7-1.1,1.8-1.6,3.3-1.6C479.2,482,480.3,482.4,481,483.4z M480,488.9
				c0.5-0.7,0.7-1.6,0.7-2.5c0-1-0.3-1.8-0.8-2.4c-0.5-0.6-1.3-0.9-2.2-0.9c-0.9,0-1.6,0.3-2.2,0.9c-0.6,0.6-0.8,1.5-0.8,2.7
				c0,1,0.2,1.8,0.7,2.4c0.5,0.7,1.3,1,2.3,1C478.8,490,479.5,489.6,480,488.9z"/>
			<path d="M483.3,482.2h1.7l2.5,7.3l2.5-7.3h1.7v8.6h-1.1v-5.1c0-0.2,0-0.5,0-0.9s0-0.8,0-1.3l-2.5,7.3h-1.2l-2.5-7.3v0.3
				c0,0.2,0,0.5,0,1s0,0.7,0,1v5.1h-1.1L483.3,482.2L483.3,482.2z"/>
		</g>
	</g>
</g>
<g id="Layer_23">
	<g>
		<g>
			<g>
				<polygon class="st5" points="172.3,146.3 174.1,148 175.8,146.3 177.5,144.6 179.3,146.3 181,148 182.7,146.3 184.5,144.6 
					186.2,146.3 187.9,148 189.7,146.3 190,146 190,138.5 185,133.5 172,133.5 172,146 				"/>
				<polygon class="st5" points="189.7,149.8 187.9,151.5 186.2,149.8 184.5,148 182.7,149.8 181,151.5 179.3,149.8 177.5,148 
					175.8,149.8 174.1,151.5 172.3,149.8 172,149.4 172,160.5 190,160.5 190,149.4 				"/>
			</g>
		</g>
	</g>
</g>
</svg>
