<?xml version="1.0" standalone="no"?>
<!DOCTYPE svg PUBLIC "-//W3C//DTD SVG 1.1//EN" "http://www.w3.org/Graphics/SVG/1.1/DTD/svg11.dtd" >
<svg xmlns="http://www.w3.org/2000/svg">
<metadata></metadata>
<defs>
<font id="ars_maquette_prolight" horiz-adv-x="1173" >
<font-face units-per-em="2048" ascent="1638" descent="-410" />
<missing-glyph horiz-adv-x="552" />
<glyph unicode="&#xfb01;" horiz-adv-x="1126" d="M57 934v121h187v153q0 143 78 210t213 67q100 0 151 -23l-20 -114q-79 18 -131 18q-81 0 -120.5 -36t-39.5 -120v-155h258v-121h-258v-934h-131v934h-187zM825 0v1055h131v-1055h-131zM825 1298v164h131v-164h-131z" />
<glyph unicode="&#xfb02;" horiz-adv-x="1144" d="M57 934v121h187v153q0 143 78 210t213 67q100 0 151 -23l-20 -114q-79 18 -131 18q-81 0 -120.5 -36t-39.5 -120v-155h258v-121h-258v-934h-131v934h-187zM838 0v1462h131v-1462h-131z" />
<glyph horiz-adv-x="2048" />
<glyph horiz-adv-x="2048" />
<glyph unicode="&#xd;" horiz-adv-x="2048" />
<glyph unicode=" "  horiz-adv-x="552" />
<glyph unicode="&#x09;" horiz-adv-x="552" />
<glyph unicode="&#xa0;" horiz-adv-x="552" />
<glyph unicode="!" horiz-adv-x="530" d="M186 0v199h158v-199h-158zM186 1069v295h158v-295l-43 -672h-72z" />
<glyph unicode="&#x22;" horiz-adv-x="731" d="M111 1307v57h159v-57l-51 -416h-55zM461 1307v57h157v-57l-51 -416h-55z" />
<glyph unicode="#" horiz-adv-x="1284" d="M80 393v90h254l69 398h-239v90h254l69 393h97l-70 -393h354l70 393h96l-69 -393h239v-90h-254l-69 -398h239v-90h-254l-69 -393h-97l70 393h-354l-70 -393h-96l69 393h-239zM430 483h354l70 398h-354z" />
<glyph unicode="$" d="M66 229l114 86q61 -92 157.5 -146.5t207.5 -66.5v547q-74 17 -127.5 33.5t-113.5 46.5t-97.5 67t-62.5 94.5t-25 129.5q0 166 118.5 263.5t307.5 105.5v153h106v-153q127 -13 234 -71.5t182 -152.5l-104 -80q-123 149 -312 175v-494q80 -20 136 -38t118.5 -50 t100.5 -70.5t63 -97t25 -131.5q0 -169 -121 -278t-322 -124v-178h-106v178q-161 9 -283.5 76t-195.5 176zM260 1036q0 -46 15 -81.5t37 -58.5t63 -43t76.5 -32t93.5 -28v473q-124 -5 -204.5 -61.5t-80.5 -168.5zM651 102q136 9 217.5 80.5t81.5 190.5q0 46 -15 82.5 t-38.5 61.5t-64 45.5t-81 34t-100.5 28.5v-523z" />
<glyph unicode="%" horiz-adv-x="1531" d="M74 1059q0 139 86 231t223 92q139 0 225 -92t86 -231q0 -144 -86 -238t-225 -94q-138 0 -223.5 94t-85.5 238zM172 1059q0 -101 57.5 -167.5t153.5 -66.5t153.5 66.5t57.5 167.5q0 97 -58 161t-153 64q-96 0 -153.5 -63.5t-57.5 -161.5zM360 0l703 1364h108l-702 -1364 h-109zM838 311q0 140 86.5 233t224.5 93q139 0 224 -92.5t85 -233.5q0 -143 -85 -236t-224 -93q-138 0 -224.5 93t-86.5 236zM938 311q0 -99 58 -165t153 -66q96 0 153.5 66t57.5 165q0 97 -58 162.5t-153 65.5t-153 -65.5t-58 -162.5z" />
<glyph unicode="&#x26;" horiz-adv-x="1339" d="M76 356q0 255 317 389q-91 96 -129.5 167t-38.5 161q0 150 99 233t254 83q160 0 255 -86.5t95 -219.5q0 -115 -79 -206.5t-245 -167.5l369 -375q92 126 137 282l127 -34q-60 -196 -174 -340l237 -242h-174l-149 150q-190 -175 -438 -175q-200 0 -331.5 103.5 t-131.5 277.5zM219 369q0 -122 93.5 -194.5t242.5 -72.5q189 0 334 136l-416 421q-117 -49 -185.5 -117.5t-68.5 -172.5zM356 1073q0 -70 38.5 -128.5t125.5 -149.5q51 24 82 40t73 43.5t65.5 53.5t41 63.5t17.5 79.5q0 91 -66 141t-158 50t-155.5 -51t-63.5 -142z" />
<glyph unicode="'" horiz-adv-x="380" d="M113 1307v57h157v-57l-53 -416h-53z" />
<glyph unicode="(" horiz-adv-x="571" d="M94 621q0 251 87 476t261 398l90 -84q-157 -152 -234 -356t-77 -434q0 -231 77 -435t234 -356l-90 -84q-174 174 -261 399t-87 476z" />
<glyph unicode=")" horiz-adv-x="571" d="M39 -170q157 152 234 356t77 435q0 230 -77 434t-234 356l90 84q174 -174 261 -398.5t87 -475.5t-87 -476.5t-261 -398.5z" />
<glyph unicode="*" horiz-adv-x="837" d="M94 901q131 77 266 137q-64 28 -111.5 52t-72 38t-82.5 48l43 75q132 -75 252 -161q-14 143 -14 299h88q0 -156 -14 -299q124 89 251 161l43 -75q-58 -34 -82.5 -48t-72 -38t-111.5 -52q135 -60 266 -137l-43 -76q-120 68 -251 162q14 -143 14 -299h-88q0 156 14 299 q-127 -91 -252 -162z" />
<glyph unicode="+" d="M115 563v119h411v414h121v-414h412v-119h-412v-411h-121v411h-411z" />
<glyph unicode="," horiz-adv-x="479" d="M141 -242q101 88 101 191v51h-90v176h176v-184q0 -153 -133 -283z" />
<glyph unicode="-" horiz-adv-x="792" d="M135 516v119h522v-119h-522z" />
<glyph unicode="." horiz-adv-x="479" d="M152 0v176h176v-176h-176z" />
<glyph unicode="/" horiz-adv-x="688" d="M68 -221l450 1683h107l-451 -1683h-106z" />
<glyph unicode="0" d="M104 682q0 110 14 207.5t49 191t88.5 160.5t138.5 107.5t194 40.5q91 0 165.5 -28t126 -78.5t89 -116t59 -147t31.5 -164t10 -173.5q0 -110 -13.5 -207t-48 -190.5t-87.5 -160.5t-138 -108t-194 -41t-194 41t-138.5 108t-88.5 160.5t-49 190.5t-14 207zM256 682 q0 -126 17 -226t54 -181.5t103 -126t158 -44.5q330 0 330 578q0 575 -330 575q-92 0 -158 -44t-103 -125t-54 -181t-17 -225z" />
<glyph unicode="1" d="M193 1186q286 59 405 178h113v-1245h329v-119h-825v119h348v1059q-51 -32 -153 -65t-199 -44z" />
<glyph unicode="2" d="M106 1141q80 116 197 182t264 66q187 0 310.5 -112.5t123.5 -297.5q0 -78 -25 -152t-71 -145.5t-131 -159t-184 -175.5t-250 -212h717v-135h-926v117q207 176 331.5 291t217.5 221t130.5 186.5t37.5 159.5q0 136 -80 206t-211 70q-112 0 -196.5 -53t-139.5 -137z" />
<glyph unicode="3" d="M88 225l129 80q53 -99 146.5 -145.5t211.5 -46.5q149 0 232.5 75t83.5 203q0 117 -83.5 184.5t-248.5 67.5h-100v135h108q133 0 209 66.5t76 179.5q0 106 -74.5 166.5t-206.5 60.5q-219 0 -340 -157l-106 86q173 209 446 209q189 0 311 -100t122 -255 q0 -106 -56.5 -184.5t-154.5 -126.5q127 -50 189 -141t62 -199q0 -178 -128.5 -293t-340.5 -115q-341 0 -487 250z" />
<glyph unicode="4" d="M74 336v129q142 239 216.5 478t74.5 421h147q0 -183 -79.5 -431.5t-215.5 -463.5h528v586h146v-586h209v-133h-209v-336h-146v336h-671z" />
<glyph unicode="5" d="M100 225l129 80q53 -99 142 -145.5t198 -46.5q155 0 245.5 84t90.5 233q0 144 -86 225.5t-237 81.5q-200 0 -310 -137l-92 49l45 715h756v-135h-631l-35 -447q126 90 295 90q197 0 323 -122t126 -314q0 -95 -34 -178.5t-95 -146.5t-153.5 -99.5t-203.5 -36.5 q-327 0 -473 250z" />
<glyph unicode="6" d="M109 473q0 122 38.5 242.5t111 233t157 210t196.5 205.5h205q-93 -78 -186.5 -171t-187.5 -216t-134 -223q55 63 149 93t185 30q188 0 314 -123t126 -320q0 -203 -134.5 -331t-354.5 -128t-352.5 132.5t-132.5 365.5zM260 430q0 -143 90 -230t248 -87q157 0 244.5 86.5 t87.5 230.5t-87.5 229.5t-244.5 85.5t-247.5 -86.5t-90.5 -228.5z" />
<glyph unicode="7" d="M102 1229v135h973v-131q-61 -75 -126.5 -166.5t-148 -227t-147.5 -268t-114 -286t-58 -285.5h-157q9 128 56.5 278.5t109 279.5t144 266.5t145 228.5t126.5 176h-803z" />
<glyph unicode="8" d="M100 383q0 114 62.5 210.5t189.5 149.5q-200 91 -200 291q0 155 122.5 255t311.5 100t311.5 -100t122.5 -255q0 -199 -201 -291q127 -53 189.5 -149.5t62.5 -210.5q0 -178 -132.5 -293t-352.5 -115t-353 115t-133 293zM254 391q0 -128 86.5 -203t245.5 -75t245.5 75 t86.5 203q0 126 -83.5 200.5t-248.5 74.5t-248.5 -74.5t-83.5 -200.5zM303 1024q0 -103 75 -163t208 -60t207.5 60t74.5 163q0 106 -75 166.5t-207 60.5t-207.5 -60.5t-75.5 -166.5z" />
<glyph unicode="9" d="M90 930q0 202 135 330.5t355 128.5t352.5 -132.5t132.5 -365.5q0 -122 -38.5 -242.5t-111.5 -233t-157 -210t-197 -205.5h-205q93 78 186.5 171t187.5 216t134 223q-55 -63 -149 -93t-185 -30q-188 0 -314 123t-126 320zM244 934q0 -144 87 -230t244 -86t247.5 87 t90.5 229q0 143 -90 230t-248 87q-157 0 -244 -86.5t-87 -230.5z" />
<glyph unicode=":" horiz-adv-x="598" d="M211 0v176h176v-176h-176zM211 879v176h176v-176h-176z" />
<glyph unicode=";" horiz-adv-x="598" d="M201 -242q100 87 100 191v51h-90v176h176v-184q0 -153 -133 -283zM211 879v176h176v-176h-176z" />
<glyph unicode="&#x3c;" d="M238 625l555 555l81 -82l-471 -473l471 -471l-81 -82z" />
<glyph unicode="=" d="M115 369v120h944v-120h-944zM115 758v119h944v-119h-944z" />
<glyph unicode="&#x3e;" d="M297 154l473 471l-473 473l80 82l557 -555l-557 -553z" />
<glyph unicode="?" horiz-adv-x="1005" d="M63 1225q192 164 410 164q123 0 222 -47t158.5 -139t59.5 -214q0 -176 -119.5 -286t-316.5 -128v-178h-121v295q23 -4 58 -4q156 0 254 80t98 215q0 118 -77.5 194t-221.5 76q-171 0 -322 -131zM334 0v199h158v-199h-158z" />
<glyph unicode="@" horiz-adv-x="1714" d="M90 614q0 158 58 300.5t159 247t246 166t311 61.5t312 -61.5t246.5 -164.5t158 -240t57.5 -286q0 -188 -86.5 -299t-228.5 -111q-72 0 -132 33t-91 107q-50 -72 -123 -109t-158 -37q-154 0 -249 111t-95 280q0 168 95.5 278.5t254.5 110.5q155 0 252 -116v100h121v-528 q0 -129 123 -129q98 0 148.5 77.5t50.5 212.5q0 180 -83 330t-234 239t-337 89q-188 0 -339 -91t-233.5 -242t-82.5 -329q0 -179 83 -329t233.5 -239t336.5 -89q176 0 322 82l55 -98q-186 -97 -383 -97q-217 0 -393.5 103t-275.5 279t-99 388zM604 612q0 -122 60 -199 t174 -77t176.5 78t62.5 198t-63 197.5t-178 77.5q-112 0 -172 -77t-60 -198z" />
<glyph unicode="A" horiz-adv-x="1351" d="M29 0l565 1364h164l565 -1364h-162l-166 410h-649l-166 -410h-151zM401 545h541l-266 674z" />
<glyph unicode="B" horiz-adv-x="1339" d="M195 0v1364h542q206 0 319 -82.5t113 -234.5q0 -101 -48.5 -176.5t-129.5 -120.5q117 -49 177.5 -142.5t60.5 -218.5q0 -81 -27 -150t-80.5 -123t-140 -85t-197.5 -31h-589zM338 135h446q141 0 217 68t76 190q0 120 -70.5 192t-211.5 72h-457v-522zM338 791h414 q130 0 201 63.5t71 171.5q0 104 -71 153.5t-216 49.5h-399v-438z" />
<glyph unicode="C" horiz-adv-x="1359" d="M106 682q0 150 47 280.5t131.5 224.5t207.5 148t268 54q326 0 514 -252l-113 -88q-139 202 -399 202q-228 0 -365 -154t-137 -413q0 -260 137 -415.5t361 -155.5q129 0 233.5 53.5t169.5 150.5l119 -88q-88 -121 -221 -187.5t-297 -66.5q-195 0 -345 92.5t-230.5 253 t-80.5 361.5z" />
<glyph unicode="D" horiz-adv-x="1468" d="M195 0v1364h514q202 0 350.5 -89.5t223.5 -242.5t75 -350q0 -146 -43.5 -270.5t-125 -216t-205 -143.5t-275.5 -52h-514zM340 135h369q237 0 366 148t129 399q0 252 -129 399.5t-366 147.5h-369v-1094z" />
<glyph unicode="E" horiz-adv-x="1261" d="M195 0v1364h940v-135h-795v-438h692v-134h-692v-522h815v-135h-960z" />
<glyph unicode="F" horiz-adv-x="1218" d="M195 0v1364h958v-135h-813v-438h690v-134h-690v-657h-145z" />
<glyph unicode="G" horiz-adv-x="1472" d="M106 684q0 202 80.5 362t230.5 251.5t345 91.5q163 0 293 -66t219 -186l-115 -86q-66 95 -168.5 147.5t-232.5 52.5q-228 0 -363 -155.5t-135 -411.5t135.5 -413.5t366.5 -157.5q198 0 327.5 118.5t141.5 317.5h-422v135h567q6 -37 6 -86q0 -126 -42 -238.5t-119.5 -198 t-195.5 -136t-261 -50.5q-196 0 -347 93t-231 254t-80 362z" />
<glyph unicode="H" horiz-adv-x="1480" d="M195 0v1364h143v-573h805v573h143v-1364h-143v657h-805v-657h-143z" />
<glyph unicode="I" horiz-adv-x="532" d="M195 0v1364h143v-1364h-143z" />
<glyph unicode="J" horiz-adv-x="980" d="M31 150l114 81q93 -118 250 -118q260 0 260 299v952h146v-952q0 -207 -115 -322t-305 -115q-229 0 -350 175z" />
<glyph unicode="K" horiz-adv-x="1284" d="M195 0v1364h143v-780l713 780h176l-541 -588l594 -776h-182l-508 674l-252 -277v-397h-143z" />
<glyph unicode="L" horiz-adv-x="1148" d="M195 0v1364h143v-1229h780v-135h-923z" />
<glyph unicode="M" horiz-adv-x="1775" d="M195 0v1364h223l473 -1184l475 1184h215v-1364h-141v1214l-486 -1214h-133l-487 1219v-1219h-139z" />
<glyph unicode="N" horiz-adv-x="1480" d="M195 0v1364h184l768 -1163v1163h139v-1364h-168l-786 1192v-1192h-137z" />
<glyph unicode="O" horiz-adv-x="1523" d="M106 682q0 202 80.5 362.5t230.5 252.5t345 92t345 -92t230 -252.5t80 -362.5q0 -150 -47 -280.5t-131 -224.5t-207.5 -148t-269.5 -54q-195 0 -345 92.5t-230.5 253t-80.5 361.5zM260 682q0 -256 135.5 -412.5t366.5 -156.5q230 0 366 156.5t136 412.5q0 257 -136 413 t-366 156q-231 0 -366.5 -156t-135.5 -413z" />
<glyph unicode="P" horiz-adv-x="1280" d="M195 0v1364h550q226 0 347.5 -110.5t121.5 -297.5t-121.5 -297t-347.5 -110h-407v-549h-143zM338 684h410q158 0 236.5 73t78.5 199t-79 199.5t-236 73.5h-410v-545z" />
<glyph unicode="Q" horiz-adv-x="1523" d="M106 682q0 202 80.5 362.5t230.5 252.5t345 92t345 -92t230 -252.5t80 -362.5q0 -171 -60 -314t-169 -239l155 -188l-100 -84l-164 196q-138 -78 -317 -78q-195 0 -345 92.5t-230.5 253t-80.5 361.5zM260 682q0 -256 135.5 -412.5t366.5 -156.5q129 0 227 49l-151 186 l102 84l158 -194q80 75 123 189.5t43 254.5q0 257 -136 413t-366 156q-231 0 -366.5 -156t-135.5 -413z" />
<glyph unicode="R" horiz-adv-x="1337" d="M195 0v1364h581q198 0 318 -104.5t120 -280.5q0 -138 -77.5 -236.5t-210.5 -140.5l325 -602h-164l-309 578h-440v-578h-143zM338 713h440q132 0 208.5 70.5t76.5 185.5q0 118 -79.5 189t-211.5 71h-434v-516z" />
<glyph unicode="S" horiz-adv-x="1210" d="M80 236l125 88q68 -106 178.5 -159.5t239.5 -53.5q152 0 243.5 70t91.5 194q0 43 -11.5 76.5t-38 58.5t-54.5 42.5t-77.5 33.5t-88.5 26t-105 25q-12 3 -18 4q-74 17 -127.5 33.5t-114 47t-98.5 67.5t-63 95t-25 130q0 175 129.5 275t329.5 100q151 0 277 -60.5 t212 -169.5l-112 -86q-67 86 -166.5 133t-220.5 47q-60 0 -112 -12t-95.5 -37.5t-68.5 -70t-25 -103.5q0 -30 6 -55t20 -45.5t28 -36t41 -30t46.5 -23.5t57.5 -20.5t60.5 -18t67.5 -17.5q67 -17 108 -28t99.5 -31.5t94.5 -40t77 -50.5t63.5 -65.5t38 -82.5t15.5 -105 q0 -184 -137.5 -295t-362.5 -111q-177 0 -312.5 70.5t-215.5 190.5z" />
<glyph unicode="T" horiz-adv-x="1200" d="M49 1229v135h1102v-135h-479v-1229h-146v1229h-477z" />
<glyph unicode="U" horiz-adv-x="1449" d="M178 508v856h144v-856q0 -178 108 -286.5t293 -108.5q184 0 294.5 108.5t110.5 286.5v856h144v-856q0 -238 -155.5 -385.5t-393.5 -147.5q-239 0 -392 147t-153 386z" />
<glyph unicode="V" horiz-adv-x="1265" d="M31 1364h153l449 -1194l459 1194h143l-528 -1364h-148z" />
<glyph unicode="W" horiz-adv-x="1910" d="M57 1364h150l321 -1196l359 1196h147l357 -1198l317 1198h145l-380 -1364h-168l-349 1190l-350 -1190h-172z" />
<glyph unicode="X" horiz-adv-x="1292" d="M20 0l539 709l-500 655h177l411 -559l416 559h168l-496 -655l537 -709h-176l-451 600l-452 -600h-173z" />
<glyph unicode="Y" horiz-adv-x="1218" d="M16 1364h170l426 -666l428 666h164l-522 -797v-567h-147v567z" />
<glyph unicode="Z" horiz-adv-x="1202" d="M84 0v129l834 1100h-801v135h979v-129l-834 -1100h850v-135h-1028z" />
<glyph unicode="[" horiz-adv-x="589" d="M174 -221v1683h397v-121h-270v-1441h270v-121h-397z" />
<glyph unicode="\" horiz-adv-x="688" d="M63 1462h107l451 -1683h-107z" />
<glyph unicode="]" horiz-adv-x="591" d="M18 -100h273v1441h-273v121h400v-1683h-400v121z" />
<glyph unicode="^" d="M57 897l467 467h125l467 -467l-82 -84l-444 449l-451 -449z" />
<glyph unicode="_" horiz-adv-x="1259" d="M18 -154h1223v-102h-1223v102z" />
<glyph unicode="`" horiz-adv-x="653" d="M143 1462l142 23q30 -53 82 -120.5t102 -117.5l-55 -59q-87 53 -164.5 131t-106.5 143z" />
<glyph unicode="a" horiz-adv-x="1142" d="M86 293q0 51 12.5 93.5t32.5 72t50.5 53.5t60 39t68 26.5t67.5 17.5t65 11q22 3 65 8.5t66.5 8.5t60 10t57 14.5t45.5 20t38 28t22 38t9 50.5q0 61 -41.5 101.5t-97.5 55.5t-123 15q-184 0 -328 -114l-74 98q182 139 406 139q181 0 288 -84t107 -252v-518 q0 -68 21.5 -98.5t72.5 -30.5q40 0 66 13l18 -109q-44 -16 -104 -16q-81 0 -136.5 45t-64.5 135q-130 -189 -373 -189q-163 0 -259.5 85.5t-96.5 232.5zM223 297q0 -102 67.5 -151.5t176.5 -49.5q66 0 125.5 18.5t109.5 55t79.5 99.5t29.5 145v202q-24 -29 -51.5 -49 t-65.5 -31.5t-64.5 -17t-81 -12.5t-81.5 -12q-59 -10 -97 -21t-75 -32.5t-54.5 -57t-17.5 -86.5z" />
<glyph unicode="b" horiz-adv-x="1282" d="M170 0v1462h131v-600q141 217 393 217q222 0 355 -156t133 -395q0 -240 -133.5 -396.5t-354.5 -156.5q-250 0 -393 218v-193h-131zM301 526q0 -185 100 -304.5t277 -119.5q176 0 270 118.5t94 305.5q0 90 -22.5 166.5t-66.5 135t-114.5 91.5t-160.5 33 q-178 0 -277.5 -120.5t-99.5 -305.5z" />
<glyph unicode="c" horiz-adv-x="1087" d="M100 528q0 156 60.5 281t175.5 197.5t264 72.5q128 0 233 -54t175 -151l-105 -79q-109 159 -301 159q-164 0 -263 -120.5t-99 -305.5q0 -186 98 -307t260 -121q195 0 307 164l105 -80q-70 -96 -175 -152.5t-237 -56.5q-148 0 -262.5 73t-175 198.5t-60.5 281.5z" />
<glyph unicode="d" horiz-adv-x="1282" d="M100 526q0 240 133.5 396.5t354.5 156.5q250 0 393 -217v600h131v-1462h-131v193q-142 -218 -393 -218q-222 0 -355 156t-133 395zM240 528q0 -90 22.5 -166.5t66.5 -135t114.5 -91.5t160.5 -33q178 0 277.5 120.5t99.5 305.5t-100 304.5t-277 119.5q-176 0 -270 -118.5 t-94 -305.5z" />
<glyph unicode="e" horiz-adv-x="1181" d="M100 524q0 116 35.5 217t99.5 176t159.5 118.5t209.5 43.5q147 0 260 -70.5t172.5 -188t59.5 -261.5q0 -37 -4 -61h-852q7 -183 112 -288.5t275 -105.5q190 0 319 144l92 -92q-164 -181 -411 -181q-242 0 -384.5 154.5t-142.5 394.5zM244 610h712q-14 164 -113.5 254 t-242.5 90q-151 0 -247.5 -96t-108.5 -248z" />
<glyph unicode="f" horiz-adv-x="690" d="M57 934v121h187v153q0 143 78 210t213 67q100 0 151 -23l-20 -114q-79 18 -131 18q-81 0 -120.5 -36t-39.5 -120v-155h258v-121h-258v-934h-131v934h-187z" />
<glyph unicode="g" horiz-adv-x="1286" d="M104 559q0 228 138 374t350 146q124 0 228.5 -54.5t166.5 -162.5v193h131v-899q0 -242 -110 -369q-140 -164 -428 -164q-252 0 -433 131l80 111q157 -115 359 -115q87 0 158.5 22.5t126.5 67.5t85.5 120.5t30.5 174.5v129q-62 -108 -171 -162.5t-234 -54.5 q-210 0 -344 144.5t-134 367.5zM244 563q0 -168 94.5 -279.5t271.5 -111.5t278 111.5t101 279.5q0 167 -100 277t-279 110q-91 0 -162 -31t-115 -84.5t-66.5 -122.5t-22.5 -149z" />
<glyph unicode="h" horiz-adv-x="1210" d="M170 0v1462h131v-600q141 217 377 217q171 0 273 -105.5t102 -299.5v-674h-131v643q0 309 -260 309q-156 0 -258.5 -104.5t-102.5 -267.5v-580h-131z" />
<glyph unicode="i" horiz-adv-x="471" d="M170 0v1055h131v-1055h-131zM170 1298v164h131v-164h-131z" />
<glyph unicode="j" horiz-adv-x="471" d="M-186 -350l34 119q51 -21 113 -21q209 0 209 236v1071h131v-1067q0 -177 -94.5 -269t-247.5 -92q-82 0 -145 23zM170 1298v164h131v-164h-131z" />
<glyph unicode="k" horiz-adv-x="1126" d="M170 0v1462h131v-991l578 584h174l-441 -439l500 -616h-174l-420 530l-217 -217v-313h-131z" />
<glyph unicode="l" horiz-adv-x="483" d="M176 0v1462h131v-1462h-131z" />
<glyph unicode="m" horiz-adv-x="1880" d="M170 0v1055h131v-189q134 213 356 213q119 0 203.5 -57.5t122.5 -167.5q142 225 381 225q167 0 262.5 -103t95.5 -294v-682h-131v649q0 48 -5.5 88t-21 81.5t-41.5 69.5t-70 46t-103 18q-146 0 -242 -102.5t-96 -261.5v-588h-131v649q0 49 -5.5 89.5t-21.5 81.5t-42.5 69 t-71 45.5t-103.5 17.5q-146 0 -241 -102t-95 -262v-588h-131z" />
<glyph unicode="n" horiz-adv-x="1210" d="M170 0v1055h131v-193q141 217 377 217q171 0 273 -105.5t102 -299.5v-674h-131v643q0 309 -260 309q-156 0 -258.5 -104.5t-102.5 -267.5v-580h-131z" />
<glyph unicode="o" horiz-adv-x="1210" d="M100 526q0 158 60.5 283t176 197.5t267.5 72.5q229 0 367.5 -156t138.5 -397q0 -156 -61 -280.5t-177 -197.5t-268 -73t-267.5 73t-176 197.5t-60.5 280.5zM240 526q0 -183 98 -304.5t266 -121.5t266.5 121.5t98.5 304.5q0 121 -42.5 217.5t-126.5 153.5t-196 57 t-196 -57.5t-126 -153.5t-42 -217z" />
<glyph unicode="p" horiz-adv-x="1282" d="M170 -356v1411h131v-193q141 217 393 217q222 0 355 -156t133 -395q0 -240 -133.5 -396.5t-354.5 -156.5q-250 0 -393 218v-549h-131zM301 526q0 -185 100 -304.5t277 -119.5q176 0 270 118.5t94 305.5q0 90 -22.5 166.5t-66.5 135t-114.5 91.5t-160.5 33 q-178 0 -277.5 -120.5t-99.5 -305.5z" />
<glyph unicode="q" horiz-adv-x="1282" d="M100 526q0 240 133.5 396.5t354.5 156.5q250 0 393 -217v193h131v-1411h-131v549q-142 -218 -393 -218q-222 0 -355 156t-133 395zM240 528q0 -90 22.5 -166.5t66.5 -135t114.5 -91.5t160.5 -33q178 0 277.5 120.5t99.5 305.5t-100 304.5t-277 119.5q-176 0 -270 -118.5 t-94 -305.5z" />
<glyph unicode="r" horiz-adv-x="780" d="M170 0v1055h131v-185q132 205 315 205q84 0 148 -41l-47 -116q-62 30 -123 30q-119 0 -206 -102t-87 -281v-565h-131z" />
<glyph unicode="s" horiz-adv-x="1028" d="M78 188l104 84q125 -174 346 -174q121 0 197 52t76 149q0 20 -4 37t-9.5 30t-20 25t-25 20.5t-35 17.5t-41 14.5t-52 14t-58.5 13t-69 14.5q-65 13 -112 26.5t-96 37t-79 53t-49.5 75t-19.5 103.5q0 101 56 170.5t138.5 99t182.5 29.5q127 0 230.5 -48t170.5 -118 l-94 -96q-115 139 -309 139q-65 0 -118.5 -14.5t-91.5 -53t-38 -95.5q0 -36 15.5 -64t37.5 -45.5t62 -32.5t72 -22.5t85 -18.5q44 -9 66.5 -13.5t63.5 -14.5t63 -18.5t55.5 -23t52.5 -29t41.5 -36.5t34 -46.5t19.5 -56.5t8 -69q0 -147 -110 -237.5t-302 -90.5 q-147 0 -260 56t-184 157z" />
<glyph unicode="t" horiz-adv-x="774" d="M43 934v121h186v309h131v-309h357v-121h-357v-627q0 -209 181 -209q81 0 139 43l61 -102q-84 -64 -206 -64q-190 0 -267 136q-39 68 -39 196v627h-186z" />
<glyph unicode="u" horiz-adv-x="1208" d="M156 381v674h131v-643q0 -46 6 -86t23 -82.5t44.5 -72.5t75.5 -49.5t111 -19.5q156 0 258 105t102 268v580h131v-1055h-131v193q-141 -218 -377 -218q-171 0 -272.5 106t-101.5 300z" />
<glyph unicode="v" horiz-adv-x="1064" d="M37 1055h147l351 -895l350 895h143l-428 -1055h-137z" />
<glyph unicode="w" horiz-adv-x="1574" d="M61 1055h136l239 -908l289 908h133l287 -908l239 908h129l-290 -1055h-154l-281 889l-282 -889h-154z" />
<glyph unicode="x" horiz-adv-x="1060" d="M37 0l418 551l-381 504h162l301 -410l297 410h155l-379 -504l414 -551h-162l-332 451l-333 -451h-160z" />
<glyph unicode="y" horiz-adv-x="1064" d="M35 1055h151l371 -877l328 877h141l-424 -1108q-33 -85 -62 -140t-70 -99.5t-94 -64.5t-124 -20q-112 0 -191 58l62 104q61 -41 129 -41q76 0 124 48t83 134l28 70z" />
<glyph unicode="z" horiz-adv-x="1017" d="M86 0v117l659 817h-632v121h794v-119l-659 -817h680v-119h-842z" />
<glyph unicode="{" horiz-adv-x="710" d="M51 561v119h45q201 0 201 221v223q0 167 95 260t251 93h53v-121h-69q-201 0 -201 -219v-232q0 -217 -166 -284q166 -67 166 -285v-232q0 -219 201 -219h69v-121h-53q-156 0 -251 93t-95 260v223q0 221 -201 221h-45z" />
<glyph unicode="|" horiz-adv-x="448" d="M174 -221v1683h100v-1683h-100z" />
<glyph unicode="}" horiz-adv-x="710" d="M14 -115h70q203 0 203 219v232q0 219 164 285q-164 66 -164 284v232q0 219 -203 219h-70v121h54q157 0 251.5 -93t94.5 -260v-223q0 -221 200 -221h45v-119h-45q-200 0 -200 -221v-223q0 -167 -94.5 -260t-251.5 -93h-54v121z" />
<glyph unicode="~" horiz-adv-x="1245" d="M123 578q61 58 94.5 86.5t77 57.5t83 39.5t87.5 10.5q70 0 151 -53l80 -51q63 -41 111 -41q56 0 108.5 33.5t135.5 115.5l79 -80q-61 -58 -94.5 -86.5t-77 -57.5t-83 -39.5t-87.5 -10.5q-70 0 -151 53l-80 51q-63 41 -111 41q-56 0 -107.5 -33.5t-135.5 -115.5z" />
<glyph unicode="&#xa1;" horiz-adv-x="514" d="M178 -16l43 669h72l43 -669v-295h-158v295zM178 856v199h158v-199h-158z" />
<glyph unicode="&#xa2;" d="M129 528q0 223 120.5 375t323.5 172v170h107v-168q223 -21 356 -203l-104 -79q-94 138 -252 155v-848q160 22 254 162l104 -80q-135 -184 -358 -207v-170h-107v173q-202 19 -323 171.5t-121 376.5zM268 528q0 -169 83 -286.5t222 -137.5v846q-140 -21 -222.5 -138 t-82.5 -284z" />
<glyph unicode="&#xa3;" d="M66 584v110h167q-49 121 -66 178t-17 119q0 182 128 291t324 109q284 0 451 -236l-121 -80q-55 82 -139.5 129t-194.5 47q-132 0 -217.5 -68t-85.5 -192q0 -30 5 -61t16.5 -65t20 -56t25.5 -61.5t23 -53.5h430v-110h-395q29 -77 29 -156q0 -149 -130 -293q61 25 97.5 35 t83.5 10q76 0 189 -34.5t165 -34.5q62 0 98 30t64 101l110 -62q-83 -205 -258 -205q-64 0 -200 42t-209 42q-149 0 -305 -84l-54 99q217 139 217 321q0 93 -41 189h-210z" />
<glyph unicode="&#xa4;" d="M139 262l142 139q-70 99 -70 222q0 120 70 219l-142 143l86 86l142 -143q96 71 221 71q123 0 219 -71l141 143l86 -86l-141 -141q72 -101 72 -221q0 -124 -72 -222l141 -139l-86 -88l-141 141q-98 -69 -219 -69q-123 0 -221 69l-142 -141zM324 623q0 -110 77 -187.5 t187 -77.5t187 77.5t77 187.5t-77 187t-187 77t-187 -77t-77 -187z" />
<glyph unicode="&#xa5;" d="M66 1366h170l356 -680l350 680h166l-367 -657h287v-99h-340l-31 -51v-135h371v-98h-371v-326h-143v326h-373v98h373v135l-33 51h-340v99h289z" />
<glyph unicode="&#xa6;" horiz-adv-x="452" d="M176 -221v639h100v-639h-100zM176 823v639h100v-639h-100z" />
<glyph unicode="&#xa7;" horiz-adv-x="1067" d="M76 848q0 234 147 388.5t389 154.5q190 0 324 -97l-82 -106q-93 80 -246 80q-239 0 -346 -195l205 -131q193 -123 260 -177q72 -57 119 -112q135 -156 135 -370q0 -237 -145 -392t-387 -155q-196 0 -324 96l78 107q99 -80 250 -80q237 0 346 196l-205 129q-6 4 -51 32 t-59 37.5t-54.5 36t-61 43t-52.5 41.5t-56 48.5t-45 48.5q-139 161 -139 377zM213 848q0 -169 104 -295q83 -100 318 -258l201 -135q12 73 12 119q0 163 -109 294q-49 59 -118.5 114t-196.5 144l-197 138q-14 -73 -14 -121z" />
<glyph unicode="&#xa8;" horiz-adv-x="653" d="M53 1229v135h129v-135h-129zM471 1229v135h129v-135h-129z" />
<glyph unicode="&#xa9;" horiz-adv-x="1607" d="M84 682q0 146 57.5 279.5t154 229.5t230 153t279.5 57q117 0 226.5 -36.5t198 -103t155 -154.5t103 -198t36.5 -227q0 -116 -36.5 -226t-103 -198.5t-155 -155t-198.5 -103t-226 -36.5q-146 0 -279.5 57t-230 153.5t-154 230t-57.5 278.5zM180 682q0 -169 83.5 -312.5 t227.5 -227t314 -83.5q169 0 312 83.5t225.5 227t82.5 312.5q0 170 -83 314t-226 227.5t-311 83.5q-169 0 -313 -83.5t-228 -227.5t-84 -314zM401 682q0 167 118.5 285t285.5 118q106 0 196.5 -50.5t143.5 -137.5l-82 -55q-40 67 -108.5 106t-149.5 39q-126 0 -215.5 -89.5 t-89.5 -215.5q0 -125 89.5 -214t215.5 -89q80 0 149 39.5t111 105.5l82 -53q-53 -87 -144 -138.5t-198 -51.5q-167 0 -285.5 117.5t-118.5 283.5z" />
<glyph unicode="&#xaa;" horiz-adv-x="888" d="M104 881q0 47 16 83t39 57t58.5 35.5t62.5 20.5t62 10q4 0 12.5 1.5t12.5 1.5q41 4 64.5 7.5t54 10.5t46.5 16.5t27.5 25t11.5 36.5q0 51 -47.5 73.5t-117.5 22.5q-118 0 -209 -70l-62 72q127 94 268 94q126 0 197.5 -54t71.5 -161v-319q0 -39 12.5 -55.5t42.5 -16.5 q22 0 45 10l16 -86q-28 -12 -73 -12q-119 0 -135 102q-85 -108 -244 -108q-102 0 -167 55.5t-65 147.5zM205 887q0 -57 43 -86t108 -29q90 0 154.5 47t64.5 139v107q-21 -21 -52.5 -34t-53 -17t-86.5 -13l-25 -4q-74 -10 -113.5 -34t-39.5 -76z" />
<glyph unicode="&#xab;" horiz-adv-x="915" d="M72 508v41l280 385l90 -70l-256 -336l256 -335l-90 -70zM434 508v41l281 385l90 -70l-256 -336l256 -335l-90 -70z" />
<glyph unicode="&#xac;" horiz-adv-x="1196" d="M123 563v119h944v-530h-119v411h-825z" />
<glyph unicode="&#xad;" horiz-adv-x="792" d="M135 516v119h522v-119h-522z" />
<glyph unicode="&#xae;" horiz-adv-x="933" d="M88 1010q0 157 111 268t268 111t268 -111t111 -268t-111 -268t-268 -111t-268 111t-111 268zM137 1010q0 -136 96.5 -233t233.5 -97t233.5 97t96.5 233t-96.5 232.5t-233.5 96.5t-233.5 -96.5t-96.5 -232.5zM322 815v393h174q54 0 90.5 -33.5t36.5 -87.5 q0 -39 -22.5 -69.5t-59.5 -42.5l96 -160h-68l-88 152h-102v-152h-57zM379 1020h121q25 0 44 19t19 48t-19 48.5t-44 19.5h-121v-135z" />
<glyph unicode="&#xaf;" horiz-adv-x="653" d="M33 1262v102h592v-102h-592z" />
<glyph unicode="&#xb0;" horiz-adv-x="784" d="M92 1087q0 125 88.5 213.5t212.5 88.5q123 0 211 -89t88 -213q0 -123 -88 -211t-211 -88q-124 0 -212.5 88t-88.5 211zM188 1087q0 -82 61 -142t144 -60t143 60t60 142q0 83 -60 144t-143 61t-144 -61t-61 -144z" />
<glyph unicode="&#xb1;" d="M113 686v119h411v414h121v-414h412v-119h-412v-412h-121v412h-411zM115 0v119h944v-119h-944z" />
<glyph unicode="&#xb2;" horiz-adv-x="761" d="M57 1411q121 160 303 160q131 0 215 -70t84 -192q0 -42 -7 -75.5t-29.5 -72t-47 -69.5t-79 -81.5t-104 -93.5t-142.5 -120h444v-103h-612v88q270 222 367.5 328t97.5 193q0 75 -57 118t-136 43q-66 0 -121.5 -30.5t-89.5 -79.5z" />
<glyph unicode="&#xb3;" horiz-adv-x="776" d="M59 850l107 47q64 -113 221 -113q89 0 141 44.5t52 113.5q0 65 -43.5 101t-122.5 36h-113v105h107q55 0 102 35t47 104t-54.5 105t-135.5 36q-136 0 -209 -98l-84 64q110 141 301 141q127 0 209 -62.5t82 -169.5q0 -133 -109 -192q50 -17 81.5 -54t42.5 -75.5t11 -81.5 q0 -115 -86.5 -186.5t-218.5 -71.5q-233 0 -328 172z" />
<glyph unicode="&#xb4;" horiz-adv-x="653" d="M213 1247q50 50 102 117.5t82 120.5l142 -23q-29 -65 -106.5 -143t-164.5 -131z" />
<glyph unicode="&#xb5;" d="M143 -356v1411h131v-629q0 -158 66.5 -241t196.5 -83q146 0 241.5 99t95.5 274v580h132v-830q0 -66 18 -97.5t63 -31.5q42 0 58 13l18 -109q-36 -16 -94 -16q-83 0 -137 49t-55 139q-65 -100 -154 -148.5t-186 -48.5q-90 0 -159.5 37t-103.5 97v-465h-131z" />
<glyph unicode="&#xb6;" horiz-adv-x="1124" d="M74 956q0 183 117.5 295.5t289.5 112.5h475v-1550h-100v1464h-137v-1464h-103v735h-135q-176 0 -291.5 112t-115.5 295z" />
<glyph unicode="&#xb7;" horiz-adv-x="518" d="M154 623q0 43 31.5 75.5t74.5 32.5q42 0 73.5 -32.5t31.5 -75.5t-31 -74t-74 -31t-74.5 31t-31.5 74z" />
<glyph unicode="&#xb8;" horiz-adv-x="653" d="M123 -188q54 -54 121 -54q41 0 68.5 25t27.5 65t-29 80.5t-86 73.5l43 29q84 -31 135.5 -84.5t51.5 -122.5q0 -74 -55 -117t-134 -43q-93 0 -143 47v101z" />
<glyph unicode="&#xb9;" horiz-adv-x="647" d="M68 1444q195 42 268 110h82v-757h200v-103h-534v103h225v620q-35 -19 -98 -35t-127 -24z" />
<glyph unicode="&#xba;" horiz-adv-x="856" d="M94 1030q0 154 90.5 252t243.5 98q151 0 242.5 -98.5t91.5 -251.5q0 -151 -91.5 -250.5t-242.5 -99.5q-152 0 -243 99.5t-91 250.5zM197 1030q0 -108 62.5 -180t168.5 -72t167.5 72t61.5 180q0 109 -61.5 180.5t-167.5 71.5t-168.5 -71.5t-62.5 -180.5z" />
<glyph unicode="&#xbb;" horiz-adv-x="915" d="M111 193l256 335l-256 336l90 70l280 -385v-41l-280 -385zM473 193l256 335l-256 336l90 70l281 -385v-41l-281 -385z" />
<glyph unicode="&#xbc;" horiz-adv-x="1888" d="M119 1253q193 42 268 111h82v-758h201v-102h-535v102h225v621q-35 -19 -98.5 -35.5t-126.5 -24.5zM375 0l1007 1364h103l-1008 -1364h-102zM1120 207v98q75 129 125.5 278.5t54.5 276.5h107q-4 -127 -51.5 -276t-118.5 -275h319v361h107v-361h135v-102h-135v-207h-107 v207h-436z" />
<glyph unicode="&#xbd;" horiz-adv-x="1888" d="M121 1253q193 42 268 111h82v-758h201v-102h-535v102h225v621q-35 -19 -98.5 -35.5t-126.5 -24.5zM377 0l1007 1364h103l-1008 -1364h-102zM1143 717q121 160 303 160q131 0 215 -70.5t84 -192.5q0 -42 -7 -75.5t-30 -72t-47 -69t-79 -82t-104.5 -93.5t-142.5 -120h445 v-102h-613v88q271 223 368 328t97 192q0 76 -56.5 119t-135.5 43q-66 0 -121.5 -31t-89.5 -80z" />
<glyph unicode="&#xbe;" horiz-adv-x="1888" d="M86 659l107 48q64 -113 221 -113q89 0 140.5 44.5t51.5 113.5q0 65 -43.5 101t-122.5 36h-112v104h106q55 0 102.5 35.5t47.5 104.5t-55 105t-136 36q-136 0 -209 -98l-84 63q110 141 301 141q128 0 209.5 -62.5t81.5 -168.5q0 -135 -108 -193q50 -17 81.5 -54 t42.5 -75.5t11 -81.5q0 -115 -86.5 -186.5t-218.5 -71.5q-233 0 -328 172zM395 0l1008 1364h102l-1007 -1364h-103zM1141 207v98q75 129 125.5 278.5t54.5 276.5h106q-4 -127 -51.5 -276t-118.5 -275h320v361h106v-361h136v-102h-136v-207h-106v207h-436z" />
<glyph unicode="&#xbf;" horiz-adv-x="1007" d="M117 63q0 176 119.5 286t316.5 128v178h121v-295q-29 5 -58 5q-156 0 -254 -80t-98 -215q0 -118 78 -194.5t221 -76.5q171 0 322 131l82 -102q-192 -164 -410 -164q-123 0 -222 47t-158.5 138.5t-59.5 213.5zM537 856v199h157v-199h-157z" />
<glyph unicode="&#xc0;" horiz-adv-x="1351" d="M29 0l565 1364h164l565 -1364h-162l-166 410h-649l-166 -410h-151zM401 545h541l-266 674zM432 1720l141 23q30 -52 82.5 -120t102.5 -118l-56 -59q-87 53 -164 131t-106 143z" />
<glyph unicode="&#xc1;" horiz-adv-x="1351" d="M29 0l565 1364h164l565 -1364h-162l-166 410h-649l-166 -410h-151zM401 545h541l-266 674zM594 1505q50 50 102 117.5t82 120.5l142 -23q-29 -65 -106.5 -143t-164.5 -131z" />
<glyph unicode="&#xc2;" horiz-adv-x="1351" d="M29 0l565 1364h164l565 -1364h-162l-166 410h-649l-166 -410h-151zM360 1534q132 92 258 209h111q126 -117 258 -209l-43 -76q-157 60 -270 168q-113 -107 -271 -168zM401 545h541l-266 674z" />
<glyph unicode="&#xc3;" horiz-adv-x="1351" d="M29 0l565 1364h164l565 -1364h-162l-166 410h-649l-166 -410h-151zM373 1530q28 73 75 115.5t101 42.5q44 0 134 -39t128 -39q67 0 127 73l59 -38q-28 -73 -75 -115.5t-101 -42.5q-44 0 -134 39t-128 39q-66 0 -127 -74zM401 545h541l-266 674z" />
<glyph unicode="&#xc4;" horiz-adv-x="1351" d="M29 0l565 1364h164l565 -1364h-162l-166 410h-649l-166 -410h-151zM401 545h541l-266 674zM401 1487v135h129v-135h-129zM819 1487v135h129v-135h-129z" />
<glyph unicode="&#xc5;" horiz-adv-x="1343" d="M25 0l542 1311q-45 27 -71.5 72.5t-26.5 101.5q0 85 59 145t144 60t145 -60t60 -145q0 -55 -27.5 -101t-73.5 -73l543 -1311h-162l-166 410h-649l-166 -410h-151zM397 545h541l-266 674zM553 1483q0 -51 35 -85t86 -34t85 34t34 85t-34 87t-85 36t-86 -36t-35 -87z" />
<glyph unicode="&#xc6;" horiz-adv-x="1816" d="M0 0l705 1364h989v-135h-664v-438h563v-134h-563v-522h684v-135h-831v410h-516l-211 -410h-156zM436 545h447v684h-95z" />
<glyph unicode="&#xc7;" horiz-adv-x="1363" d="M109 682q0 201 80 361.5t229.5 253t343.5 92.5q326 0 514 -252l-113 -88q-139 202 -399 202q-228 0 -365 -154t-137 -413q0 -260 137 -415.5t361 -155.5q129 0 233.5 53.5t169.5 150.5l119 -88q-85 -116 -210 -182t-281 -70q83 -63 83 -153q0 -74 -54.5 -117t-133.5 -43 q-93 0 -143 47v101q54 -54 121 -54q41 0 68.5 25t27.5 65q0 73 -82 134q-171 19 -301 114.5t-199 247t-69 338.5z" />
<glyph unicode="&#xc8;" horiz-adv-x="1261" d="M195 0v1364h940v-135h-795v-438h692v-134h-692v-522h815v-135h-960zM446 1720l142 23q30 -53 82 -120.5t102 -117.5l-55 -59q-87 53 -164.5 131t-106.5 143z" />
<glyph unicode="&#xc9;" horiz-adv-x="1261" d="M195 0v1364h940v-135h-795v-438h692v-134h-692v-522h815v-135h-960zM584 1505q50 50 102 117.5t82 120.5l141 -23q-29 -65 -106 -143t-164 -131z" />
<glyph unicode="&#xca;" horiz-adv-x="1261" d="M195 0v1364h940v-135h-795v-438h692v-134h-692v-522h815v-135h-960zM375 1534q132 92 258 209h110q126 -117 258 -209l-43 -76q-157 60 -270 168q-113 -108 -270 -168z" />
<glyph unicode="&#xcb;" horiz-adv-x="1261" d="M195 0v1364h940v-135h-795v-438h692v-134h-692v-522h815v-135h-960zM397 1487v135h129v-135h-129zM815 1487v135h129v-135h-129z" />
<glyph unicode="&#xcc;" horiz-adv-x="532" d="M33 1720l141 23q30 -53 82 -120.5t102 -117.5l-55 -59q-87 53 -164 131t-106 143zM195 0v1364h143v-1364h-143z" />
<glyph unicode="&#xcd;" horiz-adv-x="532" d="M176 1505q50 50 102 117.5t82 120.5l142 -23q-29 -65 -106.5 -143t-164.5 -131zM195 0v1364h143v-1364h-143z" />
<glyph unicode="&#xce;" horiz-adv-x="532" d="M-47 1534q132 92 258 209h111q126 -117 258 -209l-43 -76q-158 61 -271 168q-113 -108 -270 -168zM195 0v1364h143v-1364h-143z" />
<glyph unicode="&#xcf;" horiz-adv-x="532" d="M-6 1487v135h129v-135h-129zM195 0v1364h143v-1364h-143zM412 1487v135h129v-135h-129z" />
<glyph unicode="&#xd0;" horiz-adv-x="1470" d="M-37 641v121h232v602h528q202 0 346.5 -87.5t216.5 -240t72 -354.5q0 -150 -42 -275t-121 -215.5t-199.5 -141t-272.5 -50.5h-528v641h-232zM340 135h381q227 0 355 144t128 403q0 260 -128 403.5t-355 143.5h-381v-467h399v-121h-399v-506z" />
<glyph unicode="&#xd1;" horiz-adv-x="1480" d="M195 0v1364h184l768 -1163v1163h139v-1364h-168l-786 1192v-1192h-137zM453 1530q28 73 75 115.5t101 42.5q44 0 134 -39t128 -39q67 0 127 73l59 -38q-28 -73 -75 -115.5t-101 -42.5q-44 0 -134 39t-128 39q-66 0 -127 -74z" />
<glyph unicode="&#xd2;" horiz-adv-x="1523" d="M106 682q0 202 80.5 362.5t230.5 252.5t345 92t345 -92t230 -252.5t80 -362.5q0 -150 -47 -280.5t-131 -224.5t-207.5 -148t-269.5 -54q-195 0 -345 92.5t-230.5 253t-80.5 361.5zM260 682q0 -256 135.5 -412.5t366.5 -156.5q230 0 366 156.5t136 412.5q0 257 -136 413 t-366 156q-231 0 -366.5 -156t-135.5 -413zM561 1720l141 23q30 -52 82.5 -120t102.5 -118l-56 -59q-87 53 -164 131t-106 143z" />
<glyph unicode="&#xd3;" horiz-adv-x="1523" d="M106 682q0 202 80.5 362.5t230.5 252.5t345 92t345 -92t230 -252.5t80 -362.5q0 -150 -47 -280.5t-131 -224.5t-207.5 -148t-269.5 -54q-195 0 -345 92.5t-230.5 253t-80.5 361.5zM260 682q0 -256 135.5 -412.5t366.5 -156.5q230 0 366 156.5t136 412.5q0 257 -136 413 t-366 156q-231 0 -366.5 -156t-135.5 -413zM649 1505q50 50 102.5 118t82.5 120l141 -23q-29 -65 -106 -143t-164 -131z" />
<glyph unicode="&#xd4;" horiz-adv-x="1523" d="M106 682q0 202 80.5 362.5t230.5 252.5t345 92t345 -92t230 -252.5t80 -362.5q0 -150 -47 -280.5t-131 -224.5t-207.5 -148t-269.5 -54q-195 0 -345 92.5t-230.5 253t-80.5 361.5zM260 682q0 -256 135.5 -412.5t366.5 -156.5q230 0 366 156.5t136 412.5q0 257 -136 413 t-366 156q-231 0 -366.5 -156t-135.5 -413zM449 1534q132 92 258 209h110q126 -117 258 -209l-43 -76q-157 60 -270 168q-113 -108 -270 -168z" />
<glyph unicode="&#xd5;" horiz-adv-x="1523" d="M106 682q0 202 80.5 362.5t230.5 252.5t345 92t345 -92t230 -252.5t80 -362.5q0 -150 -47 -280.5t-131 -224.5t-207.5 -148t-269.5 -54q-195 0 -345 92.5t-230.5 253t-80.5 361.5zM260 682q0 -256 135.5 -412.5t366.5 -156.5q230 0 366 156.5t136 412.5q0 257 -136 413 t-366 156q-231 0 -366.5 -156t-135.5 -413zM449 1530q28 73 75 115.5t101 42.5q44 0 134 -39t128 -39q67 0 127 73l59 -38q-28 -73 -75 -115.5t-101 -42.5q-44 0 -134 39t-128 39q-66 0 -127 -74z" />
<glyph unicode="&#xd6;" horiz-adv-x="1523" d="M106 682q0 202 80.5 362.5t230.5 252.5t345 92t345 -92t230 -252.5t80 -362.5q0 -150 -47 -280.5t-131 -224.5t-207.5 -148t-269.5 -54q-195 0 -345 92.5t-230.5 253t-80.5 361.5zM260 682q0 -256 135.5 -412.5t366.5 -156.5q230 0 366 156.5t136 412.5q0 257 -136 413 t-366 156q-231 0 -366.5 -156t-135.5 -413zM487 1487v135h129v-135h-129zM905 1487v135h129v-135h-129z" />
<glyph unicode="&#xd7;" d="M139 262l365 361l-365 362l86 86l363 -364l360 364l86 -86l-362 -362l362 -361l-86 -88l-360 365l-363 -365z" />
<glyph unicode="&#xd8;" horiz-adv-x="1523" d="M106 682q0 202 80.5 362.5t230.5 252.5t345 92q204 0 360 -103l68 96l82 -57l-72 -100q104 -96 160.5 -236.5t56.5 -306.5q0 -150 -47 -280.5t-131 -224.5t-207.5 -148t-269.5 -54q-207 0 -363 103l-67 -96l-82 57l72 100q-103 96 -159.5 236.5t-56.5 306.5zM260 682 q0 -269 143 -424l639 913q-122 80 -280 80q-231 0 -366.5 -156t-135.5 -413zM479 195q121 -82 283 -82q230 0 366 156.5t136 412.5q0 265 -146 424z" />
<glyph unicode="&#xd9;" horiz-adv-x="1449" d="M178 508v856h144v-856q0 -178 108 -286.5t293 -108.5q184 0 294.5 108.5t110.5 286.5v856h144v-856q0 -238 -155.5 -385.5t-393.5 -147.5q-239 0 -392 147t-153 386zM506 1720l141 23q30 -53 82 -120.5t102 -117.5l-55 -59q-87 53 -164 131t-106 143z" />
<glyph unicode="&#xda;" horiz-adv-x="1449" d="M178 508v856h144v-856q0 -178 108 -286.5t293 -108.5q184 0 294.5 108.5t110.5 286.5v856h144v-856q0 -238 -155.5 -385.5t-393.5 -147.5q-239 0 -392 147t-153 386zM637 1505q50 50 102 117.5t82 120.5l142 -23q-29 -65 -106.5 -143t-164.5 -131z" />
<glyph unicode="&#xdb;" horiz-adv-x="1449" d="M178 508v856h144v-856q0 -178 108 -286.5t293 -108.5q184 0 294.5 108.5t110.5 286.5v856h144v-856q0 -238 -155.5 -385.5t-393.5 -147.5q-239 0 -392 147t-153 386zM412 1534q132 92 258 209h110q126 -117 258 -209l-43 -76q-157 60 -270 168q-113 -108 -270 -168z" />
<glyph unicode="&#xdc;" horiz-adv-x="1449" d="M178 508v856h144v-856q0 -178 108 -286.5t293 -108.5q184 0 294.5 108.5t110.5 286.5v856h144v-856q0 -238 -155.5 -385.5t-393.5 -147.5q-239 0 -392 147t-153 386zM451 1487v135h129v-135h-129zM868 1487v135h129v-135h-129z" />
<glyph unicode="&#xdd;" horiz-adv-x="1218" d="M16 1364h170l426 -666l428 666h164l-522 -797v-567h-147v567zM520 1505q50 50 102.5 118t82.5 120l141 -23q-29 -65 -106.5 -143t-164.5 -131z" />
<glyph unicode="&#xde;" horiz-adv-x="1282" d="M195 0v1364h143v-219h407q226 0 347.5 -110.5t121.5 -297.5t-121.5 -297t-347.5 -110h-407v-330h-143zM338 465h410q158 0 236.5 73t78.5 199t-79 199.5t-236 73.5h-410v-545z" />
<glyph unicode="&#xdf;" horiz-adv-x="1234" d="M170 0v1110q0 170 124.5 272.5t309.5 102.5q183 0 307.5 -96.5t124.5 -258.5q0 -105 -46 -179.5t-163 -137.5q156 -52 233 -156.5t77 -244.5q0 -204 -126 -320.5t-347 -116.5q-51 0 -112 11t-101 30l36 121q72 -43 181 -43q160 0 246.5 89.5t86.5 236.5q0 155 -96 232 t-262 77h-119v119h80q127 0 211 68t84 194q0 88 -43.5 147.5t-109 84t-148.5 24.5q-126 0 -213.5 -68t-87.5 -188v-1110h-127z" />
<glyph unicode="&#xe0;" horiz-adv-x="1142" d="M86 293q0 51 12.5 93.5t32.5 72t50.5 53.5t60 39t68 26.5t67.5 17.5t65 11q22 3 65 8.5t66.5 8.5t60 10t57 14.5t45.5 20t38 28t22 38t9 50.5q0 61 -41.5 101.5t-97.5 55.5t-123 15q-184 0 -328 -114l-74 98q182 139 406 139q181 0 288 -84t107 -252v-518 q0 -68 21.5 -98.5t72.5 -30.5q40 0 66 13l18 -109q-44 -16 -104 -16q-81 0 -136.5 45t-64.5 135q-130 -189 -373 -189q-163 0 -259.5 85.5t-96.5 232.5zM223 297q0 -102 67.5 -151.5t176.5 -49.5q66 0 125.5 18.5t109.5 55t79.5 99.5t29.5 145v202q-24 -29 -51.5 -49 t-65.5 -31.5t-64.5 -17t-81 -12.5t-81.5 -12q-59 -10 -97 -21t-75 -32.5t-54.5 -57t-17.5 -86.5zM328 1462l141 23q30 -53 82 -120.5t102 -117.5l-55 -59q-87 53 -164 131t-106 143z" />
<glyph unicode="&#xe1;" horiz-adv-x="1142" d="M86 293q0 51 12.5 93.5t32.5 72t50.5 53.5t60 39t68 26.5t67.5 17.5t65 11q22 3 65 8.5t66.5 8.5t60 10t57 14.5t45.5 20t38 28t22 38t9 50.5q0 61 -41.5 101.5t-97.5 55.5t-123 15q-184 0 -328 -114l-74 98q182 139 406 139q181 0 288 -84t107 -252v-518 q0 -68 21.5 -98.5t72.5 -30.5q40 0 66 13l18 -109q-44 -16 -104 -16q-81 0 -136.5 45t-64.5 135q-130 -189 -373 -189q-163 0 -259.5 85.5t-96.5 232.5zM223 297q0 -102 67.5 -151.5t176.5 -49.5q66 0 125.5 18.5t109.5 55t79.5 99.5t29.5 145v202q-24 -29 -51.5 -49 t-65.5 -31.5t-64.5 -17t-81 -12.5t-81.5 -12q-59 -10 -97 -21t-75 -32.5t-54.5 -57t-17.5 -86.5zM457 1247q50 50 102 117.5t82 120.5l141 -23q-29 -65 -106 -143t-164 -131z" />
<glyph unicode="&#xe2;" horiz-adv-x="1142" d="M86 293q0 51 12.5 93.5t32.5 72t50.5 53.5t60 39t68 26.5t67.5 17.5t65 11q22 3 65 8.5t66.5 8.5t60 10t57 14.5t45.5 20t38 28t22 38t9 50.5q0 61 -41.5 101.5t-97.5 55.5t-123 15q-184 0 -328 -114l-74 98q182 139 406 139q181 0 288 -84t107 -252v-518 q0 -68 21.5 -98.5t72.5 -30.5q40 0 66 13l18 -109q-44 -16 -104 -16q-81 0 -136.5 45t-64.5 135q-130 -189 -373 -189q-163 0 -259.5 85.5t-96.5 232.5zM219 1276q132 92 258 209h111q126 -117 258 -209l-43 -76q-158 61 -271 168q-113 -108 -270 -168zM223 297 q0 -102 67.5 -151.5t176.5 -49.5q66 0 125.5 18.5t109.5 55t79.5 99.5t29.5 145v202q-24 -29 -51.5 -49t-65.5 -31.5t-64.5 -17t-81 -12.5t-81.5 -12q-59 -10 -97 -21t-75 -32.5t-54.5 -57t-17.5 -86.5z" />
<glyph unicode="&#xe3;" horiz-adv-x="1142" d="M86 293q0 51 12.5 93.5t32.5 72t50.5 53.5t60 39t68 26.5t67.5 17.5t65 11q22 3 65 8.5t66.5 8.5t60 10t57 14.5t45.5 20t38 28t22 38t9 50.5q0 61 -41.5 101.5t-97.5 55.5t-123 15q-184 0 -328 -114l-74 98q182 139 406 139q181 0 288 -84t107 -252v-518 q0 -68 21.5 -98.5t72.5 -30.5q40 0 66 13l18 -109q-44 -16 -104 -16q-81 0 -136.5 45t-64.5 135q-130 -189 -373 -189q-163 0 -259.5 85.5t-96.5 232.5zM223 297q0 -102 67.5 -151.5t176.5 -49.5q66 0 125.5 18.5t109.5 55t79.5 99.5t29.5 145v202q-24 -29 -51.5 -49 t-65.5 -31.5t-64.5 -17t-81 -12.5t-81.5 -12q-59 -10 -97 -21t-75 -32.5t-54.5 -57t-17.5 -86.5zM225 1272q28 73 75 115.5t101 42.5q44 0 134.5 -39t128.5 -39q67 0 127 73l59 -39q-28 -73 -75 -115t-101 -42q-44 0 -134 39t-128 39q-66 0 -127 -74z" />
<glyph unicode="&#xe4;" horiz-adv-x="1142" d="M86 293q0 51 12.5 93.5t32.5 72t50.5 53.5t60 39t68 26.5t67.5 17.5t65 11q22 3 65 8.5t66.5 8.5t60 10t57 14.5t45.5 20t38 28t22 38t9 50.5q0 61 -41.5 101.5t-97.5 55.5t-123 15q-184 0 -328 -114l-74 98q182 139 406 139q181 0 288 -84t107 -252v-518 q0 -68 21.5 -98.5t72.5 -30.5q40 0 66 13l18 -109q-44 -16 -104 -16q-81 0 -136.5 45t-64.5 135q-130 -189 -373 -189q-163 0 -259.5 85.5t-96.5 232.5zM223 297q0 -102 67.5 -151.5t176.5 -49.5q66 0 125.5 18.5t109.5 55t79.5 99.5t29.5 145v202q-24 -29 -51.5 -49 t-65.5 -31.5t-64.5 -17t-81 -12.5t-81.5 -12q-59 -10 -97 -21t-75 -32.5t-54.5 -57t-17.5 -86.5zM268 1229v135h129v-135h-129zM686 1229v135h129v-135h-129z" />
<glyph unicode="&#xe5;" horiz-adv-x="1142" d="M86 293q0 51 12.5 93.5t32.5 72t50.5 53.5t60 39t68 26.5t67.5 17.5t65 11q22 3 65 8.5t66.5 8.5t60 10t57 14.5t45.5 20t38 28t22 38t9 50.5q0 61 -41.5 101.5t-97.5 55.5t-123 15q-184 0 -328 -114l-74 98q182 139 406 139q181 0 288 -84t107 -252v-518 q0 -68 21.5 -98.5t72.5 -30.5q40 0 66 13l18 -109q-44 -16 -104 -16q-81 0 -136.5 45t-64.5 135q-130 -189 -373 -189q-163 0 -259.5 85.5t-96.5 232.5zM223 297q0 -102 67.5 -151.5t176.5 -49.5q66 0 125.5 18.5t109.5 55t79.5 99.5t29.5 145v202q-24 -29 -51.5 -49 t-65.5 -31.5t-64.5 -17t-81 -12.5t-81.5 -12q-59 -10 -97 -21t-75 -32.5t-54.5 -57t-17.5 -86.5zM338 1395q0 85 60 146t145 61q84 0 143 -61t59 -146t-59 -145t-143 -60q-85 0 -145 60t-60 145zM422 1395q0 -51 35 -86t86 -35q50 0 84.5 35t34.5 86t-35 87t-84 36 q-51 0 -86 -36t-35 -87z" />
<glyph unicode="&#xe6;" horiz-adv-x="1873" d="M86 297q0 68 24 121t58.5 84.5t85.5 54t93.5 32.5t94.5 17q22 3 65 8.5t66.5 8.5t60 10t57 14.5t45.5 20t38 28t22 38t9 50.5q0 61 -41.5 101.5t-97.5 55.5t-123 15q-184 0 -328 -114l-74 98q179 139 404 139q281 0 370 -196q147 196 381 196q147 0 260 -70.5t172.5 -188 t59.5 -261.5q0 -37 -4 -61h-852q7 -183 112 -288.5t275 -105.5q190 0 319 144l93 -92q-164 -181 -410 -181q-297 0 -436 236q-135 -236 -412 -236q-174 0 -280.5 84.5t-106.5 237.5zM223 297q0 -102 67.5 -151.5t176.5 -49.5q66 0 125.5 18.5t109.5 55t79.5 99.5t29.5 145 v202q-24 -29 -51.5 -49t-65.5 -31.5t-64.5 -17t-81 -12.5t-81.5 -12q-59 -10 -97 -21t-75 -32.5t-54.5 -57t-17.5 -86.5zM936 610h713q-14 164 -114 254t-243 90q-151 0 -247.5 -96t-108.5 -248z" />
<glyph unicode="&#xe7;" horiz-adv-x="1091" d="M102 528q0 156 60.5 281t175.5 197.5t264 72.5q128 0 233 -54t175 -151l-105 -79q-109 159 -301 159q-164 0 -263 -120.5t-99 -305.5q0 -186 98 -307t260 -121q195 0 307 164l105 -80q-65 -89 -160 -144.5t-215 -62.5q84 -64 84 -153q0 -74 -55 -117t-134 -43 q-93 0 -143 47v101q54 -54 121 -54q41 0 68.5 25t27.5 65q0 73 -82 134q-193 26 -307.5 177t-114.5 369z" />
<glyph unicode="&#xe8;" horiz-adv-x="1181" d="M100 524q0 116 35.5 217t99.5 176t159.5 118.5t209.5 43.5q147 0 260 -70.5t172.5 -188t59.5 -261.5q0 -37 -4 -61h-852q7 -183 112 -288.5t275 -105.5q190 0 319 144l92 -92q-164 -181 -411 -181q-242 0 -384.5 154.5t-142.5 394.5zM244 610h712q-14 164 -113.5 254 t-242.5 90q-151 0 -247.5 -96t-108.5 -248zM379 1462l141 23q30 -52 82.5 -120t102.5 -118l-56 -59q-87 53 -164 131t-106 143z" />
<glyph unicode="&#xe9;" horiz-adv-x="1181" d="M100 524q0 116 35.5 217t99.5 176t159.5 118.5t209.5 43.5q147 0 260 -70.5t172.5 -188t59.5 -261.5q0 -37 -4 -61h-852q7 -183 112 -288.5t275 -105.5q190 0 319 144l92 -92q-164 -181 -411 -181q-242 0 -384.5 154.5t-142.5 394.5zM244 610h712q-14 164 -113.5 254 t-242.5 90q-151 0 -247.5 -96t-108.5 -248zM492 1247q50 50 102 117.5t82 120.5l141 -23q-29 -65 -106 -143t-164 -131z" />
<glyph unicode="&#xea;" horiz-adv-x="1181" d="M100 524q0 116 35.5 217t99.5 176t159.5 118.5t209.5 43.5q147 0 260 -70.5t172.5 -188t59.5 -261.5q0 -37 -4 -61h-852q7 -183 112 -288.5t275 -105.5q190 0 319 144l92 -92q-164 -181 -411 -181q-242 0 -384.5 154.5t-142.5 394.5zM244 610h712q-14 164 -113.5 254 t-242.5 90q-151 0 -247.5 -96t-108.5 -248zM283 1276q132 92 258 209h110q126 -117 258 -209l-43 -76q-157 60 -270 168q-113 -108 -270 -168z" />
<glyph unicode="&#xeb;" horiz-adv-x="1181" d="M100 524q0 116 35.5 217t99.5 176t159.5 118.5t209.5 43.5q147 0 260 -70.5t172.5 -188t59.5 -261.5q0 -37 -4 -61h-852q7 -183 112 -288.5t275 -105.5q190 0 319 144l92 -92q-164 -181 -411 -181q-242 0 -384.5 154.5t-142.5 394.5zM244 610h712q-14 164 -113.5 254 t-242.5 90q-151 0 -247.5 -96t-108.5 -248zM326 1229v135h129v-135h-129zM743 1229v135h129v-135h-129z" />
<glyph unicode="&#xec;" horiz-adv-x="471" d="M8 1462l142 23q30 -53 82 -120.5t102 -117.5l-55 -59q-87 53 -164.5 131t-106.5 143zM170 0v1055h131v-1055h-131z" />
<glyph unicode="&#xed;" horiz-adv-x="471" d="M139 1247q50 50 102.5 118t82.5 120l141 -23q-29 -65 -106 -143t-164 -131zM170 0v1055h131v-1055h-131z" />
<glyph unicode="&#xee;" horiz-adv-x="471" d="M-78 1276q132 92 258 209h111q126 -117 258 -209l-43 -76q-157 60 -270 168q-113 -107 -271 -168zM170 0v1055h131v-1055h-131z" />
<glyph unicode="&#xef;" horiz-adv-x="471" d="M4 1229v135h129v-135h-129zM170 0v1055h131v-1055h-131zM338 1229v135h129v-135h-129z" />
<glyph unicode="&#xf0;" horiz-adv-x="1241" d="M102 492q0 227 134 371.5t346 144.5q99 0 191 -36.5t157 -107.5q-79 177 -252 336l-260 -129l-35 74l225 112q-89 70 -182 119l72 109q143 -84 235 -166l244 121l35 -74l-213 -106q149 -145 236 -326t87 -391q0 -267 -135 -410q-149 -158 -377 -158q-152 0 -269 70 t-178 187t-61 260zM242 492q0 -80 22.5 -149t66.5 -123t114.5 -85t160.5 -31q92 0 165.5 30.5t120 84t71 123t24.5 150.5q0 168 -101.5 279.5t-279.5 111.5q-89 0 -160 -31.5t-115 -86t-66.5 -124t-22.5 -149.5z" />
<glyph unicode="&#xf1;" horiz-adv-x="1210" d="M170 0v1055h131v-193q141 217 377 217q171 0 273 -105.5t102 -299.5v-674h-131v643q0 309 -260 309q-156 0 -258.5 -104.5t-102.5 -267.5v-580h-131zM332 1272q28 73 75 115.5t101 42.5q44 0 134 -39t128 -39q67 0 127 73l59 -39q-28 -73 -75 -115t-101 -42 q-44 0 -134 39t-128 39q-66 0 -127 -74z" />
<glyph unicode="&#xf2;" horiz-adv-x="1210" d="M100 526q0 158 60.5 283t176 197.5t267.5 72.5q229 0 367.5 -156t138.5 -397q0 -156 -61 -280.5t-177 -197.5t-268 -73t-267.5 73t-176 197.5t-60.5 280.5zM240 526q0 -183 98 -304.5t266 -121.5t266.5 121.5t98.5 304.5q0 121 -42.5 217.5t-126.5 153.5t-196 57 t-196 -57.5t-126 -153.5t-42 -217zM385 1462l141 23q30 -52 82.5 -120t102.5 -118l-56 -59q-87 53 -164 131t-106 143z" />
<glyph unicode="&#xf3;" horiz-adv-x="1210" d="M100 526q0 158 60.5 283t176 197.5t267.5 72.5q229 0 367.5 -156t138.5 -397q0 -156 -61 -280.5t-177 -197.5t-268 -73t-267.5 73t-176 197.5t-60.5 280.5zM240 526q0 -183 98 -304.5t266 -121.5t266.5 121.5t98.5 304.5q0 121 -42.5 217.5t-126.5 153.5t-196 57 t-196 -57.5t-126 -153.5t-42 -217zM496 1247q50 50 102 117.5t82 120.5l141 -23q-29 -65 -106 -143t-164 -131z" />
<glyph unicode="&#xf4;" horiz-adv-x="1210" d="M100 526q0 158 60.5 283t176 197.5t267.5 72.5q229 0 367.5 -156t138.5 -397q0 -156 -61 -280.5t-177 -197.5t-268 -73t-267.5 73t-176 197.5t-60.5 280.5zM240 526q0 -183 98 -304.5t266 -121.5t266.5 121.5t98.5 304.5q0 121 -42.5 217.5t-126.5 153.5t-196 57 t-196 -57.5t-126 -153.5t-42 -217zM291 1276q132 92 258 209h110q123 -114 259 -209l-44 -76q-157 60 -270 168q-113 -108 -270 -168z" />
<glyph unicode="&#xf5;" horiz-adv-x="1210" d="M100 526q0 158 60.5 283t176 197.5t267.5 72.5q229 0 367.5 -156t138.5 -397q0 -156 -61 -280.5t-177 -197.5t-268 -73t-267.5 73t-176 197.5t-60.5 280.5zM240 526q0 -183 98 -304.5t266 -121.5t266.5 121.5t98.5 304.5q0 121 -42.5 217.5t-126.5 153.5t-196 57 t-196 -57.5t-126 -153.5t-42 -217zM295 1272q28 73 75 115.5t101 42.5q44 0 134 -39t128 -39q67 0 127 73l60 -39q-28 -73 -75.5 -115t-101.5 -42q-44 0 -134 39t-128 39q-66 0 -127 -74z" />
<glyph unicode="&#xf6;" horiz-adv-x="1210" d="M100 526q0 158 60.5 283t176 197.5t267.5 72.5q229 0 367.5 -156t138.5 -397q0 -156 -61 -280.5t-177 -197.5t-268 -73t-267.5 73t-176 197.5t-60.5 280.5zM240 526q0 -183 98 -304.5t266 -121.5t266.5 121.5t98.5 304.5q0 121 -42.5 217.5t-126.5 153.5t-196 57 t-196 -57.5t-126 -153.5t-42 -217zM334 1229v135h129v-135h-129zM752 1229v135h129v-135h-129z" />
<glyph unicode="&#xf7;" d="M115 563v119h944v-119h-944zM477 250q0 45 33 78.5t78 33.5q44 0 76 -33.5t32 -78.5q0 -43 -32 -76t-76 -33q-45 0 -78 33t-33 76zM477 995q0 43 33 76t78 33q44 0 76 -33t32 -76q0 -46 -32 -78t-76 -32q-46 0 -78.5 32t-32.5 78z" />
<glyph unicode="&#xf8;" horiz-adv-x="1210" d="M100 526q0 158 60.5 283t176 197.5t267.5 72.5t273 -75l49 69l84 -57l-54 -76q74 -76 114 -182.5t40 -231.5q0 -156 -61 -280.5t-177 -197.5t-268 -73q-154 0 -272 76l-47 -69l-84 57l53 76q-74 74 -114 180.5t-40 230.5zM240 526q0 -184 92 -299l469 668q-85 59 -197 59 t-196 -57.5t-126 -153.5t-42 -217zM408 158q83 -58 196 -58q168 0 266.5 121.5t98.5 304.5q0 180 -92 299z" />
<glyph unicode="&#xf9;" horiz-adv-x="1210" d="M158 381v674h131v-643q0 -46 6 -86t23 -82.5t44.5 -72.5t75.5 -49.5t111 -19.5q156 0 258 105t102 268v580h131v-1055h-131v193q-141 -218 -377 -218q-171 0 -272.5 106t-101.5 300zM356 1462l142 23q30 -53 82 -120.5t102 -117.5l-55 -59q-87 53 -164.5 131t-106.5 143z " />
<glyph unicode="&#xfa;" horiz-adv-x="1210" d="M158 381v674h131v-643q0 -46 6 -86t23 -82.5t44.5 -72.5t75.5 -49.5t111 -19.5q156 0 258 105t102 268v580h131v-1055h-131v193q-141 -218 -377 -218q-171 0 -272.5 106t-101.5 300zM537 1247q50 50 102 117.5t82 120.5l141 -23q-29 -65 -106 -143t-164 -131z" />
<glyph unicode="&#xfb;" horiz-adv-x="1210" d="M158 381v674h131v-643q0 -46 6 -86t23 -82.5t44.5 -72.5t75.5 -49.5t111 -19.5q156 0 258 105t102 268v580h131v-1055h-131v193q-141 -218 -377 -218q-171 0 -272.5 106t-101.5 300zM283 1276q132 92 258 209h110q126 -117 258 -209l-43 -76q-157 60 -270 168 q-113 -108 -270 -168z" />
<glyph unicode="&#xfc;" horiz-adv-x="1210" d="M158 381v674h131v-643q0 -46 6 -86t23 -82.5t44.5 -72.5t75.5 -49.5t111 -19.5q156 0 258 105t102 268v580h131v-1055h-131v193q-141 -218 -377 -218q-171 0 -272.5 106t-101.5 300zM326 1229v135h129v-135h-129zM743 1229v135h129v-135h-129z" />
<glyph unicode="&#xfd;" horiz-adv-x="1064" d="M35 1055h151l371 -877l328 877h141l-424 -1108q-33 -85 -62 -140t-70 -99.5t-94 -64.5t-124 -20q-112 0 -191 58l62 104q61 -41 129 -41q76 0 124 48t83 134l28 70zM453 1247q50 50 102 117.5t82 120.5l141 -23q-29 -65 -106 -143t-164 -131z" />
<glyph unicode="&#xfe;" horiz-adv-x="1282" d="M170 -356v1818h131v-600q141 217 391 217q149 0 261.5 -73t170.5 -197.5t58 -280.5q0 -157 -58 -282t-170.5 -198t-261.5 -73q-248 0 -391 218v-549h-131zM301 526q0 -185 100 -304.5t279 -119.5q117 0 200.5 57t122.5 151t39 216q0 186 -94 306t-268 120 q-121 0 -208.5 -58t-129 -153t-41.5 -215z" />
<glyph unicode="&#xff;" horiz-adv-x="1064" d="M35 1055h151l371 -877l328 877h141l-424 -1108q-33 -85 -62 -140t-70 -99.5t-94 -64.5t-124 -20q-112 0 -191 58l62 104q61 -41 129 -41q76 0 124 48t83 134l28 70zM266 1229v135h129v-135h-129zM684 1229v135h129v-135h-129z" />
<glyph unicode="&#x152;" horiz-adv-x="2027" d="M111 684q0 196 75 348.5t223.5 242t350.5 89.5h1143v-135h-738v-438h635v-134h-635v-522h758v-135h-1163q-202 0 -350.5 90t-223.5 243.5t-75 350.5zM264 684q0 -252 129.5 -400.5t366.5 -148.5h260v1094h-260q-237 0 -366.5 -147t-129.5 -398z" />
<glyph unicode="&#x153;" horiz-adv-x="2054" d="M100 526q0 158 60.5 283t176 197.5t267.5 72.5q151 0 264 -70t174 -194q62 123 174 193.5t261 70.5q221 0 356 -150t135 -378q0 -29 -4 -53h-852q7 -183 112.5 -288.5t276.5 -105.5q191 0 314 138l96 -86q-164 -181 -412 -181q-160 0 -278 70t-181 193 q-62 -122 -174 -192.5t-262 -70.5q-152 0 -267.5 73t-176 197.5t-60.5 280.5zM240 526q0 -183 98 -304.5t266 -121.5t266.5 121.5t98.5 304.5q0 121 -42.5 217.5t-126.5 153.5t-196 57t-196 -57.5t-126 -153.5t-42 -217zM1116 610h713q-14 164 -113.5 254t-242.5 90 q-151 0 -248 -96t-109 -248z" />
<glyph unicode="&#x178;" horiz-adv-x="1218" d="M16 1364h170l426 -666l428 666h164l-522 -797v-567h-147v567zM336 1487v135h129v-135h-129zM754 1487v135h129v-135h-129z" />
<glyph unicode="&#x2c6;" horiz-adv-x="653" d="M20 1276q136 95 259 209h110q126 -117 258 -209l-43 -76q-157 60 -270 168q-113 -107 -271 -168z" />
<glyph unicode="&#x2dc;" horiz-adv-x="653" d="M12 1272q28 73 75 115.5t101 42.5q44 0 134.5 -39t128.5 -39q67 0 127 73l59 -39q-28 -73 -75 -115t-101 -42q-44 0 -134 39t-128 39q-66 0 -127 -74z" />
<glyph unicode="&#x2000;" horiz-adv-x="871" />
<glyph unicode="&#x2001;" horiz-adv-x="1743" />
<glyph unicode="&#x2002;" horiz-adv-x="871" />
<glyph unicode="&#x2003;" horiz-adv-x="1743" />
<glyph unicode="&#x2004;" horiz-adv-x="581" />
<glyph unicode="&#x2005;" horiz-adv-x="435" />
<glyph unicode="&#x2006;" horiz-adv-x="290" />
<glyph unicode="&#x2007;" horiz-adv-x="290" />
<glyph unicode="&#x2008;" horiz-adv-x="217" />
<glyph unicode="&#x2009;" horiz-adv-x="348" />
<glyph unicode="&#x200a;" horiz-adv-x="96" />
<glyph unicode="&#x2010;" horiz-adv-x="792" d="M135 516v119h522v-119h-522z" />
<glyph unicode="&#x2011;" horiz-adv-x="792" d="M135 516v119h522v-119h-522z" />
<glyph unicode="&#x2012;" horiz-adv-x="792" d="M135 516v119h522v-119h-522z" />
<glyph unicode="&#x2013;" d="M115 563v119h944v-119h-944z" />
<glyph unicode="&#x2014;" horiz-adv-x="1933" d="M135 563v119h1663v-119h-1663z" />
<glyph unicode="&#x2018;" horiz-adv-x="434" d="M127 934v172q0 153 133 283l53 -50q-100 -87 -100 -190v-51h90v-164h-176z" />
<glyph unicode="&#x2019;" horiz-adv-x="405" d="M115 958q100 87 100 191v51h-90v164h176v-172q0 -153 -133 -283z" />
<glyph unicode="&#x201a;" horiz-adv-x="487" d="M145 -242q101 88 101 191v51h-90v164h176v-172q0 -153 -133 -283z" />
<glyph unicode="&#x201c;" horiz-adv-x="772" d="M127 934v172q0 153 133 283l53 -50q-100 -87 -100 -190v-51h90v-164h-176zM465 934v172q0 153 133 283l53 -50q-100 -87 -100 -190v-51h90v-164h-176z" />
<glyph unicode="&#x201d;" horiz-adv-x="743" d="M115 958q100 87 100 191v51h-90v164h176v-172q0 -153 -133 -283zM453 958q100 87 100 191v51h-90v164h176v-172q0 -153 -133 -283z" />
<glyph unicode="&#x201e;" horiz-adv-x="825" d="M145 -242q101 88 101 191v51h-90v164h176v-172q0 -153 -133 -283zM483 -242q101 88 101 191v51h-90v164h176v-172q0 -153 -133 -283z" />
<glyph unicode="&#x2022;" horiz-adv-x="727" d="M113 682q0 104 74 178t178 74q103 0 176 -74t73 -178q0 -103 -73 -176.5t-176 -73.5q-104 0 -178 73.5t-74 176.5z" />
<glyph unicode="&#x2026;" horiz-adv-x="1341" d="M152 0v176h176v-176h-176zM582 0v176h176v-176h-176zM1014 0v176h176v-176h-176z" />
<glyph unicode="&#x202f;" horiz-adv-x="348" />
<glyph unicode="&#x2039;" horiz-adv-x="552" d="M72 508v41l280 385l90 -70l-256 -336l256 -335l-90 -70z" />
<glyph unicode="&#x203a;" horiz-adv-x="552" d="M111 193l256 335l-256 336l90 70l280 -385v-41l-280 -385z" />
<glyph unicode="&#x205f;" horiz-adv-x="435" />
<glyph unicode="&#x20ac;" horiz-adv-x="1456" d="M86 500v96h158q-4 27 -4 86q0 57 4 86h-158v96h172q48 237 212 381t404 144q158 0 283.5 -66t210.5 -186l-115 -86q-63 95 -160 147.5t-219 52.5q-179 0 -299.5 -103t-162.5 -284h592v-96h-607q-4 -29 -4 -86q0 -59 4 -86h607v-96h-592q42 -181 162.5 -284t299.5 -103 q123 0 220 52t159 148l119 -84q-85 -121 -212.5 -187.5t-285.5 -66.5q-240 0 -404 144t-212 381h-172z" />
<glyph unicode="&#x2122;" horiz-adv-x="1406" d="M92 1284v82h479v-82h-196v-481h-90v481h-193zM672 803v563h139l164 -483l166 483h135v-563h-88v467l-158 -467h-115l-157 467v-467h-86z" />
<glyph unicode="&#xe000;" horiz-adv-x="1054" d="M0 0v1055h1055v-1055h-1055z" />
</font>
</defs></svg> 