<svg xmlns="http://www.w3.org/2000/svg">
  <defs>
    <symbol id="media-forbes" viewBox="0 0 103 27">
      <g stroke-width="1" fill="none" fill-rule="evenodd" opacity="0.698730469">
        <g transform="translate(-544.000000, -2326.000000)" fill="#AAAAAA" fill-rule="nonzero">
          <g id="forbes-ar21-copy-2" transform="translate(544.000000, 2326.000000)">
            <path d="M102.112963,13.5588424 L101.170309,13.8195472 C100.274788,10.6910888 98.7712555,9.35087268 96.6502846,9.35087268 C95.1608918,9.35087268 94.1051196,10.3550692 94.1051196,11.9579214 C94.1051196,13.4835276 95.3305694,14.3042652 98.6619076,15.6821387 C101.72836,16.8369647 103,18.2505644 103,20.7224328 C103,24.4833419 100.11548,26.8422382 95.3777021,26.8422382 C93.0993081,26.8422382 90.5183223,26.3208285 89.0638076,25.7250696 L88.8818754,20.4993853 L89.7773964,20.3130296 C91.1225633,23.8885486 92.843849,25.2413172 95.0845368,25.2413172 C97.0235755,25.2413172 98.0416415,23.8634437 98.0416415,22.4479128 C98.0416415,21.0323819 97.253583,20.2135755 94.223894,19.0973725 C91.3393736,18.1289022 89.3645141,16.8630352 89.3645141,13.7220243 C89.3645141,10.6321888 92.0180843,8.01162211 96.5286823,8.01162211 C98.6619076,8.01162211 100.600946,8.38433352 101.873529,8.98009242 L102.112963,13.5588424 Z M82.6000311,15.1974208 C82.7093789,12.740036 82.2229696,9.18962189 80.2490528,9.18962189 C78.2251753,9.18962189 77.1100159,12.504436 77.0741951,15.3470847 L82.6000311,15.1974208 Z M80.7335768,7.99810408 C85.7013618,7.99810408 88.1013582,11.7223214 88.1381216,16.6129516 L76.9544781,16.6129516 C76.9167719,20.9454803 79.1602877,24.2216715 83.3532114,24.2216715 C85.1819596,24.2216715 86.2377318,23.7002618 87.3519485,22.8814554 L87.873236,23.4772143 C86.6477861,25.1901418 84.1026211,26.8277546 80.7090678,26.8277546 C75.2558161,26.8277546 71.4748321,22.9924963 71.4748321,17.5794908 C71.4625776,12.6888606 74.5648509,7.99617293 80.7335768,7.99617293 L80.7335768,7.99810408 Z M64.6160837,17.0580811 C64.5067359,13.1957867 63.1266908,10.1194693 60.4712353,10.1194693 C59.8396573,10.1194693 59.356076,10.2314758 58.604781,10.4921807 L58.8215913,25.3755319 C59.0883623,25.4875385 59.7171124,25.5618876 60.1667582,25.5618876 C62.747744,25.5618876 64.6141984,21.8251179 64.6141984,17.0590466 L64.6160837,17.0580811 Z M70.1522889,16.7693746 C70.1522889,22.88918 66.3816741,26.8364448 59.984826,26.8364448 C57.706432,26.8364448 55.3431992,26.4637334 53.2957553,25.979981 C53.4776875,23.5225962 53.4776875,8.30322534 53.2957553,5.43547178 C53.1138231,3.94559173 52.7018835,3.23782629 51.5744696,3.08912796 L50.8231746,3.0147788 L50.8231746,2.33211827 L58.7131862,0.842238223 C58.67548,2.09748389 58.6038383,5.43547178 58.6038383,9.34507924 C59.9857687,8.6373138 61.2574085,8.2279106 62.9777515,8.2279106 C67.0858364,8.2279106 70.1419197,11.8034296 70.1419197,16.768409 L70.1522889,16.7693746 Z M50.0633957,13.4449047 C47.6275786,11.8063263 45.0107719,12.5140918 44.4885417,13.4449047 C44.2585342,16.3126582 44.3066096,20.7195361 44.5262479,22.9905652 C44.6355957,24.4804452 45.0475354,25.1128959 46.1740066,25.2249025 L47.6633994,25.3736008 L47.6633994,26.3420711 L36.5184046,26.3420711 L36.5184046,25.3736008 L37.3790475,25.2249025 C38.4574433,25.1128959 38.8335621,24.4814108 38.9061465,22.9905652 C39.1729175,20.5698722 39.2455018,15.4928863 38.9061465,12.6994819 C38.8335621,11.0985609 38.4574433,10.5018364 37.3790475,10.3531381 L36.5184046,10.2411315 L36.5184046,9.57102346 L44.4800578,8.00679424 L44.37071,12.1780721 C46.2371644,7.85809591 49.945564,7.33668617 51.957187,8.49151219 L50.0633957,13.4449047 Z M23.9358629,17.4423793 C23.9358629,21.9979555 25.1358611,25.7221729 27.5594238,25.7221729 C30.1771731,25.7221729 30.9284681,22.0723047 30.9284681,17.4423793 C30.9284681,12.812454 29.7652335,9.2002432 27.3049073,9.2002432 C24.6654769,9.2002432 23.9358629,12.7381048 23.9358629,17.4423793 L23.9358629,17.4423793 Z M36.563652,17.3680302 C36.563652,22.5937144 33.1946077,26.8306513 27.1842476,26.8306513 C21.2700383,26.8306513 18.2893672,22.7964849 18.2893672,17.5080383 C18.2893672,12.3190459 21.6584116,7.99906966 27.6687716,7.99906966 C33.582981,7.99906966 36.563652,12.058341 36.563652,17.3583744 L36.563652,17.3680302 Z M21.0852781,8.37081549 L19.8598283,8.74352689 C18.8172533,5.08110627 16.975308,2.9964329 13.8004503,2.9964329 L9.65560193,2.9964329 C9.42559442,5.42967834 9.31624659,9.19058746 9.42559442,13.2508244 L12.1875698,13.1021261 C14.0540241,13.1021261 14.84114,11.7242526 15.298327,9.72261851 L16.340902,9.72261851 L16.340902,18.1887677 L15.2804166,18.1887677 C14.8317134,16.1417517 14.0549668,14.7513258 12.1696594,14.6383536 L9.407684,14.5997307 C9.407684,17.6161826 9.44539015,20.1981264 9.63769151,21.7623556 C9.81962367,23.9966929 10.42575,25.0144074 12.0254333,25.225868 L13.5280234,25.3745664 L13.5280234,26.3430367 L0,26.3430367 L0,25.3745664 L1.12741383,25.225868 C2.69033368,25.0037861 3.33322351,23.9966929 3.51515568,21.7623556 C3.81680486,18.1124874 3.89221716,10.3174118 3.51515568,5.98488315 C3.33322351,3.66750654 2.69127633,2.74538376 1.12741383,2.55902806 L0,2.37267236 L0,1.36847583 L21.0588838,1.36847583 L21.0852781,8.37081549 Z"></path>
          </g>
        </g>
      </g>
    </symbol>
    <symbol id="media-entrepreneur" viewBox="0 0 179 36">
      <g stroke="none" stroke-width="1" fill="none" fill-rule="evenodd" opacity="0.698730469">
        <g transform="translate(-252.000000, -2326.000000)" fill="#AAAAAA" fill-rule="nonzero">
          <g transform="translate(252.000000, 2326.000000)">
            <path d="M16.4658761,0.928646024 L16.0508314,7.20230445 L13.00304,7.20230445 L12.7242785,3.29938751 L7.87692739,3.29938751 L7.87692739,12.6389555 L9.95524856,12.6389555 C10.110116,11.9422287 10.23401,11.245502 10.509674,10.5472165 L12.7242785,10.5472165 L12.7242785,16.9595968 L10.6490547,16.9595968 L10.0946293,14.8678578 L8.0163081,14.8678578 L8.0163081,24.7654307 L12.8636593,24.7654307 L13.278704,20.4432307 L16.6021595,20.599098 L16.8809209,27.1517589 L0.952803741,27.1517589 L0.952803741,24.9228567 L3.16740826,24.5051323 L3.16740826,3.57683128 L0.534661628,3.15910695 L0.534661628,0.930204697 L16.4627788,0.930204697 L16.4658761,0.928646024 Z M72.6827602,35.9177353 C72.6827602,35.2210085 72.8376276,34.6630036 72.8376276,34.1049987 L74.4993553,33.6872744 L74.4993553,11.3982519 C73.8070978,11.2423846 73.2526724,11.2423846 72.5604149,11.1176908 L72.5604149,9.3049542 L77.8259081,8.60822741 C77.9807756,9.3049542 78.2409529,10.001681 78.3803336,10.5596859 C78.5352011,10.5596859 78.5352011,10.4038186 78.659095,10.4038186 C79.905778,8.87008446 81.5675057,8.45236012 83.5064462,8.59108201 C85.8604314,8.87164313 87.2464951,10.4038186 87.8009205,12.493999 C88.0796819,13.4697282 88.355346,14.4454574 88.355346,15.4211867 C88.5102135,17.5129257 88.5102135,19.6031061 88.2004786,21.5545645 C88.0456111,22.2512913 87.7854338,23.0882987 87.5082211,23.7834668 C86.5387508,25.8752058 84.8754744,27.1283788 82.6608699,27.2686594 C81.4141869,27.4245267 80.3068847,27.2686594 79.1980337,26.7106545 L78.9192723,26.7106545 L78.9192723,33.6981851 L80.7203808,34.1159094 C80.7203808,34.6739143 80.5655133,35.2303606 80.5655133,35.928646 L72.6703708,35.928646 L72.6827602,35.9177353 Z M78.916175,24.3477064 C80.30069,24.9057113 81.7037891,25.0444332 83.0712686,24.5035737 C83.3187782,24.3937074 83.5165326,24.1946762 83.6256941,23.9455688 C83.7805616,23.248842 84.0407389,22.5521152 84.0407389,21.8538297 C84.3195003,19.7620907 84.3195003,17.5316298 84.1956063,15.4414494 C84.1922597,14.6788337 84.0516399,13.9231393 83.7805616,13.2109885 C83.3655168,11.6772544 82.2566659,11.1192495 80.7327702,11.3982519 L80.4540087,11.3982519 C79.4845385,11.5541192 78.930113,12.2352593 78.930113,13.2109885 L78.930113,24.3461477 L78.916175,24.3477064 Z M131.550975,24.7685481 L133.352083,25.1862724 C133.352083,25.8829992 133.352083,26.4410041 133.197216,27.1377309 L127.103182,27.1377309 L127.103182,14.590414 C127.103182,14.0324091 126.948314,13.4759629 126.82442,12.917958 C126.669553,12.2212312 126.132163,11.9422287 125.439905,11.8035069 C124.747648,11.664785 124.193222,11.6476396 123.638797,11.9593741 C123.084371,12.2711087 122.669327,12.517379 122.669327,13.2141058 L122.669327,24.7841348 L124.470435,25.2018591 C124.470435,25.759864 124.315568,26.4565908 124.315568,27.1533176 L116.559806,27.1533176 L116.559806,25.2049765 L118.360914,24.7872521 L118.360914,11.5432085 C117.668657,11.3873412 117.114231,11.3873412 116.421974,11.2626474 L116.421974,9.28936747 L121.5326,8.59264068 L121.947644,10.2650967 C122.362689,9.98453558 122.779283,9.56836992 123.194327,9.28936747 C124.856055,8.17491634 126.794996,8.03463578 128.596104,8.73136257 C130.12,9.28936747 130.950089,10.5440992 131.228851,12.2165552 C131.383718,12.6342795 131.383718,13.1922844 131.383718,13.6100087 L131.383718,24.0655866 C131.484524,24.2833832 131.532304,24.5222238 131.523099,24.7623134 L131.550975,24.7685481 Z M24.3455319,24.9244153 L26.1466404,25.3421397 C26.1466404,26.0388665 25.9917729,26.5968714 25.9917729,27.2935982 L18.0966304,27.2935982 C18.0966304,26.7355933 18.0966304,26.0388665 18.2514978,25.3421397 L19.9132255,24.9244153 C20.068093,24.506691 20.068093,12.3770985 19.9132255,11.6803717 C19.3588001,11.5245044 18.6665426,11.5245044 17.9742851,11.3998106 L17.9742851,9.42964803 L23.0849109,8.73292124 L23.4999557,10.4053773 L23.9150004,9.98765293 C25.5767282,8.59419935 27.5156686,8.17491634 29.5939898,8.73292124 C31.3950982,9.15064558 32.3816039,10.4053773 32.7796132,12.2181138 C32.9344807,12.6358382 32.9344807,13.1938431 32.9344807,13.6115674 L32.9344807,24.763872 L34.7355891,25.1815964 L34.7355891,27.1517589 L28.641555,27.1517589 L28.641555,15.0252837 C28.641555,14.6075594 28.641555,14.0495545 28.4866875,13.6318302 C28.3318201,12.517379 27.6550493,11.9593741 26.6855791,11.8190936 C25.8539409,11.6632263 25.1616834,11.8190936 24.6072579,12.5158204 C24.3284965,12.7963815 24.3284965,13.0738253 24.3284965,13.4915496 L24.3284965,24.9228567 L24.3455319,24.9244153 Z M159.544815,11.1052214 C158.852558,11.1052214 158.298132,10.9493541 157.605875,10.9493541 L157.605875,9.27689808 L163.562077,8.5801713 C163.840838,9.27689808 164.116502,9.97362487 164.116502,10.8090735 L164.116502,24.8885659 L165.917611,25.3062902 C165.917611,26.003017 165.762743,26.5610219 165.762743,27.2577487 L160.652117,27.2577487 C160.49725,26.8400243 160.373356,26.2820194 160.237073,25.7240145 C160.082205,25.8798818 159.958311,26.0045757 159.822028,26.0045757 C157.743707,27.9560341 154.974677,27.6770317 153.173568,26.841583 C151.789053,26.1448562 151.095247,25.0288464 150.819583,23.496671 C150.664715,22.9386661 150.664715,22.5209417 150.664715,21.9629368 L150.664715,11.2283566 C149.972458,11.0724893 149.2802,11.0724893 148.725775,10.9477954 L148.725775,9.28936747 L154.542596,8.59264068 C154.697464,9.28936747 154.957641,9.84737237 154.957641,10.5440992 L154.957641,21.1383989 C154.957641,21.5561232 154.957641,22.1141281 155.112509,22.5318524 C155.267376,23.7865841 156.081979,24.6235915 157.327113,24.6235915 C157.742158,24.6235915 158.296583,24.4677242 158.711628,24.4677242 C159.126673,24.3118569 159.81893,23.4919949 159.81893,23.0742706 L159.81893,11.502683 C159.540169,11.3468157 159.540169,11.2221219 159.540169,11.0849586 L159.544815,11.1052214 Z M62.8811993,19.0497772 C62.8811993,20.5835113 63.1599607,21.8553884 63.8506695,23.0929747 C64.542927,24.0687039 65.5123973,24.6267088 66.7590802,24.7654307 C68.0057632,24.7654307 69.1130654,24.4848696 70.2219164,24.0687039 C70.3767838,24.0687039 70.5006778,23.9128366 70.7763419,23.9128366 C71.0551033,24.4708415 71.1913866,25.0272878 71.4685994,25.5852927 C71.1898379,25.8658538 70.7763419,26.003017 70.4991291,26.2820194 C68.2845246,27.5367511 65.9305394,27.9544755 63.5734568,27.1190268 C61.4951356,26.5610219 60.2500013,25.1675683 59.2789824,23.2161098 C58.3095122,21.1243708 58.0322995,18.8939099 58.3095122,16.663449 C58.4643796,15.2699954 58.724557,13.8578377 59.2789824,12.6202515 C60.2484527,10.5285124 61.7568616,9.13505885 63.9869529,8.71733451 C66.2170442,8.29961017 68.1420465,8.56146722 69.8037743,10.1107881 C70.7732445,11.0865173 71.32767,12.3396903 71.7427147,13.5959807 C72.1577595,14.9894343 72.2971402,16.2457246 72.2971402,17.6391782 C72.2971402,18.0569025 72.0183788,18.4761855 71.8820954,19.0326318 L62.8796506,19.0326318 L62.8811993,19.0497772 Z M68.2829759,16.6805944 C68.2829759,16.1225895 68.1281085,15.7048651 68.1281085,15.2871408 C67.973241,14.1726897 67.8493471,13.1954018 67.2964703,12.2196725 C66.7420448,11.1052214 65.7725746,10.8262189 64.6637236,11.2439433 C64.2486789,11.3998106 63.9714661,11.6616676 63.6942534,12.0809506 C63.1398279,13.6146848 62.8626152,15.1484189 62.7247832,16.6790357 L62.7247832,17.09676 L68.2643918,16.6790357 L68.2829759,16.6805944 Z M147.652544,19.0497772 L138.650099,19.2056445 C138.495231,19.9023713 138.650099,20.4603762 138.804966,21.018381 C138.946935,21.9340506 139.329195,22.7949794 139.912268,23.5122577 C140.604526,24.349265 141.436164,24.7669894 142.545015,24.7669894 C143.653866,24.7669894 144.75962,24.6111221 145.868471,24.2089845 C146.147232,24.0531172 146.283515,24.0531172 146.560728,23.9284234 C146.839489,24.4864283 146.975773,25.0428745 147.252986,25.6008794 C147.098118,25.6008794 147.098118,25.7567467 146.974224,25.7567467 C145.035284,27.1502002 142.956963,27.5694833 140.602977,27.4292027 C137.815363,27.1486416 135.895007,25.4777442 134.923988,22.8311176 C133.539473,19.4862056 133.677305,16.1397349 135.078855,12.7932641 C135.910494,10.7015251 137.432841,9.16934965 139.786826,8.75006664 C141.587934,8.33234231 143.387494,8.46950552 144.897452,9.58707399 C146.004754,10.4240813 146.69856,11.5385325 147.251437,12.6545423 C147.805862,14.1882764 148.083075,15.9994543 148.083075,17.673469 C148.083075,18.0911933 147.804314,18.5104764 147.66803,19.0669226 L147.652544,19.0497772 Z M144.189707,16.6805944 C144.189707,15.4258627 144.03484,14.3114116 143.635282,13.1954018 C143.480415,12.6373969 143.220237,12.0809506 142.803644,11.6616676 C142.111386,10.6859384 139.895233,10.9649408 139.61802,12.2196725 C139.339259,13.1954018 139.063595,14.171131 138.925763,15.2871408 C138.770895,15.8451457 138.770895,16.4015919 138.770895,17.0998774 L144.172672,16.682153 L144.189707,16.6805944 Z M115.793212,19.0497772 L106.790767,19.2056445 C106.790767,20.8781005 107.069529,22.2731127 108.03745,23.5278444 C108.729708,24.3648518 109.561346,24.7825761 110.515329,24.7825761 C111.622632,24.7825761 112.869315,24.6267088 113.838785,24.2245712 C114.117546,24.0687039 114.25383,24.0687039 114.531042,23.9440101 C114.809804,24.502015 114.946087,25.0584612 115.2233,25.6164661 C114.944538,25.7723334 114.808255,25.8970272 114.668874,26.0341904 C112.685282,27.2710781 110.31449,27.7185061 108.020415,27.2889221 C105.80581,26.8711978 104.280366,25.4761855 103.312444,23.5247271 C102.342974,21.432988 102.065761,19.3428077 102.205142,17.1123468 C102.360009,15.5786126 102.620187,14.1851591 103.174612,12.7901468 C103.86687,11.1176908 104.975721,9.86295909 106.637448,9.16623231 C108.576389,8.32922496 110.515329,8.32922496 112.45427,9.3220996 C113.700953,10.0188264 114.532591,11.1348362 115.087016,12.3895679 C115.779274,14.0620239 116.056487,15.8747605 116.056487,17.6890557 C116.211354,18.1067801 115.901619,18.5260631 115.777725,19.0825093 L115.793212,19.0497772 Z M112.330376,16.6805944 C112.330376,16.1225895 112.175508,15.5661432 112.175508,15.0081383 C112.020641,14.0324091 111.896747,13.0566799 111.34387,12.2025271 C110.651613,11.088076 109.682142,10.668793 108.556256,11.2267979 C108.277495,11.3826652 108.001831,11.507359 107.863999,11.9235247 C107.309573,13.0379758 107.03236,14.2927075 106.894528,15.5474392 C106.894528,15.9651635 106.739661,16.3844465 106.739661,16.9408927 C108.540769,16.9408927 110.340329,16.7850254 112.27927,16.6603316 L112.330376,16.6805944 Z M51.0911404,8.73447991 L51.5061852,10.4069359 C51.7849466,10.2510686 51.9212299,10.1263748 52.1984427,9.9892116 C53.4451256,9.29248481 54.8311893,8.87476048 56.2157043,8.73447991 C56.9079618,8.57861262 57.4623873,8.8903472 57.877432,9.4312067 L57.3230065,14.3098529 C56.3535363,14.3098529 55.3840661,14.1539856 54.4145959,14.1539856 C54.2597284,13.3169782 54.1358344,12.4815296 54.1358344,11.5042417 C53.4435769,11.5042417 52.8891515,11.7848028 52.334726,12.2009684 L52.334726,24.7482853 L54.1358344,25.1660096 C54.1358344,25.7240145 54.1358344,26.4207413 53.980967,26.9787462 L46.2437892,26.9787462 L46.2437892,25.1660096 L47.905517,24.7482853 L47.905517,11.5182697 C47.2132595,11.3624024 46.658834,11.3624024 45.9665765,11.2377086 L45.9665765,9.28936747 C47.6283042,9.28936747 49.290032,9.00880634 51.0772023,8.73136257 L51.0911404,8.73447991 Z M166.746151,27.1517589 C166.746151,26.4550321 166.746151,25.8970272 166.901019,25.3390223 L168.562747,24.921298 L168.562747,11.6772544 C168.008321,11.5213871 167.316064,11.5213871 166.623806,11.3966932 L166.623806,9.42964803 L171.889299,8.73292124 L172.304344,10.2666554 L174.518949,9.29092614 C175.350587,9.01036502 176.042844,8.8732018 176.872934,8.73292124 C177.565191,8.57705395 178.119617,8.73292124 178.534662,9.42964803 L177.980236,14.3082942 C177.010766,14.3082942 176.041296,14.1524269 175.071825,14.1524269 C174.916958,13.3154196 174.793064,12.3396903 174.793064,11.502683 L172.991956,12.1994098 L172.991956,24.8870072 L174.793064,25.3047315 C174.793064,25.8627364 174.638197,26.5594632 174.638197,27.1174681 L166.743054,27.1174681 L166.746151,27.1517589 Z M97.8920835,11.5229457 L96.0909751,12.2196725 L96.0909751,24.9072699 L97.8920835,25.3249943 C97.8920835,26.0217211 97.7372161,26.579726 97.7372161,27.1377309 L89.9814542,27.1377309 L89.9814542,25.3249943 L91.6431819,24.9072699 L91.6431819,11.6632263 C90.9509245,11.507359 90.396499,11.507359 89.7042415,11.3826652 L89.7042415,9.42964803 L94.9697348,8.73292124 L95.3847795,10.2666554 L96.9086752,9.42964803 C97.8781454,9.01192369 98.8476157,8.73292124 99.9564666,8.59264068 C100.788105,8.59264068 101.340982,8.8732018 101.757575,9.42964803 L101.20315,14.3082942 C100.233679,14.3082942 99.2642091,14.1524269 98.2947389,14.1524269 L97.8796941,11.502683 L97.8920835,11.5229457 Z M41.1052873,5.24928731 L41.1052873,9.01348236 L44.3079461,9.01348236 C44.1530787,9.85048971 44.1530787,10.5472165 44.1530787,11.3826652 C43.1836084,11.3826652 42.2141382,11.5385325 41.244668,11.6632263 L41.244668,23.5122577 C41.3995354,24.2089845 41.7990934,24.7669894 42.629183,24.7669894 L44.4302914,24.7669894 C44.4302914,25.4637162 44.5851589,26.0217211 44.5851589,26.7184478 C44.1701141,26.999009 43.6156886,27.1361722 43.0612632,27.2764527 C41.9539609,27.5570139 40.8466586,27.5570139 39.7378077,27.43232 C38.07608,27.1517589 36.9501936,26.0388665 36.6900163,24.2261299 L36.6900163,11.678813 C35.9977588,11.5229457 35.3055013,11.3982519 34.6116951,11.3982519 C34.6116951,10.7015251 34.6116951,9.86451777 34.7665626,9.16934965 C35.5982008,9.16934965 36.2904583,9.01348236 37.1205478,9.01348236 L38.090018,5.52828976 L41.1378094,5.24772863 L41.1052873,5.24928731 Z"></path>
          </g>
        </g>
      </g>
    </symbol>
    <symbol id="media-cheddar" viewBox="0 0 132 82">
      <g stroke="none" stroke-width="1" fill="none" fill-rule="evenodd" opacity="0.698730469">
        <g transform="translate(-752.000000, -2162.000000)" fill="#AAAAAA" fill-rule="nonzero">
          <g transform="translate(751.000000, 2162.000000)">
            <path d="M92.2996271,66.4695234 L92.2996271,59 L98.8918397,59 C99.3788447,59 99.5235346,59.2589389 99.5005959,59.6646098 L99.5005959,60.2584429 L99.5252991,80.395256 C99.5252991,81.2963632 99.348848,81.6519726 98.3342543,81.6036374 L92.3260948,81.5794697 L92.2290467,79.8946408 C91.8884961,79.7738027 91.7667449,80.0361941 91.6202905,80.1794736 C88.7494313,83.0726839 83.81233,82.3614651 81.4284758,79.0884778 C78.9969799,75.7671552 79.0463862,70.3121762 81.5255239,67.0391889 C83.981723,63.8110843 88.3841776,63.3156479 91.5708842,65.8998578 C91.7896835,66.0414111 91.9361379,66.1587967 92.3013917,66.4695234 L92.2996271,66.4695234 Z M89.5752224,70.0981201 C87.9448144,70.0981201 86.7043632,71.3790044 86.7043632,73.1363362 C86.7043632,74.893668 87.8954081,76.1745523 89.5505192,76.1745523 C91.2056304,76.1745523 92.444317,74.893668 92.444317,73.1622301 C92.444317,71.4307922 91.2038659,70.1032989 89.5734579,70.1032989 L89.5752224,70.0981201 Z M77.8235802,81.5518496 L70.6137888,81.5518496 L70.5167407,79.9119034 C70.1991288,79.7686239 70.079142,80.0551829 69.9079845,80.1967362 C66.7900938,82.9276781 62.2852976,82.4995659 59.8008663,79.223126 C57.2687933,75.9000771 57.3164351,70.2465784 59.8979144,66.973591 C62.3823457,63.8145368 66.7653907,63.3484468 69.8850458,65.9292042 L70.5202697,66.4522608 L70.5202697,59 L77.1936498,59 C77.6806548,59 77.8288737,59.2382238 77.802406,59.6646098 L77.802406,80.1777473 L77.8271092,81.5553021 L77.8235802,81.5518496 Z M70.7373046,73.1725877 C70.7373046,71.4463285 69.4703858,70.1343715 67.8611519,70.1102039 C66.2289794,70.1102039 64.9638251,71.4152558 64.9638251,73.14842 C64.9638251,74.8815842 66.1989827,76.1866361 67.8399778,76.1866361 C69.4280375,76.1866361 70.7161305,74.8815842 70.7373046,73.1708614 L70.7373046,73.1725877 Z M37.1057278,81.1133798 L30.0353328,81.1133798 L30.0353328,72.6029221 C30.0106297,71.0372051 29.2942383,70.1481816 28.0943709,70.1723492 C26.8715649,70.1965169 26.1287058,71.0354788 26.1057672,72.6029221 L26.081064,80.0828031 L26.0334222,81.0874859 L19.0600754,81.0874859 L19.0600754,59 L26.0828285,59 L26.0828285,66.3158863 C26.6827622,66.2692773 26.8503908,65.8722377 27.138006,65.6374665 C29.1036711,64.0717494 31.2846065,63.6747098 33.631406,64.515398 C35.8846863,65.3094772 37.0104442,67.0633565 37.0827892,69.2626107 L37.1074923,81.1133798 L37.1057278,81.1133798 Z M117.599184,80.642111 L110.68583,80.642111 L110.592311,79.2213997 C109.360683,80.3037642 108.03377,80.9131337 106.523349,81.0719496 C102.477326,81.5000618 99.7123372,78.5913151 100.617531,74.80045 C101.03572,73.0638333 102.205591,72.0263516 103.917167,71.4618648 C105.731084,70.8749367 107.569704,70.9664285 109.427734,71.2892389 L110.544669,71.4704961 C110.661127,70.0946676 110.0559,69.3506499 108.638998,69.1469513 C106.756265,68.8534873 104.942347,69.3195772 103.05785,69.9358517 L101.826221,65.4700193 C105.872245,64.2063976 109.847688,63.755844 113.824895,65.1541139 C115.917605,65.8756902 117.149233,67.4776587 117.406852,69.6423877 C117.84798,73.2675319 117.452729,76.9064862 117.618593,80.6283009 L117.599184,80.642111 Z M109.390679,73.8302924 C107.972013,73.807851 107.135634,74.4396619 107.087993,75.5444677 C107.042115,76.4939103 107.622639,77.1464362 108.552537,77.191319 C109.784165,77.2603693 110.645246,76.2660441 110.74053,74.80045 C110.81111,73.6732028 109.928855,73.9891082 109.392444,73.8302924 L109.390679,73.8302924 Z M57.0164682,74.7797349 L46.563506,74.7797349 C46.9164081,76.3817034 48.356249,77.2534643 49.9619539,76.9945254 C50.8706769,76.8529722 51.6382392,76.4283124 52.3122823,75.8172167 C52.6157782,75.5582778 52.8469291,75.2751713 53.2898213,75.6514958 L56.5718115,78.3133874 C53.9250452,81.6588777 50.5424779,82.4823033 46.7011378,81.7520957 C43.3485672,81.0926647 40.9982387,79.136813 40.1830347,75.6756634 C39.3678307,72.2145138 39.9959966,68.984683 42.6974627,66.5351212 C45.3742256,64.1080008 48.5644613,63.802453 51.8464514,64.9573203 C55.2448993,66.1587967 56.6423919,68.9622416 56.9917651,72.4009498 C57.0623455,73.0914535 57.0147037,73.8613651 57.0147037,74.7797349 L57.0164682,74.7797349 Z M46.3764678,71.5757979 L50.6818743,71.5757979 C50.3325011,69.8788852 49.5878776,69.1486776 48.35272,69.2194542 C47.2587232,69.2885046 46.5882091,70.0825838 46.3764678,71.5757979 L46.3764678,71.5757979 Z M18.0490107,69.0123031 L13.1172028,71.7536026 C11.4338595,69.9582931 9.99048961,69.6734604 8.78709321,70.8317802 C7.55193562,72.0142678 7.58369681,74.3775166 8.85767364,75.5358364 C10.06107,76.5992121 11.5520817,76.2677703 13.1401415,74.4966284 L18.1689974,77.3104309 C16.6056408,80.8561672 12.2755312,82.6998119 7.87307659,81.7538219 C3.85528539,80.8561672 0.896200696,77.1222686 0.991484282,73.0327607 C1.08853238,68.8034257 4.09702338,65.2645945 8.25597544,64.5015879 C12.65843,63.6988774 16.6021118,65.4682931 18.0490107,69.0157556 L18.0490107,69.0123031 Z M132.989247,64.3393196 L132.989247,71.5205576 C132.791622,71.5671666 132.645168,71.6137756 132.495184,71.6137756 C129.096736,71.8243793 127.743357,73.1328837 127.595138,76.3609883 L127.570434,81.108201 L120.330646,81.108201 L120.330646,64.5930797 L127.570434,64.5930797 L127.570434,67.1893734 C128.900876,65.3888851 130.451881,64.0786544 132.987483,64.335867 L132.989247,64.3393196 Z"></path>
            <path d="M58.081798,37.8657521 C59.2563815,38.1228815 60.0312982,37.7950415 60.7111173,36.7729521 C61.1801797,36.0568467 61.0863672,35.1401803 60.4540969,34.2710829 C60.0081664,33.6719714 59.4440065,33.2258519 58.7282045,33.0265766 C58.471184,32.955866 58.3426738,32.8620137 58.3645205,32.5444589 C58.7500512,28.9510754 58.6703749,25.3448354 58.5405795,21.7514519 C58.5424218,21.6178981 58.5501399,21.4844902 58.5637114,21.3516156 C60.4425309,21.5508909 62.5218265,20.3295262 63.2363433,18.5913314 C63.5293467,17.8867968 63.4471001,17.1591206 63.1656627,16.4777276 C62.3431972,14.4811177 60.794649,13.3304636 58.7282045,12.8367751 C58.4359266,12.817538 58.2067183,12.57819 58.2000274,12.2852326 L56.7671384,3.84110267 C56.6733259,3.32684385 56.5101179,2.81901326 56.2505272,2.36260856 L55.6632355,1.21195444 C55.5347253,0.894399616 55.217305,0.530561498 55.4280618,0.237433968 C55.6748014,-0.0916916786 56.1554297,0.00216055668 56.5332497,0.0497294979 C57.6255867,0.178294204 58.5894134,0.671982674 59.4915552,1.2710942 L61.8047394,2.90386597 C64.0125451,4.5494942 66.3951248,4.84133609 68.9550486,3.84238832 L70.2697082,3.33712903 C71.4442917,2.86786785 72.653573,2.64287962 73.9322498,2.7380175 L78.0291559,2.97329091 C79.8835585,3.26641844 80.8114024,4.13551585 81.234201,5.9919902 C81.4912215,7.17864244 81.5747531,8.40000715 81.5272044,9.60851538 C81.421826,12.520506 81.8908883,15.3746424 82.2083086,18.2519206 L83.1361524,24.8755742 C83.2440313,26.2659591 82.9805884,27.6600475 82.3728017,28.9150773 C82.2442914,29.1722067 82.0900792,29.349626 81.8202077,29.4781907 C79.4491939,30.6764137 78.9325828,33.2129954 80.6340583,35.2558886 C81.0195889,35.7380062 81.5143533,36.1365568 82.0091177,36.5248222 C83.4535727,37.6639055 84.0652814,39.202825 83.9817497,40.998874 C83.934201,42.1855262 83.2299649,42.9723422 82.1851767,43.4891723 C81.1185418,44.0034311 79.9542391,44.1834217 78.7796556,44.2862735 L76.3379613,44.4148382 C75.7391036,44.4624071 75.2224925,44.2862735 74.7418642,43.9802895 L73.2639966,43.0160542 C72.1588086,42.2768071 70.9983612,42.240809 69.8006459,42.7113559 C69.2352009,42.9350584 68.6736112,43.2050443 68.2161147,43.5804533 C66.5133542,44.9663808 64.5278711,45.588634 62.3946013,45.7994801 C62.0309174,45.8341926 61.6543824,45.9049031 61.2894134,45.9640429 C60.0454343,46.1401766 59.2114029,45.6709154 58.7192088,44.5189756 C58.3902226,43.7321596 58.2848442,42.8990603 58.2141636,42.0762462 C58.0599513,40.667177 58.131917,39.2696787 58.1203511,37.8593239 L58.081798,37.8657521 Z M64.3598643,32.4732781 C62.8243576,32.4490692 61.8092697,33.2721727 61.6493493,34.6601512 C61.4135345,36.650663 62.6657924,39.1320781 64.4479561,40.1152295 C65.4508466,40.6532057 66.4781318,40.8414974 67.4566278,40.0910206 C68.6451886,39.1818409 69.710421,38.1502716 69.6724738,36.4785107 C69.6724738,36.38033 69.6223293,36.2821494 69.5979346,36.1826238 C69.115463,34.2163209 66.7003941,32.5109364 64.3734169,32.4705882 L64.3598643,32.4732781 Z M72.3590562,11.8190928 C72.4006338,12.5592272 72.6446515,13.2741593 73.0649178,13.8871526 C74.2047722,15.502515 75.8671637,16.1135327 77.3599489,13.8648888 C77.8612852,13.1190514 77.8388373,12.3732141 77.3474778,11.6385086 C76.5742725,10.520371 75.46809,9.95635472 74.1237103,9.92172214 C73.007551,9.90935336 72.3465851,10.6452957 72.3578091,11.8079609 L72.3590562,11.8190928 Z M76.3756001,42.3913785 C76.9825759,42.4038974 77.5673904,42.266189 78.07464,41.9219178 C78.7838045,41.4299231 78.8059659,40.7100834 78.120194,40.1943027 C77.231276,39.5082642 75.4977628,39.5182793 74.6236191,40.2168368 C73.9932507,40.7200986 73.9834012,41.3936181 74.6236191,41.8743458 C75.1407182,42.2499143 75.7366133,42.3751038 76.3780625,42.3751038 L76.3756001,42.3913785 Z M70.9930311,30.6666667 C70.4205887,30.699388 69.8737779,30.7878567 69.4052865,31.087196 C68.5722545,31.6083131 68.5722545,32.4154386 69.3910466,32.9474627 C70.2625262,33.5122082 71.7463199,33.5122082 72.6306153,32.9595817 C73.4508314,32.4384647 73.4636473,31.6204321 72.6448552,31.099315 C72.150732,30.7890686 71.5768655,30.6896928 70.9930311,30.6678786 L70.9930311,30.6666667 Z M79.0667764,7.21655988 C78.4158791,7.20353938 77.8176804,7.34676488 77.3106357,7.72826551 C76.6839513,8.20351373 76.672557,8.8701633 77.27218,9.36884843 C78.1552354,10.1058087 80.006803,10.1058087 80.8756155,9.36884843 C81.4481772,8.8805797 81.4481772,8.23866908 80.8756155,7.76342086 C80.3557523,7.33374438 79.7304922,7.20353938 79.0667764,7.21655988 Z M72.7791241,36.0759808 C73.5277934,36.0882338 74.1324879,35.708389 74.1468854,35.203563 C74.1612829,34.71099 73.5681064,34.2845836 72.830955,34.2747811 C72.1082012,34.2625281 71.4891092,34.666879 71.4631937,35.159452 C71.4487962,35.6740804 72.029015,36.0661783 72.7791241,36.0784314 L72.7791241,36.0759808 Z M71.4639366,25.254902 C70.9505223,25.254902 70.5599942,25.6690571 70.5683255,26.1738853 C70.5787396,26.6444048 70.977599,27.0463068 71.4535225,27.05856 C71.9481914,27.0708131 72.3574649,26.6542073 72.3574649,26.1518297 C72.367879,25.637199 71.9773509,25.2573526 71.4618538,25.2573526 L71.4639366,25.254902 Z M80.794367,5.50797919 C80.623635,5.55758703 80.3879893,5.59817527 80.4119985,5.89582233 C80.4360077,6.15107723 80.6476442,6.22503801 80.8583915,6.21692036 C81.0860341,6.21692036 81.3136768,6.12672429 81.3047845,5.85433213 C81.2887783,5.59095958 81.0691388,5.52511644 80.7925885,5.50797919 L80.794367,5.50797919 Z M57.8732415,41.4901961 L56.4469043,36.4301988 L51.8422036,19.1559765 C51.7611032,18.8417146 51.7495174,18.5630776 51.8653751,18.2602666 C52.3597014,16.8416352 52.1305606,15.5845879 50.9449499,14.5959991 C50.7608649,14.4433212 50.7132345,14.2588356 50.669466,14.0489036 L50.0026405,10.2701277 C49.8996558,9.42149347 50.4171537,8.75861729 50.6462945,8.01304063 C50.7042233,7.81583179 50.9114799,7.92016162 51.0492219,7.93161246 C52.362276,8.01304063 53.3380555,7.37179381 53.6959271,6.09438943 C54.004881,4.97729675 54.2365965,3.85002555 53.2582424,2.89578921 C53.1552578,2.79145937 53.1089147,2.68585722 53.2003135,2.53572404 C53.7757402,1.65146503 54.3846369,0.79265232 55.2368348,0 C55.7079895,1.52423351 56.2486589,2.9199632 56.479087,4.42002273 L57.7097534,11.6900313 C57.7908538,12.1200738 57.7560965,12.3643583 57.2591956,12.5170362 C56.2473716,12.8427488 55.8096868,13.7028338 55.6951164,14.6799719 C55.463401,16.8429076 56.0980438,18.7513802 57.7548092,20.1929133 C57.95048,20.3672204 58.0302931,20.5300768 58.0418789,20.7858121 L57.9131481,31.8244181 C57.8783908,32.1386799 57.8204619,32.3842368 57.5565638,32.6259766 C56.9463798,33.1959738 56.9811371,33.9746307 57.0506517,34.743109 C57.075563,34.9736483 57.1296225,35.2001909 57.2115652,35.417436 C57.9247339,37.3831629 57.6144926,39.4633981 58.01742,41.4660221 C57.9479054,41.4660221 57.8912639,41.4787452 57.8217492,41.4787452 L57.8732415,41.4901961 Z"></path>
          </g>
        </g>
      </g>
    </symbol>
    <symbol id="media-wp" viewBox="0 0 165 115">
      <g stroke="none" stroke-width="1" fill="none" fill-rule="evenodd" opacity="0.698730469">
        <g transform="translate(-510.000000, -2157.000000)" fill="#AAAAAA" fill-rule="nonzero">
          <g transform="translate(510.000000, 2157.000000)">
            <path d="M14.2339008,59.5987942 L12.8628466,61.1793834 L9.33727864,58.2157786 L9.33727864,43.7929016 L11.2959275,41.8171651 L14.2339008,44.5831963 L14.2339008,59.5987942 Z M23.6354155,61.5745307 L19.5222528,58.0182049 L19.5222528,43.595328 L21.2850368,41.8171651 L23.6354155,44.1880489 L23.6354155,61.5745307 Z M28.9237674,57.6230576 L28.9237674,42.2123124 L24.418875,37.6681183 L19.7181177,42.8050333 L14.6256306,37.6681183 L9.72900842,42.8050333 L9.72900842,41.2244441 C9.72900842,36.8778236 7.18276487,37.6681183 7.18276487,34.7045134 C7.18276487,32.9263505 8.3579542,32.1360559 9.72900842,31.3457613 L9.33727864,30.9506139 C5.22411599,32.5312032 2.87373734,34.5069398 2.87373734,37.0753973 C2.87373734,39.2487075 4.44065644,39.4462812 4.44065644,41.6195914 L4.44065644,47.9419484 C1.50268312,47.9419484 0.915088458,50.7079796 0.915088458,51.8934216 C0.915088458,52.4861425 1.11095335,53.2764372 1.11095335,53.4740108 L1.69854801,53.4740108 C1.8944129,52.6837162 2.28614267,51.8934216 3.26546711,51.8934216 L4.44065644,51.8934216 L4.44065644,59.9939415 L10.3166031,65.1308566 L14.8214955,60.1915151 L20.5015773,65.1308566 L28.9237674,57.6230576 Z M38.1294172,60.7842361 L37.1500927,61.7721044 L34.6038492,59.4012205 L34.6038492,47.1516538 L34.7997141,46.9540801 L38.3252821,49.5225377 L38.1294172,60.7842361 Z M54.3862029,62.7599727 C53.6027433,61.7721044 52.2316891,61.1793834 51.0564998,61.1793834 C49.4895807,61.1793834 48.901986,61.7721044 47.9226616,62.1672517 L47.9226616,61.9696781 L52.427554,55.4497474 L54.3862029,55.4497474 L54.3862029,62.7599727 Z M57.1283113,47.3492275 L53.2110135,53.0788635 L51.6440944,53.0788635 L51.6440944,46.9540801 L51.8399593,46.9540801 C52.6234189,47.7443748 53.6027433,48.1395221 54.3862029,48.1395221 C55.5613922,48.3370957 56.1489869,48.1395221 57.1283113,47.3492275 Z M46.3557425,60.9818098 L45.7681478,60.3890888 L44.5929585,61.7721044 L42.6343096,59.9939415 L42.6343096,48.7322431 L44.2012287,47.1516538 L43.613634,46.5589328 L42.4384447,47.7443748 L38.1294172,44.1880489 L30.2948217,49.7201113 L30.2948217,60.5866625 L29.1196323,61.9696781 L29.707227,62.562399 L30.6865514,61.5745307 L34.7997141,65.1308566 L38.3252821,61.5745307 L38.5211469,61.5745307 L42.4384447,65.1308566 L46.3557425,60.9818098 Z M59.6745549,44.7807699 L59.0869602,44.3856226 C58.1076357,45.1759172 56.9324464,45.3734909 56.1489869,45.3734909 C54.9737975,45.3734909 54.3862029,44.7807699 53.6027433,44.1880489 L46.7474722,49.1273904 L46.7474722,56.832763 L50.2730402,56.832763 L44.5929585,65.1308566 L45.1805531,65.3284302 C46.1598776,64.1429883 47.139202,63.747841 48.5102562,63.747841 C50.0771753,63.747841 51.2523647,64.3405619 52.0358242,65.3284302 L58.4993655,60.7842361 L58.4993655,51.8934216 L54.5820678,51.8934216 L59.6745549,44.7807699 Z M74.7561512,47.1516538 L74.1685566,46.5589328 L72.9933672,47.7443748 L69.4677993,44.3856226 L65.9422313,48.1395221 L65.9422313,37.0753973 L65.7463664,37.0753973 L61.241474,41.6195914 L61.241474,59.9939415 L59.6745549,61.5745307 L59.6745549,61.7721044 L63.3959877,65.3284302 L66.7256908,61.7721044 L65.3546366,60.5866625 L65.3546366,49.324964 L66.5298259,48.1395221 L68.4884748,49.917685 L68.4884748,64.7357093 C68.4884748,66.9090195 67.1174206,68.4896087 65.1587717,69.477477 L65.5505015,70.070198 C69.4677993,69.2799034 72.9933672,66.5138722 72.9933672,62.562399 L72.9933672,48.1395221 L74.7561512,47.1516538 Z M85.724585,60.9818098 L85.1369903,60.3890888 L83.7659361,61.7721044 L82.0031521,60.1915151 L82.0031521,48.3370957 L83.5700712,46.7565065 L82.9824765,46.1637855 L81.8072872,47.3492275 L78.673449,44.5831963 L74.5602863,49.1273904 L75.147881,49.7201113 L76.3230703,48.5346694 L77.8899894,49.917685 L77.8899894,61.7721044 L76.5189352,63.3526937 L77.1065299,63.9454146 L78.2817192,62.7599727 L81.8072872,65.9211512 L85.724585,60.9818098 Z M83.3742063,40.6317231 L79.8486383,37.4705446 L76.7148001,40.8292968 L80.2403681,43.9904753 L83.3742063,40.6317231 Z M115.496048,67.8968878 C115.496048,68.8847561 114.908453,69.477477 114.124994,70.2677716 C112.949804,69.2799034 111.774615,68.6871824 110.207696,68.6871824 C108.249047,68.6871824 107.269723,69.2799034 105.898668,70.070198 L112.558075,62.3648254 L112.558075,62.9575463 C112.558075,64.7357093 112.949804,65.5260039 113.929129,66.1187249 C114.908453,66.3162985 115.496048,66.9090195 115.496048,67.8968878 L115.496048,67.8968878 Z M112.558075,60.7842361 L111.382885,62.1672517 L108.836642,60.1915151 L108.836642,47.5468011 L109.032507,47.3492275 L112.558075,49.917685 L112.558075,60.7842361 Z M138.999834,62.3648254 L135.474266,59.7963678 L135.474266,47.3492275 L138.999834,50.1152587 L138.999834,62.3648254 Z M103.54829,60.7842361 L102.960695,60.1915151 L101.589641,61.7721044 L100.022722,60.1915151 L100.022722,48.5346694 L101.589641,46.9540801 L101.002046,46.3613592 L99.8268569,47.5468011 L96.3012889,44.1880489 L92.3839911,48.3370957 L92.3839911,47.5468011 L88.6625583,44.1880489 L84.3535307,48.7322431 L84.9411254,49.324964 L86.3121796,47.9419484 L87.8790987,49.5225377 L87.8790987,59.9939415 L86.3121796,61.5745307 L86.3121796,61.7721044 L90.0336125,65.3284302 L93.5591805,61.7721044 L93.5591805,61.9696781 L92.1881263,60.7842361 L92.1881263,49.7201113 L93.7550454,48.1395221 L95.7136942,49.917685 L95.7136942,62.1672517 L99.2392622,65.5260039 L103.54829,60.7842361 Z M118.434021,47.1516538 L117.846427,46.5589328 L116.475372,47.7443748 L112.166345,44.3856226 L104.331749,49.917685 L104.331749,61.5745307 L102.76483,63.15512 L103.352425,63.747841 L104.527614,62.562399 L108.249047,65.5260039 L102.568965,72.2435082 L103.15656,72.6386555 C104.527614,71.6507872 106.290398,71.0580663 107.661452,71.0580663 C109.032507,71.0580663 110.011831,71.6507872 111.18702,73.2313765 C115.300183,70.070198 118.042291,68.2920351 118.042291,66.5138722 C118.042291,64.9332829 116.867102,64.9332829 116.867102,62.9575463 L116.867102,48.7322431 L118.434021,47.1516538 Z M129.794185,60.7842361 L129.20659,60.1915151 L127.835536,61.7721044 L125.876887,60.1915151 L125.876887,47.7443748 L127.835536,47.7443748 L129.402455,45.5710645 L129.20659,45.3734909 L125.876887,45.3734909 L125.876887,37.8656919 L125.681022,37.6681183 L121.17613,42.409886 L121.17613,45.1759172 L120.00094,45.1759172 L118.434021,47.3492275 L118.629886,47.5468011 L121.17613,47.5468011 L121.17613,61.9696781 L119.805075,63.3526937 L120.39267,63.9454146 L121.567859,62.7599727 L125.093427,65.5260039 L129.794185,60.7842361 Z M144.875781,47.3492275 L144.288186,46.7565065 L143.112997,47.9419484 L138.41224,44.3856226 L130.969374,49.7201113 L130.969374,60.9818098 L129.59832,62.3648254 L130.185915,62.9575463 L131.361104,61.7721044 L136.453591,65.5260039 L143.504727,60.1915151 L143.504727,48.7322431 L144.875781,47.3492275 Z M164.07054,60.7842361 L163.482945,60.1915151 L162.111891,61.7721044 L160.544972,60.1915151 L160.544972,48.5346694 L162.111891,46.9540801 L161.524297,46.3613592 L160.349107,47.5468011 L156.823539,44.1880489 L152.906242,48.3370957 L152.906242,47.5468011 L149.184809,44.1880489 L144.875781,48.7322431 L145.463376,49.324964 L146.83443,47.9419484 L148.401349,49.5225377 L148.401349,59.9939415 L146.83443,61.5745307 L146.83443,61.7721044 L150.555863,65.3284302 L154.081431,61.7721044 L154.081431,61.9696781 L152.710377,60.7842361 L152.710377,49.7201113 L154.277296,48.1395221 L156.235945,49.917685 L156.235945,62.1672517 L159.761513,65.5260039 L164.07054,60.7842361 Z M78.4775841,17.5156053 C77.8899894,19.8864892 76.910665,21.4670784 74.9520161,22.6525203 L74.9520161,7.43934877 C78.2817192,6.45148049 79.0651788,3.88302295 79.0651788,1.11699175 L78.4775841,1.11699175 C77.8899894,2.69758101 76.910665,3.29030198 74.9520161,3.29030198 C71.4264481,3.29030198 69.0760695,0.524270782 66.1380962,0.524270782 C61.4373388,0.524270782 59.0869602,5.06846489 59.0869602,8.82236437 L59.0869602,9.612659 L59.6745549,9.612659 C59.6745549,7.43934877 61.4373388,5.4636122 64.3753122,5.4636122 C64.9629068,5.4636122 65.5505015,5.66118586 66.1380962,5.85875952 C61.8290686,8.42721706 58.6952304,11.5883956 58.4993655,16.3301633 L58.4993655,18.7010472 C59.0869602,25.0234042 63.2001228,28.9748774 68.8802046,28.9748774 C74.5602863,28.9748774 78.2817192,23.442815 78.8693139,18.1083262 L78.4775841,17.5156053 Z M62.6125282,15.342295 C62.6125282,10.6005273 64.7670419,8.2296434 66.7256908,6.05633317 L71.2305832,7.43934877 L64.9629068,10.9956746 L65.5505015,11.5883956 L66.9215557,10.9956746 L66.9215557,21.4670784 L65.5505015,22.0597994 C63.3959877,20.4792101 62.6125282,17.7131789 62.6125282,15.342295 L62.6125282,15.342295 Z M73.9726917,22.850094 C72.7975023,23.442815 71.4264481,23.6403886 70.2512588,23.6403886 C68.4884748,23.6403886 67.3132855,23.0476677 66.1380962,22.257373 L71.4264481,19.2937682 L71.4264481,7.04420146 C72.0140428,7.24177511 72.6016375,7.24177511 72.9933672,7.24177511 L73.9726917,7.24177511 L73.9726917,22.850094 Z M102.3731,24.6282569 L98.6516676,21.6646521 L98.6516676,19.6889155 L106.486263,14.1568531 L102.177236,7.43934877 L94.34264,13.1689848 L94.34264,23.6403886 L92.9715858,25.0234042 L93.5591805,25.6161252 L94.7343698,24.4306833 L100.022722,28.7773037 L105.898668,22.4549467 L105.311074,21.8622257 L102.3731,24.6282569 Z M98.8475324,10.4029536 L102.3731,16.1325897 L98.8475324,18.7010472 L98.8475324,10.4029536 Z M92.7757209,9.612659 L91.6005316,10.7981009 L88.0749636,7.43934877 L84.5493956,11.1932483 L84.5493956,0.129123468 L84.3535307,0.129123468 L79.8486383,4.67331758 L79.8486383,23.0476677 L78.2817192,24.6282569 L78.2817192,24.8258306 L82.0031521,28.3821564 L85.3328552,24.8258306 L83.961801,23.6403886 L83.961801,12.3786902 L85.1369903,11.1932483 L87.0956392,12.9714112 L87.0956392,27.7894354 C87.0956392,29.9627457 85.724585,31.5433349 83.7659361,32.5312032 L84.1576658,33.1239242 C88.0749636,32.3336295 91.6005316,29.5675983 91.6005316,25.6161252 L91.6005316,11.1932483 L93.1674507,9.81023265 L92.7757209,9.612659 Z M63.2001228,82.5173384 L63.2001228,78.5658652 L62.4166633,78.5658652 L62.4166633,83.307633 L61.241474,84.6906486 L61.241474,80.5416018 L57.3241762,76.985276 L52.8192838,81.7270437 L53.4068784,82.3197647 L54.5820678,81.1343228 L56.1489869,82.5173384 L56.1489869,87.0615325 L55.7572571,87.0615325 C53.4068784,87.0615325 52.2316891,88.6421217 52.2316891,90.6178583 C52.2316891,91.8033002 52.427554,92.1984476 52.6234189,92.5935949 L53.2110135,92.5935949 C53.4068784,91.6057266 54.190338,90.815432 55.3655273,90.815432 L56.1489869,90.815432 L56.1489869,98.9159519 C53.4068784,99.7062465 51.8399593,102.274704 51.6440944,105.435883 L52.0358242,105.633456 C53.4068784,104.052867 54.7779327,103.064999 56.3448518,102.867425 L56.5407166,114.129123 L61.241474,109.584929 L63.5918526,111.75824 L63.7877175,111.75824 L63.7877175,103.262572 C64.7899565,103.690738 65.6666196,104.370978 66.333961,105.238309 L73.5809619,99.7062465 L73.5809619,81.5294701 L69.0760695,77.1828496 L63.2001228,82.5173384 Z M62.2207984,109.782503 L61.0456091,108.597061 L61.0456091,85.2833696 L62.2207984,83.900354 L62.2207984,109.782503 Z M67.7050153,100.298967 C66.333961,98.9159519 65.1587717,98.3232309 63.2001228,98.1256573 L63.2001228,82.9124857 L65.3546366,80.5416018 L67.9008801,82.9124857 L67.9008801,100.298967 L67.7050153,100.298967 Z M102.177236,83.7027803 C101.197911,84.4930749 100.022722,84.6906486 99.2392622,84.6906486 C98.0640729,84.6906486 97.4764782,84.0979276 96.6930187,83.5052067 L89.8377476,88.4445481 L89.8377476,96.1499207 L93.5591805,96.1499207 L87.8790987,104.448014 L88.4666934,104.645588 C89.4460178,103.460146 90.4253423,103.064999 91.7963965,103.064999 C93.3633156,103.064999 94.5385049,103.65772 95.3219645,104.645588 L101.785506,100.101394 L101.785506,91.2105793 L97.868208,91.2105793 L102.568965,84.0979276 L102.177236,83.7027803 Z M97.4764782,101.879557 C96.4971538,100.891688 95.1260996,100.298967 93.9509102,100.298967 C92.3839911,100.298967 91.7963965,100.891688 90.817072,101.286836 L90.817072,101.089262 L95.3219645,94.5693314 L97.2806133,94.5693314 L97.2806133,101.879557 L97.4764782,101.879557 Z M96.105424,92.3960212 L94.5385049,92.3960212 L94.5385049,86.2712379 L94.7343698,86.2712379 C95.5178294,87.0615325 96.4971538,87.4566798 97.2806133,87.4566798 C98.6516676,87.6542535 99.0433973,87.2591061 100.022722,86.6663852 L96.105424,92.3960212 Z M109.815966,86.8639588 L111.774615,86.8639588 L113.341534,84.6906486 L113.145669,84.4930749 L109.815966,84.4930749 L109.815966,76.985276 L105.311074,81.7270437 L105.311074,84.4930749 L104.331749,84.4930749 L102.960695,86.6663852 L102.960695,86.8639588 L105.506939,86.8639588 L105.506939,101.089262 L104.135884,102.472278 L104.723479,102.867425 L105.898668,101.879557 L109.424236,104.645588 L113.733264,99.9038202 L113.145669,99.3110992 L111.774615,100.891688 L109.815966,99.3110992 L109.815966,86.8639588 Z M88.4666934,86.0736642 L87.2915041,87.2591061 L82.5907467,83.7027803 L75.147881,89.037269 L75.147881,100.298967 L73.7768268,101.681983 L74.3644214,102.274704 L75.5396108,101.089262 L80.6320979,104.843162 L87.6832338,99.5086729 L87.6832338,88.0494008 L89.054288,87.0615325 L88.4666934,86.0736642 Z M83.3742063,101.681983 L79.8486383,99.1135255 L79.8486383,86.6663852 L83.3742063,89.4324164 L83.3742063,101.681983 Z"></path>
          </g>
        </g>
      </g>
    </symbol>
    <symbol id="media-inman" viewBox="0 0 114 35">
      <g stroke="none" stroke-width="1" fill="none" fill-rule="evenodd" opacity="0.698730469">
        <g transform="translate(-760.000000, -2321.000000)" fill="#AAAAAA" fill-rule="nonzero">
          <g transform="translate(760.000000, 2321.000000)">
            <path d="M90.369547,15.155958 C90.0187495,14.0577367 89.4540813,13.0500294 88.7122031,12.1982602 C87.9671356,11.3588259 87.0608655,10.6987408 86.054612,10.262594 C84.9157534,9.78420116 83.6980839,9.55252744 82.4734351,9.58123955 C79.8779032,9.58123955 76.1726079,10.1774247 73.8618179,12.3105288 C73.5863008,12.5870697 73.3729564,12.9257803 73.2375761,13.3015899 C73.0817303,13.689528 73.002228,14.10713 73.0039417,14.5288022 C73.0016442,14.938037 73.0812768,15.3431287 73.2375761,15.7173012 C73.3879911,16.0777425 73.5995858,16.4058018 73.8618179,16.6851343 C74.1361286,16.959448 74.456944,17.17619 74.8073071,17.3239041 C75.1641485,17.4891479 75.5495992,17.5735379 75.9389736,17.5716694 C76.3366872,17.5744778 76.73066,17.4901268 77.0961939,17.3239041 C77.799576,17.0091416 78.366169,16.4262362 78.6841775,15.6902019 C78.8519563,15.3196722 78.9357145,14.9126722 78.9287635,14.5017029 C78.8892211,14.0811969 79.1451079,13.6930648 79.5311021,13.5880685 C81.4002644,13.1172888 83.3612622,13.7871184 84.6199509,15.3262967 C85.2648792,16.1005631 85.5873433,17.3071284 85.5873433,18.9459924 L85.5873433,20.3706426 C83.3973706,20.3242712 81.2102729,20.5621896 79.074785,21.0790964 C77.594191,21.4352163 76.1760639,22.0375601 74.8730167,22.8637806 C73.9376405,23.4583559 73.1610612,24.2965636 72.6169848,25.2988486 C72.179901,26.1274651 71.9464024,27.0593729 71.9379848,28.0087812 C71.9160185,28.9883008 72.0798859,29.962514 72.4198557,30.8735671 C72.7236643,31.6609022 73.1916907,32.3650347 73.7888072,32.9331159 C74.4031244,33.4977004 75.1236032,33.917337 75.9024682,34.1641996 C76.7663995,34.447937 77.6666398,34.5876795 78.5710109,34.5784321 C79.3168468,34.5845768 80.0614582,34.5132622 80.794188,34.3655088 C81.4449054,34.2294767 82.0791923,34.0165141 82.6851662,33.7306104 C83.2899055,33.44029 83.8669131,33.0889622 84.4082198,32.6814793 C85.0011907,32.2341399 85.5691947,31.7507019 86.1093701,31.233601 L86.5985421,32.9524726 C86.6760949,33.3701773 86.9089932,33.7371659 87.2446872,33.970633 C87.6279092,34.1553185 88.0471851,34.2402637 88.4676171,34.2183982 L90.9353802,34.2183982 L90.9353802,18.9266357 C90.9487495,17.6448885 90.7574361,16.3699878 90.369547,15.155958 L90.369547,15.155958 Z M85.5763917,27.9971672 C85.2054286,28.4021786 84.8077303,28.7786506 84.3863166,29.1237249 C84.0043682,29.4315166 83.5947451,29.6986391 83.1633866,29.9212194 C82.7356594,30.1403739 82.2846177,30.3041472 81.8199889,30.4090073 C81.3084855,30.5213206 80.7871975,30.5758237 80.2648601,30.5716032 C79.471979,30.6104532 78.6884431,30.3769248 78.0307314,29.9057341 C77.4612476,29.4618213 77.1765057,28.7249777 77.1765057,27.6952033 C77.1748736,27.1797658 77.3185225,26.6755698 77.5890164,26.247325 C77.9449097,25.7337694 78.4256354,25.332351 78.979871,25.0859254 C79.8059133,24.6959396 80.6757765,24.4201079 81.5681019,24.2652029 C82.894782,24.0301226 84.2387706,23.9225789 85.5836928,23.9438823 L85.5763917,27.9971672 Z"></path>
            <path d="M9.64157806,5.45689936 C9.26344878,6.28795915 8.59172058,6.9451656 7.75895891,7.29881912 C7.32605925,7.48655416 6.85963802,7.58185978 6.38879014,7.57879092 C5.92856619,7.58123237 5.47294841,7.4858574 5.05133097,7.29881912 C4.64565811,7.12445498 4.27583045,6.87454931 3.961011,6.56205121 C3.6533703,6.24240428 3.40690649,5.86767951 3.23413102,5.45689936 C3.03907503,5.02962646 2.9374147,4.56467528 2.93611022,4.09387874 C2.93299873,3.61542705 3.02701856,3.14144087 3.21232462,2.7013874 C3.38373564,2.28986133 3.63035981,1.91489274 3.9392046,1.59623555 C4.25434805,1.28414259 4.62409605,1.03429074 5.02952457,0.859467644 C5.45094341,0.67179761 5.90669523,0.57639458 6.36698374,0.57949584 C6.84318069,0.570275038 7.31603703,0.661866861 7.75532451,0.848416125 C8.16883762,1.02225739 8.5471061,1.27203861 8.87108528,1.58518403 C9.19187315,1.90157409 9.45081957,2.2765297 9.63430926,2.69033588 C9.83329518,3.13074296 9.93618816,3.60948395 9.93596445,4.09387874 C9.93905784,4.55803561 9.8410191,5.01716118 9.64884686,5.43848016"></path>
            <path d="M113.935299,33.5788627 L113.935299,18.5534214 C113.948523,17.3247714 113.783563,16.1012582 113.446189,14.9256776 C113.152933,13.8899132 112.667419,12.9266286 112.018129,12.0923302 C111.37689,11.2864773 110.567838,10.6493667 109.654689,10.2311729 C108.630794,9.77882573 107.529248,9.55724374 106.420134,9.58052434 C105.71922,9.57530656 105.019933,9.6527 104.335166,9.81127759 C103.717419,9.95951889 103.118276,10.184251 102.550091,10.4808403 C101.990937,10.7726371 101.459008,11.1196739 100.961374,11.5173385 C100.453421,11.9225768 99.9759634,12.3690355 99.5333144,12.8526811 L99.1762994,10.9877409 C99.0148018,10.3368361 98.4389537,9.89987687 97.8053619,9.94745984 L91.9360354,9.94745984 L91.9360354,11.7216119 C91.9360354,13.0569545 94.3708777,12.0998959 94.3708777,14.513348 L94.3708777,33.5788627 L99.8760488,33.5788627 L99.8760488,16.4917734 C100.550483,15.7630637 101.327251,15.1492903 102.178795,14.6722273 C102.984243,14.2319627 103.878728,14.0060551 104.785005,14.0140131 C106.046458,14.0140131 106.992548,14.4099504 107.623274,15.2018249 C108.254001,15.9936995 108.566984,17.1108983 108.562223,18.5534214 L108.562223,33.5788627 L113.935299,33.5788627 Z"></path>
            <path d="M8.93603544,9.57886275 L0.936035444,9.57886275 L0.936035444,11.4037387 C0.936035444,12.5947104 3.41556761,11.9108621 3.41556761,14.254387 L3.41556761,33.5788627 L8.93603544,33.5788627 L8.93603544,9.57886275 Z"></path>
            <path d="M33.9353698,33.5788627 L33.9353698,18.5534214 C33.9479182,17.3248183 33.7829722,16.1014137 33.4462577,14.9256776 C33.1529117,13.8899521 32.6674057,12.9266853 32.0181932,12.0923302 C31.3769524,11.2864773 30.5678982,10.6493667 29.6547463,10.2311729 C28.6308476,9.77882573 27.529298,9.55724374 26.4201801,9.58052434 C25.7192643,9.57530656 25.0199748,9.6527 24.3352059,9.81127759 C23.7174566,9.95951889 23.1183118,10.184251 22.5501252,10.4808403 C21.9921514,10.7727467 21.4614156,11.1197839 20.9649736,11.5173385 C20.456955,11.9224938 19.9794896,12.368958 19.536909,12.8526811 L19.1798929,10.9877409 C19.0183947,10.3368361 18.4425448,9.89987687 17.8089509,9.94745984 L11.9360354,9.94745984 L11.9360354,11.7216119 C11.9360354,13.0569545 14.3708855,12.0998959 14.3708855,14.513348 L14.3708855,33.5788627 L19.8725042,33.5788627 L19.8725042,16.4917734 C20.5469782,15.7631096 21.3237414,15.1493418 22.1752583,14.6722273 C22.981779,14.2313647 23.8775608,14.0054398 24.7850462,14.0140131 C26.0465033,14.0140131 26.992596,14.4099504 27.6233245,15.2018249 C28.254053,15.9936995 28.5670372,17.1108983 28.562277,18.5534214 L28.562277,33.5788627 L33.9353698,33.5788627 Z"></path>
            <path d="M69.4354167,14.7423758 C69.1268947,13.7064061 68.613033,12.7500943 67.9273479,11.9358149 C67.2550635,11.1595724 66.4175876,10.5596541 65.4826127,10.1845512 C64.4204069,9.76910337 63.2929524,9.56636963 62.1590748,9.58692771 C61.4362061,9.58713175 60.71564,9.67213736 60.0108904,9.84035033 C59.3082706,10.0020478 58.6295576,10.2615658 57.9928989,10.6119655 C57.3500837,10.9751261 56.763587,11.4380532 56.2533758,11.9849865 C55.7051999,12.5778099 55.258677,13.2648951 54.9333635,14.0161498 C54.5366251,12.7713537 53.8256408,11.661819 52.8755909,10.8048692 C51.8817861,9.96465347 50.6300524,9.53050233 49.353147,9.58314529 C48.7247923,9.57691392 48.0984475,9.65832278 47.4906639,9.82522062 C46.9403041,9.98043621 46.408815,10.2012646 45.9066491,10.4833629 C45.4114782,10.7613026 44.945955,11.0935005 44.5179238,11.4743588 C44.0764122,11.8669314 43.6607761,12.2902673 43.2738574,12.7414719 L42.9122102,10.9902082 C42.7471745,10.3408859 42.1642395,9.90585025 41.5234849,9.95382314 L35.9360354,9.95382314 L35.9360354,12.0076811 C35.9360354,12.9684175 38.3590718,12.7641665 38.3590718,14.5797315 L38.3590718,33.5788627 L43.6572034,33.5788627 L43.6572034,16.2856061 C44.1981864,15.6213413 44.8425396,15.0573955 45.5630842,14.6175557 C46.2298047,14.2176523 46.9861091,14.01011 47.7546663,14.0161498 C48.9432802,14.0161498 49.8425763,14.3767412 50.4525546,15.097924 C51.0625328,15.8191067 51.367522,16.9714862 51.367522,18.5550623 L51.367522,33.5788627 L56.8283949,33.5788627 L56.8283949,18.5550623 C56.8166387,17.8891214 56.9208008,17.2264977 57.135795,16.5995475 C57.4861486,15.5587272 58.2535963,14.7298133 59.2369653,14.3300913 C59.7311329,14.1277864 60.2577775,14.0263549 60.7884319,14.0312795 C62.0059775,14.0312795 62.9305889,14.4095223 63.562266,15.1660077 C64.1939431,15.9224931 64.5097817,17.0572212 64.5097817,18.5701921 L64.5097817,33.5788627 L69.9344899,33.5788627 L69.9344899,18.5550623 C69.9545072,17.2673767 69.7799724,15.9844628 69.4173344,14.7537231"></path>
          </g>
        </g>
      </g>
    </symbol>
    <symbol id="media-wsj" viewBox="0 0 145 101">
      <g stroke="none" stroke-width="1" fill="none" fill-rule="evenodd" opacity="0.698730469">
        <g transform="translate(-265.000000, -2160.000000)" fill="#AAAAAA" fill-rule="nonzero">
          <g transform="translate(265.000000, 2160.000000)">
            <path d="M2.80502788,40.6018881 C2.32572667,38.3983938 2.0332717,38.061292 1.32853645,37.8742417 L0.627863078,37.6686918 L0.627863078,37.1445397 L7.53304995,37.1445397 L7.53304995,37.6686918 L6.97860406,37.7796887 C5.79659854,38.040737 5.9083001,39.2185377 6.24137382,40.8629364 L9.1577998,55.5104184 L11.2984077,43.8516312 L10.5266516,39.8536867 C10.2321656,38.4148378 10.1204641,38.0037381 9.38323384,37.7981882 L8.90393264,37.6871913 L8.90393264,37.1630392 L15.6608611,37.1630392 L15.6608611,37.6871913 L14.8484862,37.8372427 C13.6299238,38.0427925 13.8330175,39.405588 14.1112559,40.8629364 L16.9180113,55.5124739 L19.6861788,41.6481368 C20.2040679,38.770439 19.9441079,38.061292 18.837247,37.8372427 L18.061429,37.6871913 L18.061429,37.1630392 L23.1387723,37.1630392 L23.1387723,37.6871913 L22.4380989,37.8927411 C21.5526102,38.098291 21.3312381,38.8259374 20.813349,41.3295346 L16.3087301,63.0767083 L15.3480967,63.0767083 L11.8955033,46.1126795 L8.75770515,63.0767083 L7.53914276,63.0767083 L2.80502788,40.6018881 Z M38.9150933,62.1846219 L40.3915848,62.1846219 C43.5293829,62.1846219 44.4534594,58.4086713 44.8190281,54.4148378 L45.373474,54.4148378 L45.373474,62.9328234 L26.485757,62.9328234 L26.485757,62.4107268 L27.2575131,62.2606754 C28.8457061,61.9626281 28.8457061,61.5145294 28.4395187,59.2719806 L27.7408762,55.9091851 L23.1997004,55.9091851 L22.7203992,58.4518367 C22.1659533,61.3295346 22.4624701,62.0386815 23.569331,62.2627309 L24.3410872,62.4127823 L24.3410872,62.9348789 L19.2109395,62.9348789 L19.2109395,62.4127823 L19.8202207,62.2072324 C20.8356894,61.9091851 21.07534,61.3110351 21.593229,58.7683835 L26.0978479,37.0212098 L27.2047088,37.0212098 L31.9306999,59.479586 C32.4100011,61.7961327 32.6313733,62.2812304 33.9616372,62.2812304 C35.1050549,62.2812304 35.5112424,61.6645808 35.5112424,60.5628336 L35.5112424,39.4816415 C35.5112424,38.4538922 35.1801996,38.098291 34.4409384,37.9112406 L33.6285635,37.7056908 L33.6285635,37.1835942 L40.9399378,37.1835942 L40.9399378,37.7447453 L39.9244692,37.9502951 C39.1872389,38.1003465 38.8541652,38.4353927 38.8541652,39.4816415 L38.9150933,62.1846219 Z M23.3723301,55.0458758 L27.5804322,55.0458758 L25.4398243,44.4333372 L23.3723301,55.0458758 Z M51.43176,62.1846219 L52.9082514,62.1846219 C56.0460496,62.1846219 56.9701261,58.4086713 57.3356948,54.4148378 L57.8901407,54.4148378 L57.8901407,62.9328234 L46.1858489,62.9328234 L46.1858489,62.4107268 L46.9982238,62.2051769 C47.7354541,61.9996271 48.0685278,61.6440258 48.0685278,60.5977771 L48.0685278,39.483697 C48.0685278,38.4559477 47.737485,38.1003465 46.9982238,37.9132961 L46.1858489,37.7077463 L46.1858489,37.1835942 L53.4972233,37.1835942 L53.4972233,37.7447453 L52.4817546,37.9502951 C51.7445244,38.1003465 51.4114506,38.4353927 51.4114506,39.4816415 L51.43176,62.1846219 Z M69.9132896,63.0808193 C67.7726816,63.0808193 67.0334205,61.5864719 66.3327471,61.5864719 C65.9265596,61.5864719 65.4472584,61.6974688 65.0776278,62.9307679 L64.6348835,62.9307679 L64.6348835,54.3942828 L65.1893294,54.3942828 C65.6320737,59.2144267 67.4233604,62.2401204 69.8604852,62.2401204 C71.5217919,62.2401204 72.6672406,60.708774 72.6672406,57.9235736 C72.6672406,52.09418 64.4338207,49.5905829 64.4338207,43.1239847 C64.4338207,39.6296373 66.206829,36.9985993 69.3446271,36.9985993 C71.3755644,36.9985993 71.8183088,38.3428953 72.6672406,38.3428953 C73.1465418,38.3428953 73.4796155,37.9687946 73.6827092,37.1465952 L74.1254536,37.1465952 L74.1254536,45.6666363 L73.5710077,45.6666363 C73.1282633,41.3500896 71.9828147,37.8187432 69.3060393,37.8187432 C67.4781957,37.8187432 67.0720083,39.6686918 67.0720083,40.9574893 C67.0720083,46.5073352 75.3054281,48.4312817 75.3054281,56.2031214 C75.3033972,60.1661224 73.1627893,63.0417648 69.8767327,63.0417648 L69.9132896,63.0808193 Z M83.5205696,60.5772221 C83.5205696,61.6049714 83.8516124,62.0160711 84.5908735,62.1846219 L85.5515069,62.3901718 L85.5515069,62.9122684 L78.1081216,62.9122684 L78.1081216,62.3901718 L79.068755,62.1846219 C79.8059852,61.9790721 80.139059,61.6234708 80.139059,60.5772221 L80.139059,37.9132961 L79.326684,37.9132961 C77.0378177,37.9132961 76.1137412,41.6871913 75.8740906,45.6830803 L75.3196447,45.6830803 L75.3196447,37.1692057 L88.3542004,37.1692057 L88.3542004,45.6892468 L87.7997545,45.6892468 C87.5418255,41.6913023 86.617749,37.9194626 84.3471611,37.9194626 L83.5347861,37.9194626 L83.5347861,60.5607781 L83.5205696,60.5772221 Z M89.1665753,62.4271707 L89.9789502,62.2216209 C90.7161805,62.0160711 91.0492542,61.6604698 91.0492542,60.6142211 L91.0492542,39.5248069 C91.0492542,38.4970577 90.7182114,38.1414565 89.9789502,37.9544061 L89.1665753,37.7488563 L89.1665753,37.2247041 L96.2179897,37.2247041 C99.3557878,37.2247041 102.270183,39.2432036 102.270183,43.4651975 C102.270183,46.716996 100.757135,49.0150433 97.6924502,49.8372427 C101.05162,50.4538922 101.05162,52.098291 101.384694,56.3737278 L101.587788,59.6625253 C101.699489,61.5124739 101.790882,61.9235736 102.288461,61.9235736 C102.842907,61.9235736 103.064279,60.6532756 103.064279,59.4199765 L103.064279,58.803327 L103.673561,58.803327 L103.673561,59.6625253 C103.673561,61.7180238 103.230816,63.1568727 101.126765,63.1568727 C99.059271,63.1568727 98.0803592,61.9605726 97.9503792,57.6645808 L97.7472855,52.8814359 C97.6741717,50.6203876 97.1380043,50.2647864 96.0494219,50.2647864 L94.3150014,50.2647864 L94.3150014,60.6532756 C94.3150014,61.6810248 94.6460442,62.0921245 95.3853054,62.2976743 L96.1976803,62.5032242 L96.1976803,63.0253208 L89.0893997,63.0253208 L89.1665753,62.4271707 Z M94.3718677,49.4610865 L95.59043,49.4610865 C97.6579242,49.4610865 98.6916713,48.8999354 98.6916713,43.9112406 C98.6916713,38.9225459 97.3248505,37.9502951 95.8483591,37.9502951 L94.3718677,37.9502951 L94.3718677,49.4610865 Z M109.19771,62.2051769 L111.744505,62.2051769 C115.067119,62.2051769 115.696709,58.3942828 116.137423,54.4353927 L116.691869,54.4353927 L116.691869,62.9533784 L103.95383,62.9533784 L103.95383,62.4518367 L104.766205,62.2462869 C105.503435,62.040737 105.836509,61.6851358 105.836509,60.6388871 L105.836509,39.5206959 C105.836509,38.4929467 105.505466,38.081847 104.766205,37.9132961 L103.95383,37.7077463 L103.95383,37.1835942 L116.342548,37.1835942 L116.342548,45.7036353 L115.788102,45.7036353 C115.381914,41.7056908 114.606096,37.9338511 111.762784,37.9338511 L109.215988,37.9338511 L109.215988,49.1815387 L110.397994,49.1445397 C111.982125,49.0314873 112.57719,47.6501923 112.981346,44.4168933 L113.535792,44.4168933 L113.535792,54.8053825 L112.981346,54.8053825 C112.648273,50.7354955 112.022744,50.077736 110.341128,49.9852386 L109.19771,49.9482396 L109.19771,62.2051769 Z M122.896382,62.2051769 L125.443178,62.2051769 C128.765791,62.2051769 129.393351,58.3942828 129.836095,54.4353927 L130.390541,54.4353927 L130.390541,62.9533784 L117.656564,62.9533784 L117.656564,62.4518367 L118.468939,62.2462869 C119.206169,62.040737 119.539243,61.6851358 119.539243,60.6388871 L119.539243,39.5206959 C119.539243,38.4929467 119.206169,38.081847 118.468939,37.9132961 L117.656564,37.7077463 L117.656564,37.1835942 L130.045282,37.1835942 L130.045282,45.7036353 L129.490836,45.7036353 C129.084648,41.7056908 128.30883,37.9338511 125.465518,37.9338511 L122.918723,37.9338511 L122.918723,49.1815387 L124.100728,49.1445397 C125.688921,49.0314873 126.277893,47.6501923 126.68408,44.4168933 L127.256805,44.4168933 L127.256805,54.8053825 L126.702359,54.8053825 C126.371316,50.7313845 125.741725,50.077736 124.06214,49.9852386 L122.918723,49.9482396 L122.896382,62.2051769 Z M139.399779,60.5977771 C139.399779,61.7550227 139.732853,61.9790721 140.470083,62.1681779 L141.613501,62.4292262 L141.613501,62.9513229 L134.00764,62.9513229 L134.00764,62.4292262 L134.968274,62.2236764 C135.705504,62.0181266 136.038578,61.6625253 136.038578,60.6162766 L136.038578,37.9132961 L135.226203,37.9132961 C132.937336,37.9132961 132.01326,41.6871913 131.773609,45.6830803 L131.219163,45.6830803 L131.219163,37.1692057 L144.251688,37.1692057 L144.251688,45.6892468 L143.697242,45.6892468 C143.439313,41.6913023 142.515237,37.9194626 140.244649,37.9194626 L139.432274,37.9194626 L139.399779,60.5977771 Z M58.8893618,23.5248069 C58.8893618,24.6820526 59.2204046,24.9061019 59.9596658,25.0952077 L61.1030835,25.356256 L61.1030835,25.8783527 L53.4972233,25.8783527 L53.4972233,25.356256 L54.4578566,25.1507062 C55.1950869,24.9451564 55.5281606,24.5895551 55.5281606,23.5433064 L55.5281606,0.879380406 L54.7157856,0.879380406 C52.4269193,0.879380406 51.5069047,4.65327558 51.2631922,8.64916458 L50.6904679,8.64916458 L50.6904679,0.133234465 L63.7229926,0.133234465 L63.7229926,8.65327558 L63.1685467,8.65327558 C62.9106177,4.65533107 61.9865412,0.883491403 59.7159533,0.883491403 L58.9035784,0.883491403 L58.8893618,23.5248069 Z M64.5353676,25.3747555 L65.3477425,25.1692057 C66.0849727,24.9636558 66.4180465,24.6080546 66.4180465,23.5618059 L66.4180465,2.43128174 C66.4180465,1.40353251 66.0870037,1.04793128 65.3477425,0.86088092 L64.5353676,0.655331074 L64.5353676,0.129123468 L71.7350403,0.129123468 L71.7350403,0.653275575 L70.8861085,0.858825421 C70.1854352,1.06437527 69.7792477,1.34392306 69.7792477,2.39017177 L69.7792477,12.2154544 L75.3541706,12.2154544 L75.3541706,2.43128174 C75.3541706,1.40353251 74.9479832,1.08698575 74.2473098,0.89993539 L73.398378,0.694385544 L73.398378,0.129123468 L80.5980508,0.129123468 L80.5980508,0.653275575 L79.7856759,0.858825421 C79.0484456,1.06437527 78.7153719,1.38297753 78.7153719,2.42922624 L78.7153719,23.467253 C78.7153719,24.4950022 79.0464147,24.9061019 79.7856759,25.1116517 L80.5980508,25.3172016 L80.5980508,25.8392982 L73.3963471,25.8392982 L73.3963471,25.3172016 L74.2452789,25.1116517 C74.9459522,24.9061019 75.3521397,24.4950022 75.3521397,23.467253 L75.3521397,13.1198737 L69.7812786,13.1198737 L69.7812786,23.5453619 C69.7812786,24.5731111 70.1874661,24.9842108 70.8881395,25.1897607 L71.7370713,25.3953105 L71.7370713,25.9174071 L64.5414604,25.9174071 L64.5353676,25.3747555 Z M86.6725843,25.1692057 L89.2193797,25.1692057 C92.5419931,25.1692057 93.1695528,21.3583115 93.6122971,17.3994215 L94.166743,17.3994215 L94.166743,25.9174071 L81.4287041,25.9174071 L81.4287041,25.3953105 L82.2410791,25.1897607 C82.9783093,24.9842108 83.311383,24.6286096 83.311383,23.5823609 L83.311383,2.4867802 C83.311383,1.45903097 82.9803403,1.04793128 82.2410791,0.879380406 L81.4287041,0.67383056 L81.4287041,0.129123468 L93.8174218,0.129123468 L93.8174218,8.64916458 L93.2629759,8.64916458 C92.8567884,4.65122008 92.0809704,0.879380406 89.24172,0.879380406 L86.6949246,0.879380406 L86.6949246,12.127068 L87.8769301,12.090069 C89.4651231,11.9770166 90.0540949,10.5957216 90.4602824,7.36242254 L91.0147283,7.36242254 L91.0147283,17.7509118 L90.4602824,17.7509118 C90.1292396,13.6810248 89.499649,13.0232653 87.8200639,12.9307679 L86.6766462,12.8937689 L86.6725843,25.1692057 Z M33.0274061,93.9790721 C33.0274061,97.9790721 31.0330256,100.069514 27.9500628,100.069514 C25.1818952,100.069514 23.5571454,97.8084657 23.5937022,95.2863691 C23.634321,93.3439231 25.0153584,92.3716723 26.1770545,92.5217237 C26.9894294,92.6327206 27.8018043,93.2308706 27.6901028,94.5402232 C27.5784012,96.3901718 25.5840208,96.3346733 25.5109071,97.4919189 C25.4377933,98.2031214 26.3598389,99.2473146 27.5418444,99.2473146 C29.6093386,99.2473146 29.6093386,96.5751666 29.6093386,94.5772221 L29.6093386,76.4538922 C29.6093386,75.426143 29.2762648,75.1095962 28.4659209,74.9225459 L27.5438753,74.716996 L27.5438753,74.1928439 L34.8186928,74.1928439 L34.8186928,74.716996 L34.0063178,74.9225459 C33.2690876,75.1280957 32.9908492,75.446698 32.9908492,76.4929467 L33.0274061,93.9790721 Z M41.6304565,100.104457 C37.3106529,100.104457 35.2066018,94.2010659 35.2066018,87.0253208 C35.2066018,79.8886301 37.2375391,73.9852386 41.6304565,73.9852386 C45.9868171,73.9852386 48.0888372,79.8886301 48.0888372,87.0253208 C48.0888372,94.2195654 46.0944567,100.104457 41.6304565,100.104457 Z M41.6304565,74.8218264 C39.8026129,74.8218264 38.862289,76.3161738 38.862289,86.8547144 C38.862289,97.7488563 39.7112208,99.2596476 41.6304565,99.2596476 C43.5496923,99.2596476 44.4372119,97.7262458 44.4372119,86.778661 C44.4372119,76.2956188 43.5517232,74.8218264 41.6304565,74.8218264 L41.6304565,74.8218264 Z M62.7115859,99.3727 L63.5239608,99.1671502 C64.261191,98.9616003 64.5942647,98.6059991 64.5942647,97.5597504 L64.5942647,76.4908912 C64.5942647,75.2575921 64.0398189,74.8094935 62.7664212,74.8094935 C61.1416713,74.8094935 60.7354838,75.5576949 60.7354838,77.6871913 L60.7354838,93.9256291 C60.7354838,97.9605726 59.3138277,100.129123 55.901853,100.129123 C52.3578674,100.129123 50.2903732,97.9626281 50.2903732,94.0386815 L50.2903732,76.4908912 C50.2903732,75.463142 50.0324442,75.1075407 49.2749046,74.9204904 L48.4625297,74.7149405 L48.4625297,74.1681779 L55.8104609,74.1681779 L55.8104609,74.69233 L54.7949922,74.8978799 C53.9826173,75.1034297 53.6515745,75.3829775 53.6515745,76.4292262 L53.6515745,94.2545089 C53.6515745,97.8783527 54.6670431,98.8136045 56.5680005,98.8136045 C58.8020315,98.8136045 59.7057986,97.5433064 59.7057986,93.8804082 L59.7057986,79.0088768 C59.7057986,75.8701307 59.6651799,75.1034297 58.3410088,74.8238819 L57.6403354,74.6738306 L57.6403354,74.1496785 L69.7508146,74.1496785 C72.8886127,74.1496785 75.8030078,76.1681779 75.8030078,80.3901718 C75.8030078,83.6419703 74.2899595,85.9400176 71.2252751,86.762217 C74.5844454,87.3788665 74.5844454,89.0232653 74.9175191,93.2987021 L75.1206128,96.5874996 C75.2323144,98.4374482 75.3237066,98.8485479 75.8212862,98.8485479 C76.3757321,98.8485479 76.5971043,97.5782499 76.5971043,96.3449508 L76.5971043,95.7283013 L77.2063855,95.7283013 L77.2063855,96.5874996 C77.2063855,98.6429981 76.7636411,100.081847 74.6595901,100.081847 C72.5920959,100.081847 71.6131841,98.8855469 71.4832041,94.5895551 L71.2801104,89.8064102 C71.2069966,87.5453619 70.6708292,87.1897607 69.5822468,87.1897607 L67.8478263,87.1897607 L67.8478263,97.5782499 C67.8478263,98.6059991 68.1788691,99.0170988 68.9181303,99.2226486 L69.7305052,99.4281985 L69.7305052,99.9502951 L62.6222246,99.9502951 L62.6222246,99.4281985 L62.7115859,99.3727 Z M67.9168782,86.4066158 L69.1354406,86.4066158 C71.2029348,86.4066158 72.2366819,85.8454647 72.2366819,80.8567699 C72.2366819,75.8680752 70.869861,74.8958244 69.3933696,74.8958244 L67.9168782,74.8958244 L67.9168782,86.4066158 Z M77.9233063,74.8218264 L77.4074483,74.6717751 L77.4074483,74.1681779 L82.2410791,74.1681779 L88.8497491,91.1322067 L88.8497491,78.9122684 C88.8497491,76.147623 88.9228628,75.1753722 86.9670702,74.8382704 L86.357789,74.688219 L86.357789,74.1640669 L91.8413198,74.1640669 L91.8413198,74.688219 L91.3254617,74.8382704 C89.7372687,75.2123712 89.8489703,76.5196682 89.8489703,79.1548172 L89.8489703,99.9317956 L88.6669647,99.9317956 L80.3421527,79.3315901 L80.3421527,95.1753722 C80.3421527,98.2010659 80.3421527,99.0808193 82.7041328,99.397366 L82.7041328,99.9194626 L77.3871389,99.9194626 L77.3871389,99.397366 L78.0532863,99.2843136 C79.4180762,99.0212098 79.3815193,97.6769138 79.3815193,94.9677668 L79.3815193,77.0849303 C78.7722381,75.7776332 78.4939997,75.0664308 77.902997,74.8238819 L77.9233063,74.8218264 Z M110.414242,99.1486507 L111.890733,99.1486507 C115.028531,99.1486507 115.952608,95.3727 116.318176,91.3788665 L116.872622,91.3788665 L116.872622,99.8968521 L98.0458333,99.8968521 L98.0458333,99.3747555 L98.8236822,99.2452591 C100.411875,98.9472119 100.448432,98.4991132 100.005688,96.2565644 L99.3050144,92.8937689 L94.7618076,92.8937689 L94.2804755,95.4364205 C93.7260296,98.3141183 94.0225464,99.0232653 95.1294073,99.2473146 L95.9011635,99.397366 L95.9011635,99.9194626 L90.7689849,99.9194626 L90.7689849,99.397366 L91.3782661,99.1918162 C92.3937347,98.8937689 92.6333853,98.2956188 93.1512743,95.7529673 L97.6558933,74.0057936 L98.7647851,74.0057936 L103.488745,96.4641697 C103.970077,98.7807165 104.152862,99.2658141 105.483126,99.2658141 C106.626543,99.2658141 107.034762,98.6491646 107.034762,97.5474174 L107.034762,76.4908912 C107.034762,75.463142 106.703719,75.1075407 105.964458,74.9204904 L105.152083,74.7149405 L105.152083,74.1928439 L112.463457,74.1928439 L112.463457,74.753995 L111.447989,74.9595448 C110.710758,75.1095962 110.377685,75.4446425 110.377685,76.4908912 L110.414242,99.1486507 Z M94.9080351,92.0510145 L99.1161372,92.0510145 L96.9958387,81.4240875 L94.9080351,92.0510145 Z"></path>
          </g>
        </g>
      </g>
    </symbol>

  </defs>
</svg>