<svg xmlns="http://www.w3.org/2000/svg">
  <defs>
    <symbol id="how" viewBox="0 0 20 23">
      <g fill="#39B3CA" fill-rule="nonzero"><path d="M17.65 13.37c-.6 0-1.16.26-1.56.65l-2.49-1.44a3.7 3.7 0 000-2.86l2.52-1.44c.4.4.95.65 1.55.65 1.21 0 2.21-1 2.21-2.2 0-1.22-1-2.22-2.2-2.22-1.21 0-2.21 1-2.21 2.21 0 .21.04.4.09.58l-2.54 1.47a3.9 3.9 0 00-2.46-1.44V4.44A2.2 2.2 0 0010 .12c-1.2 0-2.2 1-2.2 2.2 0 1.03.69 1.89 1.64 2.12v2.9c-1 .15-1.88.68-2.46 1.43L4.47 7.33c.04-.19.09-.38.09-.59 0-1.2-1-2.2-2.21-2.2s-2.21 1-2.21 2.2c0 1.21 1 2.21 2.2 2.21.61 0 1.17-.25 1.57-.65l2.5 1.44c-.18.45-.27.93-.27 1.42 0 .51.1 1 .28 1.44l-2.49 1.45c-.4-.42-.95-.65-1.56-.65-1.2 0-2.2 1-2.2 2.2 0 1.21 1 2.21 2.2 2.21 1.21 0 2.21-1 2.21-2.2 0-.21-.05-.4-.1-.59l2.5-1.46c.6.77 1.46 1.28 2.46 1.42v2.9a2.2 2.2 0 00.56 4.33c1.2 0 2.2-1 2.2-2.21 0-1.02-.69-1.88-1.64-2.12v-2.9c1-.14 1.86-.68 2.46-1.42l2.51 1.46c-.04.19-.09.38-.09.58 0 1.21 1 2.21 2.21 2.21a2.22 2.22 0 000-4.44zm0-7.72a1.1 1.1 0 110 2.18 1.1 1.1 0 010-2.18zM2.35 7.84a1.1 1.1 0 110-2.19 1.1 1.1 0 010 2.19zm0 8.83a1.1 1.1 0 110-2.18 1.1 1.1 0 010 2.18zM8.9 2.33a1.1 1.1 0 112.18 0 1.1 1.1 0 01-2.18 0zM11.09 20a1.1 1.1 0 11-2.18 0 1.1 1.1 0 012.18 0zM10 13.93a2.77 2.77 0 010-5.53 2.79 2.79 0 012.77 2.76A2.79 2.79 0 0110 13.93zm7.65 2.74a1.1 1.1 0 110-2.18 1.1 1.1 0 010 2.18z"/><path d="M10.02 9.3c-.18 0-.37.05-.53.1a.88.88 0 01-.7 1.42.88.88 0 01-.53-.2c-.05.17-.1.36-.1.54 0 1.03.84 1.86 1.86 1.86 1.03 0 1.86-.83 1.86-1.86 0-1.02-.83-1.86-1.86-1.86z"/></g>
    </symbol>
    <symbol id="feature" viewBox="0 0 20 26">
      <g fill="#39B3CA" fill-rule="nonzero"><path d="M7.55 22.75a.4.4 0 100 .78h4.7a.4.4 0 000-.78h-4.7zM19.14 11.32c.22-.43.13-.95-.21-1.3l-.23-.22c-.22-.2-.5-.33-.8-.33-.17 0-.34.04-.5.12a1.11 1.11 0 00-1.06-.77H16c-.48 0-.9.3-1.06.77a1.06 1.06 0 00-.5-.13c-.3 0-.58.13-.8.34l-.22.24c-.2.19-.32.45-.33.73-.02.2.03.38.12.56-.46.15-.77.58-.77 1.06v.33c0 .48.3.91.77 1.06-.22.43-.14.95.2 1.3l.24.21c.2.22.5.34.8.34.17 0 .34-.04.49-.12.15.46.58.77 1.06.76h.33c.48 0 .91-.3 1.06-.76.16.08.33.12.5.12.3 0 .58-.12.8-.33l.23-.23c.34-.34.43-.86.2-1.3.47-.14.78-.57.77-1.06v-.32c0-.49-.3-.92-.76-1.07zm-.02 1.4a.31.31 0 01-.3.32h-.4c-.07.26-.17.51-.32.74l.3.3c.1.12.1.32-.03.43l-.23.23a.35.35 0 01-.24.1.27.27 0 01-.2-.07l-.29-.3c-.23.15-.48.26-.74.31v.42a.31.31 0 01-.33.29H16a.31.31 0 01-.32-.29v-.42a2.27 2.27 0 01-.75-.3l-.3.3a.27.27 0 01-.19.07.35.35 0 01-.24-.1l-.23-.24a.31.31 0 01-.03-.44l.3-.3a2.28 2.28 0 01-.3-.73h-.42a.31.31 0 01-.3-.33v-.32a.31.31 0 01.3-.33h.41c.06-.27.16-.52.3-.74l-.29-.3a.31.31 0 01.03-.43l.23-.23c.07-.07.15-.1.24-.1.08 0 .15.02.2.07l.3.3c.22-.15.47-.26.74-.31V9.9c0-.17.15-.3.32-.3h.33c.17 0 .32.13.33.3v.41c.26.06.51.17.74.31l.3-.3a.27.27 0 01.19-.07c.1 0 .18.04.24.1l.23.24c.13.11.14.3.03.44l-.3.29c.15.23.25.48.31.74h.41c.17.01.3.16.3.33v.32z"/><path d="M16.18 11.18a1.37 1.37 0 100 2.74 1.37 1.37 0 000-2.74zm0 1.96a.59.59 0 110-1.18.59.59 0 010 1.18zM12.45 8.89c0-.4-.21-.75-.56-.94.12-.37.01-.78-.26-1.06l-.19-.18a1.07 1.07 0 00-1.06-.26 1.05 1.05 0 00-.93-.57h-.27c-.39 0-.75.22-.93.57-.1-.04-.2-.05-.31-.05-.29 0-.55.11-.75.3L7 6.9a1.06 1.06 0 00-.26 1.05c-.35.19-.57.55-.56.94v.26c0 .4.21.75.56.93-.12.38-.02.79.26 1.06l.19.19a1.07 1.07 0 001.06.26c.18.35.54.57.93.57h.26c.4 0 .76-.22.94-.57.1.04.2.05.31.05.28 0 .55-.11.75-.3l.18-.2c.28-.27.38-.68.27-1.05.34-.19.56-.55.56-.94V8.9zm-.78.26c0 .14-.1.25-.24.26h-.33c-.05.21-.13.41-.25.59l.24.24c.09.1.08.25-.02.34l-.19.19a.28.28 0 01-.2.08.22.22 0 01-.15-.06l-.23-.24c-.18.12-.38.2-.59.25v.33a.25.25 0 01-.26.24h-.27a.25.25 0 01-.26-.23v-.33c-.2-.05-.4-.13-.59-.25l-.23.23a.22.22 0 01-.16.07.28.28 0 01-.2-.09l-.18-.18a.25.25 0 01-.02-.35l.23-.24c-.12-.18-.2-.38-.25-.58H7.2a.25.25 0 01-.23-.27V8.9a.25.25 0 01.23-.26h.34c.04-.21.13-.41.24-.6l-.23-.23a.25.25 0 01.02-.35l.18-.18a.28.28 0 01.2-.09c.06 0 .11.03.15.07l.24.23c.18-.11.38-.2.59-.24V6.9a.25.25 0 01.26-.23h.26c.14-.01.26.1.26.23v.33c.21.05.41.13.6.25l.23-.23c.04-.05.1-.07.15-.07.08 0 .15.03.2.08l.18.19c.1.09.11.25.02.35l-.23.24c.12.18.2.38.25.59h.34c.13 0 .24.12.23.26v.26z"/><path d="M9.31 7.84a1.18 1.18 0 100 2.36 1.18 1.18 0 000-2.36zm0 1.57a.4.4 0 110-.78.4.4 0 010 .78zM16.11 17.06l-.23-.01v6.09c0 .65-.52 1.17-1.17 1.17H5.29c-.65 0-1.17-.52-1.17-1.17v-7.65h-.79v7.65c0 1.08.88 1.96 1.96 1.96h9.42c1.08 0 1.96-.88 1.96-1.96v-6.1l-.23.02h-.33z"/><path d="M4.12 1.96c0-.65.52-1.18 1.17-1.18h1.02l.37.75.02.03c.34.49.9.78 1.49.79h3.62c.6-.01 1.15-.3 1.5-.79l.38-.78h1.02c.65 0 1.17.53 1.17 1.18v6.1c.08-.02.16-.02.23-.02h.33l.23.01V1.96A1.96 1.96 0 0014.7 0H5.29C4.21 0 3.33.88 3.33 1.96V10h.79V1.96zm8.7-1.18l-.2.38c-.2.24-.5.4-.8.4H8.18a1.14 1.14 0 01-.82-.4L7.18.78h5.64zM11.89 15.4c.12-.37.01-.78-.26-1.05l-.19-.19a1.07 1.07 0 00-1.06-.26 1.05 1.05 0 00-.93-.57h-.27c-.39 0-.75.22-.93.57-.1-.04-.2-.05-.31-.05-.29 0-.55.11-.75.3l-.19.2a1.06 1.06 0 00-.26 1.05c-.35.19-.57.55-.56.94v.26c0 .4.21.75.56.94-.12.37-.02.78.26 1.05l.19.19a1.07 1.07 0 001.06.26c.18.35.54.57.93.57h.26c.4 0 .76-.22.94-.56a1.07 1.07 0 001.06-.26l.18-.2c.28-.27.38-.68.27-1.05.34-.19.56-.55.56-.94v-.26c0-.4-.22-.75-.56-.94zm-.22 1.2c0 .14-.1.25-.24.26h-.33c-.05.21-.13.41-.25.6l.24.23c.09.1.08.25-.02.35l-.19.18a.28.28 0 01-.2.08.22.22 0 01-.15-.06L10.3 18c-.18.12-.38.2-.59.25v.33a.25.25 0 01-.26.24h-.27a.25.25 0 01-.26-.23v-.33c-.2-.05-.4-.13-.59-.25l-.23.24a.22.22 0 01-.16.06.28.28 0 01-.2-.08l-.18-.2a.25.25 0 01-.02-.34l.23-.24c-.12-.18-.2-.37-.25-.58H7.2a.25.25 0 01-.23-.26v-.27a.25.25 0 01.23-.26h.34c.04-.21.13-.41.24-.59l-.23-.24a.25.25 0 01.02-.35l.18-.18a.28.28 0 01.2-.08c.06 0 .11.02.15.06l.24.23c.18-.11.38-.2.59-.24v-.34a.25.25 0 01.26-.23h.26c.14 0 .26.1.26.23v.33c.21.05.41.13.6.25l.23-.23c.04-.04.1-.07.15-.07.08 0 .15.03.2.09l.18.18c.1.1.11.25.02.35l-.23.24c.12.18.2.38.25.59h.34c.13 0 .24.12.23.26v.26z"/><path d="M9.31 15.3a1.18 1.18 0 100 2.35 1.18 1.18 0 000-2.36zm0 1.56a.4.4 0 110-.78.4.4 0 010 .78zM2.06 11.57H5.2a.4.4 0 000-.79H2.06a.4.4 0 100 .79zM5.59 14.31a.4.4 0 00-.4-.39H2.07a.4.4 0 100 .79H5.2a.4.4 0 00.39-.4zM5.59 12.75a.4.4 0 00-.4-.4H.5a.4.4 0 100 .79h4.7a.4.4 0 00.4-.4z"/></g>
    </symbol>
    <symbol id="ecosystem" viewBox="0 0 20 20">
      <path d="M20 8.4V1.8h-6.8v2.8h-3V.1H.1v10h4.6v3.2h-3v6.6h6.8v-6.6H5.6V10h4l2.2 2.2-2 2 4.7 4.7 4.8-4.7-4.8-4.7-2 2-2.3-2.2V5.6h3v2.8h6.7zM7.5 19H2.7v-4.8h4.9V19zM18 14.3l-3.5 3.4-3.4-3.4 3.4-3.4 3.5 3.4zM9.3 9.2H1V1h8.3v8.2zm4.8-6.5H19v4.8h-4.9V2.7z" fill="#39B3CA" fill-rule="nonzero"/>
    </symbol>
    <symbol id="data" viewBox="0 0 18 22">
    <g fill="#39B3CA" fill-rule="nonzero"><path d="M15.8 3.5c-2-.2-3.8-1-5.2-2.4l-.4-.4a2 2 0 00-2.8 0L7 1a8.2 8.2 0 01-5.2 2.4 2 2 0 00-1.8 2v2.4c0 5.5 3 10.7 7.8 13.4.3.2.7.2 1 .2.3 0 .7 0 1-.2 4.8-2.7 7.8-7.9 7.8-13.4V5.4a2 2 0 00-1.8-2zm.4 4.4c0 5-2.7 9.7-7.1 12.2h-.6A14 14 0 011.4 7.9V5.4c0-.3.2-.5.5-.5a9.6 9.6 0 006-2.8l.5-.5.4-.1.4.1.4.5a9.7 9.7 0 006 2.8c.4 0 .6.2.6.5V8z"/><path d="M11.4 8V6.8c0-1.2-1-2.3-2.3-2.3h-.6c-1.3 0-2.3 1-2.3 2.3V8c-.9.3-1.6 1-1.6 2.1V13c0 1.2 1 2.2 2.3 2.2h3.8c1.3 0 2.3-1 2.3-2.2V10c0-1-.7-1.8-1.6-2.1zm-3-2h.7c.5 0 .9.3.9.8v1H7.6v-1c0-.5.4-.9.9-.9zm3.2 7c0 .4-.4.8-.9.8H7A.8.8 0 016 13V10c0-.4.4-.8.9-.8h3.8c.5 0 .9.4.9.8V13z"/><path d="M8.8 10a.8.8 0 00-.4 1.6l-.3 1v.3h1.4v-.2l-.3-1.1c.3-.1.4-.4.4-.7 0-.5-.3-.8-.8-.8z"/></g>
    </symbol>
    <symbol id="pm" viewBox="0 0 20 20">
      <g fill="#39B3CA" fill-rule="nonzero"><path d="M18.1 8.1h-3.7c-.2 0-.3 0-.5-.2L10 4 6 8l-.4.1H2a.6.6 0 01-.6-.6V.6c0-.3.2-.6.6-.6H18c.4 0 .6.3.6.6v6.9c0 .3-.2.6-.6.6zM14.6 7h2.9V1.2h-15V7h2.9l4.2-4.2c.2-.3.6-.3.8 0l4.2 4.2zM3.1 20a.6.6 0 01-.6-.6v-10c0-.4.3-.7.6-.7.4 0 .6.3.6.7v10c0 .3-.2.6-.6.6zM16.9 20a.6.6 0 01-.6-.6v-10c0-.4.2-.7.6-.7.3 0 .6.3.6.7v10c0 .3-.3.6-.6.6z"/><path d="M19.4 20H.6a.6.6 0 01-.6-.6c0-.4.3-.6.6-.6h18.8c.3 0 .6.2.6.6 0 .3-.3.6-.6.6zM13.8 12.5h-2.6a.6.6 0 01-.6-.6V9.4c0-.4.3-.7.7-.7h2.4c.4 0 .7.3.7.7v2.5c0 .3-.3.6-.7.6zm-2-1.3h1.3V10H12v1.3zM13.8 17.5h-2.6a.6.6 0 01-.6-.6v-2.5c0-.4.3-.7.7-.7h2.4c.4 0 .7.3.7.7v2.5c0 .3-.3.6-.7.6zm-2-1.3h1.3V15H12v1.3zM8.8 12.5H6.2a.6.6 0 01-.6-.6V9.4c0-.4.3-.7.7-.7h2.5c.3 0 .6.3.6.7v2.5c0 .3-.3.6-.7.6zm-2-1.3h1.3V10H7v1.3z"/><path d="M8.8 20H6.2a.6.6 0 01-.6-.6v-5c0-.4.3-.7.7-.7h2.5c.3 0 .6.3.6.7v5c0 .3-.3.6-.7.6zm-2-1.3h1.3V15H7v3.8z"/></g>
    </symbol>
    <symbol id="brokerage" viewBox="0 0 20 21">
      <g fill="#39B3CA" fill-rule="nonzero"><path d="M4.77 9.11c.25.07.53.03.75-.11l.07-.05v3.69c0 .22.18.4.41.4h2.48a.4.4 0 00.4-.4v-2.55h1.26v2.57c0 .23.18.4.4.4h2.48a.4.4 0 00.41-.4V8.93l.27.16c.16.1.32.14.5.14a1 1 0 00.85-.48 1 1 0 00-.35-1.34L10 4.66a.98.98 0 00-1 0l-1.39.82v-.89a.4.4 0 00-.4-.4H5.97a.4.4 0 00-.41.4V6.7l-1.05.62a.99.99 0 00-.34 1.34c.12.23.32.39.6.45zm7.84 3.14h-1.66v-2.6a.4.4 0 00-.4-.4H8.48a.4.4 0 00-.41.4v2.58H6.4V8.48l3.11-1.84 3.12 1.81v3.8h-.03zM6.4 5h.38v.98l-.38.22V5zM4.93 8.05l4.5-2.66c.05-.03.1-.03.14 0l4.7 2.77c.07.04.1.14.05.18-.05.07-.12.1-.2.05L9.7 5.79a.37.37 0 00-.2-.06.37.37 0 00-.2.07L5.1 8.3c-.05.02-.1.02-.12.02-.03 0-.07-.02-.1-.07a.15.15 0 01.05-.2zM13.43 4.05h3.02a.4.4 0 00.41-.41.4.4 0 00-.4-.41h-3.03a.4.4 0 00-.4.4c0 .23.17.42.4.42zM13.43 5.55h.55a.4.4 0 00.4-.41.4.4 0 00-.4-.41h-.55a.4.4 0 00-.4.4c0 .23.17.42.4.42zM16.55 4.7h-1.32a.4.4 0 00-.41.41c0 .23.18.41.4.41h1.3a.4.4 0 00.41-.4c.02-.21-.16-.42-.38-.42z"/><path d="M19.4.1H.44C.2.1 0 .26 0 .5v1.23c0 .22.18.4.4.4h.7v13.1c0 .22.17.4.4.4h4.36l-2.22 3.94c-.12.2-.05.45.16.57.06.04.13.04.2.04.14 0 .3-.07.36-.2L5.4 18.2h.09l4.09-1v1.87c0 .23.18.4.4.4a.4.4 0 00.42-.4v-1.89l4.13.98 1.05 1.82c.07.13.23.2.36.2.07 0 .14-.02.2-.04.21-.12.28-.37.17-.57l-2.25-3.93h2.54c1.23 0 2.23-1 2.23-2.23V2.16h.57a.4.4 0 00.4-.41V.5c.03-.23-.15-.4-.38-.4zM5.96 17.22l.91-1.57h2.69v.68l-3.6.89zm8-.05l-3.56-.84v-.68h2.7l.86 1.52zM18 13.41a1.4 1.4 0 01-1.39 1.39H1.93V2.23H18V13.4zm.98-12.1H.84v-.4h18.14v.4z"/></g>
    </symbol>
    <symbol id="mortgage" viewBox="0 0 20 20">
      <g fill="#39B3CA" fill-rule="nonzero"><path d="M5.96 8.36a.56.56 0 00-.77 0L.2 13.13a.56.56 0 00-.02.79c.21.22.57.23.79.01l4.6-4.4 4.59 4.4c.22.22.57.2.78-.01a.56.56 0 00-.01-.79L5.96 8.36z"/><path d="M5.96 10.78a.55.55 0 00-.77 0l-4.1 3.94a.55.55 0 00-.17.4v4.33c0 .3.24.55.55.55h3.05c.3 0 .56-.25.56-.55v-1.8c0-.27.22-.49.5-.49.27 0 .49.22.49.5v1.79c0 .3.24.55.55.55h3.05c.31 0 .56-.25.56-.55v-4.33c0-.15-.06-.3-.17-.4l-4.1-3.94zm3.16 8.11H7.17v-1.24a1.6 1.6 0 00-3.2 0v1.24H2.02v-3.53l3.55-3.4 3.55 3.4v3.53zM14.82 4.7a.58.58 0 01-.58-.59.58.58 0 011.12-.2c.1.29.43.43.71.33.3-.11.44-.43.33-.72a1.7 1.7 0 00-1.02-1v-.25c0-.3-.25-.56-.56-.56-.3 0-.56.25-.56.56v.25a1.7 1.7 0 00.56 3.28.58.58 0 11-.54.78.56.56 0 00-.72-.32.56.56 0 00-.33.71c.18.48.57.83 1.03 1v.25a.55.55 0 101.1 0v-.25a1.69 1.69 0 00-.54-3.28z"/><path d="M17.32.68a5.19 5.19 0 00-6 8.38v2.85c0 .5.59.74.94.4l1.96-1.93a5.2 5.2 0 003.1-9.7zm1.06 6.52a4.1 4.1 0 01-4.27 2.05.56.56 0 00-.48.16l-1.2 1.18V8.83a.57.57 0 00-.2-.44 4.08 4.08 0 116.15-1.19z"/></g>
    </symbol>
    <symbol id="moving" viewBox="0 0 20 16">
      <path d="M20 8.75l-.06-.08c-.05-.2-.14-.4-.25-.58l-3.17-4.75a1.88 1.88 0 00-1.56-.84h-3.71v-.63C11.25.84 10.41 0 9.37 0h-7.5C.84 0 0 .84 0 1.88v9.37c0 1.04.84 1.88 1.88 1.88h.06a3.13 3.13 0 006.12 0h3.25a3.13 3.13 0 006.13 0h.68c1.04 0 1.88-.84 1.88-1.88V9.13c0-.13-.02-.25-.04-.38H20zM17.5 7.5h-3.13V6.25h2.2l.93 1.25zM1.25 11.25V1.87c0-.34.28-.62.63-.62h7.5c.34 0 .62.28.62.63v10H8.06a3.12 3.12 0 00-6.12 0h-.06a.62.62 0 01-.63-.63zM5 14.38a1.88 1.88 0 110-3.76 1.88 1.88 0 010 3.76zm9.38 0a1.88 1.88 0 110-3.76 1.88 1.88 0 010 3.76zm4.26-5.6c.07.1.11.23.11.35v2.12c0 .35-.28.63-.63.63h-.68a3.12 3.12 0 00-6.13 0h-.06V3.74h3.7c.22 0 .41.1.53.28l.62.97h-1.73c-.69 0-1.24.56-1.24 1.25V7.5c0 .69.55 1.25 1.24 1.25h4.26l.01.03z" fill="#39B3CA" fill-rule="nonzero"/>
    </symbol>
    <symbol id="utilities" viewBox="0 0 20 20">
      <path d="M10.63 12a3.77 3.77 0 006.6 1.9 5.98 5.98 0 001.6-3.9A8.82 8.82 0 1010 18.82.59.59 0 0110 20a10 10 0 1110-10c0 1.63-.63 3.2-1.88 4.66a4.94 4.94 0 01-8.68-2.65 3.24 3.24 0 01-2.68-3.19v-.3a.59.59 0 110-1.17h1.18V5.6a.59.59 0 111.18 0v1.76h1.76V5.6a.59.59 0 011.18 0v1.76h1.18a.59.59 0 110 1.18v.3A3.24 3.24 0 0110.63 12zM7.94 8.53v.3a2.06 2.06 0 004.12 0v-.3H7.94z" fill="#39B3CA" fill-rule="nonzero"/>
    </symbol>
    <symbol id="other" viewBox="0 0 20 20">
      <g fill="#39B3CA" fill-rule="nonzero"><path d="M14.1 13.1a7.59 7.59 0 10-1 1l5.7 5.7a.69.69 0 00.97-.97L14.1 13.1zm-5.82 1.38a6.2 6.2 0 110-12.41 6.2 6.2 0 010 12.41z"/><path d="M11.72 7.59H8.97V4.83a.69.69 0 10-1.38 0v2.76H4.83a.69.69 0 100 1.38h2.76v2.75a.69.69 0 101.38 0V8.97h2.75a.69.69 0 100-1.38z"/></g>
    </symbol>
    <symbol id="blog" viewBox="0 0 20 17">
      <g fill="#39B3CA" fill-rule="nonzero"><path d="M17.5 6h-1.9V1.8c0-1-.8-1.8-1.8-1.8H2.3C1.3 0 .5.8.5 1.8v13.4c0 1 .8 1.8 1.8 1.8h14.4c1.4 0 2.6-1.2 2.6-2.6V7.8c0-1-.8-1.8-1.8-1.8zM2.3 15.5a.3.3 0 01-.3-.3V1.8c0-.2.1-.3.3-.3h11.5c.2 0 .3.1.3.3v12.6c0 .4.1.8.3 1.1H2.3zm15.5-1c0 .5-.5 1-1 1-.7 0-1.2-.5-1.2-1v-7h1.9c.2 0 .3.1.3.3v6.6z"/><path d="M4.3 7.7h2.1c.4 0 .8-.3.8-.7V4c0-.5-.4-.8-.8-.8H4.3c-.4 0-.8.3-.8.7v3c0 .5.4.8.8.8zM11.9 9.3H4.3a.7.7 0 100 1.5h7.6a.7.7 0 100-1.5zM11.9 6.2H9.2a.7.7 0 100 1.5h2.7a.7.7 0 100-1.5zM11.9 3.2H9.2a.7.7 0 100 1.4h2.7a.7.7 0 100-1.4zM11.9 12.3H4.3a.7.7 0 100 1.5h7.6a.7.7 0 100-1.5z"/></g>
    </symbol>
    <symbol id="clients" viewBox="0 0 18 20">
      <path d="M17.1 4.77v-.06a.71.71 0 00-.14-.21L12.67.21a.71.71 0 00-.21-.14h-.07a.71.71 0 00-.21-.07h-8.6c-.4 0-.72.32-.72.71v5.25a4.29 4.29 0 000 8.08v5.25c0 .39.32.71.71.71h12.86c.4 0 .71-.32.71-.71V5v-.04a.71.71 0 00-.04-.19zm-2.4-.48h-1.84V2.44l1.85 1.85zM1.44 10a2.86 2.86 0 115.71 0 2.86 2.86 0 01-5.71 0zm2.86 8.57V14.3c.8 0 1.6-.24 2.28-.67l2.86 3.29a.71.71 0 001.07-.95l-2.9-3.29a4.29 4.29 0 00-3.31-6.96V1.43h7.14V5c0 .4.32.71.71.71h3.57v12.86H4.3z" fill="#39B3CA" fill-rule="nonzero"/>
    </symbol>
    <symbol id="ebook" viewBox="0 0 16 20">
      <path d="M2.55.21A2.58 2.58 0 000 2.77v14.89c0 1.17.96 2.13 2.13 2.13h12.55c.34 0 .64-.3.64-.64V4.68a.62.62 0 00-.64-.64c-.61 0-1.28-.66-1.28-1.27 0-.62.67-1.28 1.28-1.28.34 0 .64-.3.64-.64s-.3-.64-.64-.64H2.55zm0 1.28h9.93a2.5 2.5 0 000 2.55H2.55c-.61 0-1.27-.66-1.27-1.27 0-.62.66-1.28 1.27-1.28zM1.28 4.97c.37.22.81.35 1.27.35h11.5v13.2H2.12a.84.84 0 01-.85-.86V4.96zm2.34 2.9a.64.64 0 000 1.28h8.08a.64.64 0 100-1.28H3.62zm0 3.4a.64.64 0 000 1.28h8.08a.64.64 0 100-1.27H3.62zm0 3.41a.64.64 0 000 1.28h8.08a.64.64 0 100-1.28H3.62z" fill="#39B3CA" fill-rule="nonzero"/>
    </symbol>
    <symbol id="checklist" viewBox="0 0 19 19">
      <path d="M3.13 0A3.14 3.14 0 000 3.13v12.55c0 1.73 1.4 3.13 3.13 3.13h12.55c1.73 0 3.13-1.4 3.13-3.13V3.13c0-1.72-1.4-3.13-3.13-3.13H3.13zm0 1.18h12.55c1.1 0 1.96.86 1.96 1.95v12.55c0 1.1-.86 1.96-1.96 1.96H3.13c-1.09 0-1.95-.86-1.95-1.96V3.13c0-1.09.86-1.95 1.95-1.95zm3.92 2.19h-.06a.59.59 0 00-.35.15l-1.9 1.74-.67-.64a.59.59 0 10-.81.85L4.33 6.5c.22.21.57.21.8 0l2.3-2.1a.59.59 0 00-.38-1.02zm2.14 1.05a.59.59 0 100 1.17h5.96a.59.59 0 100-1.17H9.2zM7.05 7.77c-.15 0-.3.05-.41.16l-1.9 1.73-.67-.64a.59.59 0 10-.81.85l1.07 1.02c.23.21.57.21.8 0l2.3-2.1a.59.59 0 00-.38-1.02zm2.14 1.05a.59.59 0 100 1.18h5.96a.59.59 0 100-1.18H9.2zm-2.13 3.34a.59.59 0 00-.42.17l-1.9 1.73-.67-.64a.59.59 0 10-.81.86l1.07 1.01c.23.21.57.21.8 0l2.3-2.1a.59.59 0 00-.37-1.03zm2.07 1.06a.59.59 0 00.06 1.18h5.96a.59.59 0 100-1.18H9.13z" fill="#39B3CA" fill-rule="nonzero"/>
    </symbol>
    <symbol id="compare" viewBox="0 0 20 19">
      <path d="M19.68 0H.32A.32.32 0 000 .32v17.42c0 .18.14.32.32.32h19.36c.18 0 .32-.14.32-.32V.32a.32.32 0 00-.32-.32zM.65.65h18.7v4.51H.65V.65zM12.9 5.8v11.6H7.1V5.82h5.8zM.65 5.8h5.8v11.6H.65V5.82zm18.7 11.6h-5.8V5.82h5.8v11.6zM1.3 7.75c0-.18.14-.32.32-.32h3.87a.32.32 0 110 .64H1.61a.32.32 0 01-.32-.32zm8.39-3.7a1.29 1.29 0 100-2.59 1.29 1.29 0 000 2.58zm0-1.94a.65.65 0 110 1.29.65.65 0 010-1.3zM5.8 10.22c0 .17-.15.32-.33.32H1.61a.32.32 0 010-.65h3.87c.18 0 .33.15.33.33zm0 2.47c0 .18-.15.32-.33.32H1.61a.32.32 0 010-.65h3.87c.18 0 .33.15.33.33zm0 2.47c0 .18-.15.32-.33.32H1.61a.32.32 0 010-.64h3.87c.18 0 .33.14.33.32zM9.07 7.6a.32.32 0 01.43-.15l.44.22 1.12-1.12a.32.32 0 11.46.45l-1.3 1.3a.32.32 0 01-.37.05l-.64-.32a.32.32 0 01-.14-.43zm0 2.25a.32.32 0 01.43-.14l.44.22 1.12-1.13a.32.32 0 11.46.46l-1.3 1.3a.32.32 0 01-.37.05l-.64-.32a.32.32 0 01-.14-.44zm6.74-2.43c0-.18.14-.32.32-.32h.64a.32.32 0 110 .64h-.64a.32.32 0 01-.32-.32zm0 2.26c0-.18.14-.33.32-.33h.64a.32.32 0 110 .65h-.64a.32.32 0 01-.32-.32zm-.3 2.76a.32.32 0 01.44-.15l.44.22 1.12-1.13a.32.32 0 01.46.46l-1.29 1.3a.32.32 0 01-.37.05l-.65-.32a.32.32 0 01-.14-.43zm2.46 1.85a.32.32 0 010 .46l-1.29 1.29a.32.32 0 01-.37.05l-.65-.32a.32.32 0 11.3-.57l.43.21 1.12-1.12a.32.32 0 01.46 0zm-6.45-2.9a.32.32 0 010 .45l-1.3 1.3a.32.32 0 01-.37.05l-.64-.32a.32.32 0 01.29-.58l.44.22 1.12-1.13a.32.32 0 01.46 0zm-.55 3.77c0 .18-.15.32-.32.32H10a.32.32 0 010-.64h.65c.17 0 .32.14.32.32zm4.51-11.13h1.94a.32.32 0 00.29-.47l-.97-1.93a.32.32 0 00-.58 0l-.96 1.93a.32.32 0 00.28.47zm.97-1.53l.45.89H16l.45-.9z" fill="#39B3CA" fill-rule="nonzero"/>
    </symbol>
    <symbol id="voter" viewBox="0 0 20 21">
      <path d="M19.3 19.74h-1.76V8.94c0-.28-.24-.52-.53-.52h-1.44V7.11c0-.59-.22-1.15-.61-1.58L10.3.43a.53.53 0 00-.8.7l4.67 5.12c.21.23.33.54.34.86v1.31h-7.1l-.47-.95a.53.53 0 10-.94.48l2.96 5.86a1.29 1.29 0 01-1.62 1.78l-.09-.03c-.27-.11-.5-.3-.64-.56l-1.97-3.36a2.33 2.33 0 00-.24-.34L2.06 8.57c-.33-.4-.52-.89-.53-1.4L1.5.89c0-.3-.24-.53-.53-.53C.67.36.43.6.43.9l.05 6.28c.01.76.29 1.5.8 2.08l1.25 1.47v9.02H.71a.53.53 0 100 1.05h18.58a.53.53 0 100-1.05zm-15.73-7.8l.04.04c.05.06.1.12.13.2l1.97 3.35c.26.45.68.8 1.17 1l.09.03a2.34 2.34 0 002.94-3.24L7.96 9.47h8.53v10.27H3.57v-7.8z" fill="#39B3CA" fill-rule="nonzero"/>
    </symbol>
    <symbol id="packing" viewBox="0 0 20 23">
      <g fill="#39B3CA" fill-rule="nonzero"><path d="M19.86 12.79l-1.53-3.17a.56.56 0 00-.33-.29l-4.48-1.57-.9.9 3.43 1.22-6.05 2.1-6.05-2.12 3.43-1.2-.9-.9L2 9.33a.66.66 0 00-.33.29L.14 12.79a.66.66 0 00-.02.47c.07.14.19.26.33.34l1.15.4v5.43c0 .24.16.47.38.55l7.8 2.73c.08.03.12.03.2.03.07 0 .12 0 .19-.03l7.8-2.73c.24-.1.39-.31.39-.55v-5.45l1.14-.4a.47.47 0 00.33-.34c.1-.14.1-.31.03-.45zM1.48 12.7L2.5 10.6l6.69 2.35-1.02 2.12-6.7-2.36zm7.95 8.62L2.79 19v-4.6l5.5 1.93c.07.03.11.03.19.03.21 0 .42-.12.52-.34l.43-.88v6.2zM17.2 19l-6.64 2.33v-6.19l.43.88c.1.22.31.34.52.34.08 0 .12 0 .2-.03l5.5-1.93V19zm-5.38-3.95l-1.02-2.12 6.69-2.36 1.02 2.12-6.69 2.36z"/><path d="M9.6 9.21c.11.12.26.17.4.17s.29-.05.4-.17l2.58-2.54a.58.58 0 000-.84.58.58 0 00-.84 0L10.57 7.4V.7A.58.58 0 0010 .12a.58.58 0 00-.57.57V7.4L7.86 5.83a.58.58 0 00-.84 0 .58.58 0 000 .84L9.6 9.2z"/></g>
    </symbol>
    <symbol id="dmv" viewBox="0 0 20 16">
      <g fill="#39B3CA" fill-rule="nonzero"><path d="M2.63 7.56v.69c0 .08.06.17.16.17h4.67c.08 0 .17-.07.17-.17v-.69c0-.83-.67-1.5-1.5-1.5H4.14a1.5 1.5 0 00-1.53 1.5z"/><circle cx="5.13" cy="4.06" r="1.5"/><path d="M13.3 2.77c0-.1-.1-.19-.2-.19H8.85c-.1 0-.18.09-.18.2v.74c0 .1.08.19.18.19h4.25c.1 0 .2-.08.2-.19v-.75zM13.3 5.85V5.1c0-.1-.1-.18-.2-.18H8.85c-.1 0-.18.08-.18.18v.75c0 .1.08.2.18.2h4.25c.1 0 .2-.1.2-.2zM8.67 7.46v.75c0 .1.08.19.18.19h1.67l.1-.34c.09-.29.23-.56.42-.79H8.85c-.1 0-.18.06-.18.19z"/><path d="M9.02 10.17c0-.15.02-.27.06-.42H1.23V1.21H14.7v5.02h1.12V.65a.56.56 0 00-.56-.57H.7a.56.56 0 00-.56.57v9.64c0 .31.24.56.56.56H9.1a1.38 1.38 0 01-.06-.43v-.25h-.02z"/><path d="M19.4 9.65h-.65l-.42-1.3c-.2-.66-.83-1.1-1.52-1.1h-3.68c-.71 0-1.32.44-1.53 1.1l-.41 1.3h-.65a.5.5 0 00-.5.5v.29c0 .27.23.5.5.5h.19c-.1.46-.17.94-.17 1.41v2.44c0 .27.23.5.5.5h.86a.5.5 0 00.5-.5v-.77h5.08v.77c0 .27.23.5.5.5h.85a.5.5 0 00.5-.5v-2.41c0-.48-.06-.96-.16-1.42h.18a.5.5 0 00.5-.5v-.3a.48.48 0 00-.47-.51zm-6.73-.96c.06-.21.25-.34.46-.34h3.68c.21 0 .4.13.46.34l.48 1.5h-5.56l.48-1.5zm.48 3.96h-1.03a.32.32 0 01-.3-.32v-.48c0-.18.16-.33.35-.3l.96.14c.12.02.22.12.24.25l.07.33c.04.19-.1.38-.3.38zm4.97-.32c0 .17-.14.32-.3.32h-1.03c-.19 0-.35-.2-.31-.38l.06-.33a.31.31 0 01.25-.25l.96-.15c.19-.02.35.13.35.31v.48h.02z"/></g>
    </symbol>
    <symbol id="best" viewBox="0 0 20 21">
      <path d="M10 .24a10 10 0 00-10 10c0 2.1.66 4.02 1.76 5.63l-1.72 3.7a.48.48 0 00.64.62l3.69-1.72A9.95 9.95 0 0010 20.24a10 10 0 000-20zm0 .95a9.04 9.04 0 11-5.32 16.36.48.48 0 00-.48-.04l-2.74 1.27 1.27-2.74a.48.48 0 00-.04-.48A9.04 9.04 0 0110 1.19zm0 1.9a4.75 4.75 0 00-3.71 7.73c.48.64.85 1.09.85 2.28 0 .26.22.47.48.47h4.76c.26 0 .48-.21.48-.47 0-1.2.37-1.64.85-2.28A4.75 4.75 0 0010 3.1zm0 .96a3.78 3.78 0 013.81 3.77c0 1.3-.38 1.8-.86 2.43a4.53 4.53 0 00-1 2.37h-1.47V8.97c.55-.2.95-.73.95-1.35 0-.78-.65-1.43-1.43-1.43-.78 0-1.43.65-1.43 1.43 0 .62.4 1.15.95 1.35v3.65H8.05a4.53 4.53 0 00-1-2.37c-.48-.63-.86-1.13-.86-2.43 0-2.09 1.7-3.77 3.81-3.77zm0 3.1c.27 0 .48.2.48.47 0 .27-.21.48-.48.48a.47.47 0 01-.48-.48c0-.27.21-.48.48-.48zm-2.07 7.37a.48.48 0 10.05.96h4.04a.48.48 0 100-.96H7.93zm.95 1.9a.48.48 0 10.05.96h2.14a.48.48 0 100-.95H8.88z" fill="#39B3CA" fill-rule="nonzero"/>
    </symbol>
  </defs>
</svg>
  